Mips/Entrega UC/mips-SemUC_restored/simulation/qsim/mips.msim.vcd
$comment
	File created using the following command:
		vcd file mips.msim.vcd -direction
$end
$date
	Thu Nov 28 14:46:31 2019
$end
$version
	ModelSim Version 10.5b
$end
$timescale
	1ps
$end

$scope module mips_vhd_vec_tst $end
$var wire 1 ! CLOCK_50 $end
$var wire 1 " KEY [3] $end
$var wire 1 # KEY [2] $end
$var wire 1 $ KEY [1] $end
$var wire 1 % KEY [0] $end
$var wire 1 & LEDG [7] $end
$var wire 1 ' LEDG [6] $end
$var wire 1 ( LEDG [5] $end
$var wire 1 ) LEDG [4] $end
$var wire 1 * LEDG [3] $end
$var wire 1 + LEDG [2] $end
$var wire 1 , LEDG [1] $end
$var wire 1 - LEDG [0] $end
$var wire 1 . LEDR [17] $end
$var wire 1 / LEDR [16] $end
$var wire 1 0 LEDR [15] $end
$var wire 1 1 LEDR [14] $end
$var wire 1 2 LEDR [13] $end
$var wire 1 3 LEDR [12] $end
$var wire 1 4 LEDR [11] $end
$var wire 1 5 LEDR [10] $end
$var wire 1 6 LEDR [9] $end
$var wire 1 7 LEDR [8] $end
$var wire 1 8 LEDR [7] $end
$var wire 1 9 LEDR [6] $end
$var wire 1 : LEDR [5] $end
$var wire 1 ; LEDR [4] $end
$var wire 1 < LEDR [3] $end
$var wire 1 = LEDR [2] $end
$var wire 1 > LEDR [1] $end
$var wire 1 ? LEDR [0] $end

$scope module i1 $end
$var wire 1 @ gnd $end
$var wire 1 A vcc $end
$var wire 1 B unknown $end
$var wire 1 C devoe $end
$var wire 1 D devclrn $end
$var wire 1 E devpor $end
$var wire 1 F ww_devoe $end
$var wire 1 G ww_devclrn $end
$var wire 1 H ww_devpor $end
$var wire 1 I ww_CLOCK_50 $end
$var wire 1 J ww_KEY [3] $end
$var wire 1 K ww_KEY [2] $end
$var wire 1 L ww_KEY [1] $end
$var wire 1 M ww_KEY [0] $end
$var wire 1 N ww_LEDR [17] $end
$var wire 1 O ww_LEDR [16] $end
$var wire 1 P ww_LEDR [15] $end
$var wire 1 Q ww_LEDR [14] $end
$var wire 1 R ww_LEDR [13] $end
$var wire 1 S ww_LEDR [12] $end
$var wire 1 T ww_LEDR [11] $end
$var wire 1 U ww_LEDR [10] $end
$var wire 1 V ww_LEDR [9] $end
$var wire 1 W ww_LEDR [8] $end
$var wire 1 X ww_LEDR [7] $end
$var wire 1 Y ww_LEDR [6] $end
$var wire 1 Z ww_LEDR [5] $end
$var wire 1 [ ww_LEDR [4] $end
$var wire 1 \ ww_LEDR [3] $end
$var wire 1 ] ww_LEDR [2] $end
$var wire 1 ^ ww_LEDR [1] $end
$var wire 1 _ ww_LEDR [0] $end
$var wire 1 ` ww_LEDG [7] $end
$var wire 1 a ww_LEDG [6] $end
$var wire 1 b ww_LEDG [5] $end
$var wire 1 c ww_LEDG [4] $end
$var wire 1 d ww_LEDG [3] $end
$var wire 1 e ww_LEDG [2] $end
$var wire 1 f ww_LEDG [1] $end
$var wire 1 g ww_LEDG [0] $end
$var wire 1 h \KEY[1]~input_o\ $end
$var wire 1 i \KEY[2]~input_o\ $end
$var wire 1 j \KEY[3]~input_o\ $end
$var wire 1 k \LEDR[0]~output_o\ $end
$var wire 1 l \LEDR[1]~output_o\ $end
$var wire 1 m \LEDR[2]~output_o\ $end
$var wire 1 n \LEDR[3]~output_o\ $end
$var wire 1 o \LEDR[4]~output_o\ $end
$var wire 1 p \LEDR[5]~output_o\ $end
$var wire 1 q \LEDR[6]~output_o\ $end
$var wire 1 r \LEDR[7]~output_o\ $end
$var wire 1 s \LEDR[8]~output_o\ $end
$var wire 1 t \LEDR[9]~output_o\ $end
$var wire 1 u \LEDR[10]~output_o\ $end
$var wire 1 v \LEDR[11]~output_o\ $end
$var wire 1 w \LEDR[12]~output_o\ $end
$var wire 1 x \LEDR[13]~output_o\ $end
$var wire 1 y \LEDR[14]~output_o\ $end
$var wire 1 z \LEDR[15]~output_o\ $end
$var wire 1 { \LEDR[16]~output_o\ $end
$var wire 1 | \LEDR[17]~output_o\ $end
$var wire 1 } \LEDG[0]~output_o\ $end
$var wire 1 ~ \LEDG[1]~output_o\ $end
$var wire 1 !! \LEDG[2]~output_o\ $end
$var wire 1 "! \LEDG[3]~output_o\ $end
$var wire 1 #! \LEDG[4]~output_o\ $end
$var wire 1 $! \LEDG[5]~output_o\ $end
$var wire 1 %! \LEDG[6]~output_o\ $end
$var wire 1 &! \LEDG[7]~output_o\ $end
$var wire 1 '! \KEY[0]~input_o\ $end
$var wire 1 (! \CLOCK_50~input_o\ $end
$var wire 1 )! \edge|saidaQ~q\ $end
$var wire 1 *! \edge|saida~combout\ $end
$upscope $end
$upscope $end
$enddefinitions $end
#0
$dumpvars
0!
0@
1A
xB
1C
1D
1E
1F
1G
1H
0I
0h
0i
0j
0k
0l
0m
0n
0o
0p
0q
0r
0s
0t
0u
0v
0w
0x
0y
0z
0{
0|
0}
1~
0!!
0"!
0#!
0$!
0%!
0&!
0'!
0(!
0)!
0*!
0"
0#
0$
0%
0.
0/
00
01
02
03
04
05
06
07
08
09
0:
0;
0<
0=
0>
0?
0&
0'
0(
0)
0*
0+
1,
0-
0J
0K
0L
0M
0N
0O
0P
0Q
0R
0S
0T
0U
0V
0W
0X
0Y
0Z
0[
0\
0]
0^
0_
0`
0a
0b
0c
0d
0e
1f
0g
$end
#1000
1%
1M
1'!
#2000
0%
0M
0'!
#3000
1%
1M
1'!
#4000
0%
0M
0'!
#5000
1%
1!
1M
1I
1(!
1'!
#6000
0%
0M
0'!
#7000
1%
1M
1'!
#8000
0%
0M
0'!
#9000
1%
1M
1'!
#10000
0%
0!
0M
0I
0(!
0'!
#11000
1%
1M
1'!
#12000
0%
0M
0'!
#13000
1%
1M
1'!
#14000
0%
0M
0'!
#15000
1%
1!
1M
1I
1(!
1'!
#16000
0%
0M
0'!
#17000
1%
1M
1'!
#18000
0%
0M
0'!
#19000
1%
1M
1'!
#20000
0%
0!
0M
0I
0(!
0'!
#21000
1%
1M
1'!
#22000
0%
0M
0'!
#23000
1%
1M
1'!
#24000
0%
0M
0'!
#25000
1%
1!
1M
1I
1(!
1'!
#26000
0%
0M
0'!
#27000
1%
1M
1'!
#28000
0%
0M
0'!
#29000
1%
1M
1'!
#30000
0%
0!
0M
0I
0(!
0'!
#31000
1%
1M
1'!
#32000
0%
0M
0'!
#33000
1%
1M
1'!
#34000
0%
0M
0'!
#35000
1%
1!
1M
1I
1(!
1'!
#36000
0%
0M
0'!
#37000
1%
1M
1'!
#38000
0%
0M
0'!
#39000
1%
1M
1'!
#40000
0%
0!
0M
0I
0(!
0'!
#41000
1%
1M
1'!
#42000
0%
0M
0'!
#43000
1%
1M
1'!
#44000
0%
0M
0'!
#45000
1%
1!
1M
1I
1(!
1'!
#46000
0%
0M
0'!
#47000
1%
1M
1'!
#48000
0%
0M
0'!
#49000
1%
1M
1'!
#50000
0%
0!
0M
0I
0(!
0'!
#51000
1%
1M
1'!
#52000
0%
0M
0'!
#53000
1%
1M
1'!
#54000
0%
0M
0'!
#55000
1%
1!
1M
1I
1(!
1'!
#56000
0%
0M
0'!
#57000
1%
1M
1'!
#58000
0%
0M
0'!
#59000
1%
1M
1'!
#60000
0%
0!
0M
0I
0(!
0'!
#61000
1%
1M
1'!
#62000
0%
0M
0'!
#63000
1%
1M
1'!
#64000
0%
0M
0'!
#65000
1%
1!
1M
1I
1(!
1'!
#66000
0%
0M
0'!
#67000
1%
1M
1'!
#68000
0%
0M
0'!
#69000
1%
1M
1'!
#70000
0%
0!
0M
0I
0(!
0'!
#71000
1%
1M
1'!
#72000
0%
0M
0'!
#73000
1%
1M
1'!
#74000
0%
0M
0'!
#75000
1%
1!
1M
1I
1(!
1'!
#76000
0%
0M
0'!
#77000
1%
1M
1'!
#78000
0%
0M
0'!
#79000
1%
1M
1'!
#80000
0%
0!
0M
0I
0(!
0'!
#81000
1%
1M
1'!
#82000
0%
0M
0'!
#83000
1%
1M
1'!
#84000
0%
0M
0'!
#85000
1%
1!
1M
1I
1(!
1'!
#86000
0%
0M
0'!
#87000
1%
1M
1'!
#88000
0%
0M
0'!
#89000
1%
1M
1'!
#90000
0%
0!
0M
0I
0(!
0'!
#91000
1%
1M
1'!
#92000
0%
0M
0'!
#93000
1%
1M
1'!
#94000
0%
0M
0'!
#95000
1%
1!
1M
1I
1(!
1'!
#96000
0%
0M
0'!
#97000
1%
1M
1'!
#98000
0%
0M
0'!
#99000
1%
1M
1'!
#100000
0%
0!
0M
0I
0(!
0'!
#101000
1%
1M
1'!
#102000
0%
0M
0'!
#103000
1%
1M
1'!
#104000
0%
0M
0'!
#105000
1%
1!
1M
1I
1(!
1'!
#106000
0%
0M
0'!
#107000
1%
1M
1'!
#108000
0%
0M
0'!
#109000
1%
1M
1'!
#110000
0%
0!
0M
0I
0(!
0'!
#111000
1%
1M
1'!
#112000
0%
0M
0'!
#113000
1%
1M
1'!
#114000
0%
0M
0'!
#115000
1%
1!
1M
1I
1(!
1'!
#116000
0%
0M
0'!
#117000
1%
1M
1'!
#118000
0%
0M
0'!
#119000
1%
1M
1'!
#120000
0%
0!
0M
0I
0(!
0'!
#121000
1%
1M
1'!
#122000
0%
0M
0'!
#123000
1%
1M
1'!
#124000
0%
0M
0'!
#125000
1%
1!
1M
1I
1(!
1'!
#126000
0%
0M
0'!
#127000
1%
1M
1'!
#128000
0%
0M
0'!
#129000
1%
1M
1'!
#130000
0%
0!
0M
0I
0(!
0'!
#131000
1%
1M
1'!
#132000
0%
0M
0'!
#133000
1%
1M
1'!
#134000
0%
0M
0'!
#135000
1%
1!
1M
1I
1(!
1'!
#136000
0%
0M
0'!
#137000
1%
1M
1'!
#138000
0%
0M
0'!
#139000
1%
1M
1'!
#140000
0%
0!
0M
0I
0(!
0'!
#141000
1%
1M
1'!
#142000
0%
0M
0'!
#143000
1%
1M
1'!
#144000
0%
0M
0'!
#145000
1%
1!
1M
1I
1(!
1'!
#146000
0%
0M
0'!
#147000
1%
1M
1'!
#148000
0%
0M
0'!
#149000
1%
1M
1'!
#150000
0%
0!
0M
0I
0(!
0'!
#151000
1%
1M
1'!
#152000
0%
0M
0'!
#153000
1%
1M
1'!
#154000
0%
0M
0'!
#155000
1%
1!
1M
1I
1(!
1'!
#156000
0%
0M
0'!
#157000
1%
1M
1'!
#158000
0%
0M
0'!
#159000
1%
1M
1'!
#160000
0%
0!
0M
0I
0(!
0'!
#161000
1%
1M
1'!
#162000
0%
0M
0'!
#163000
1%
1M
1'!
#164000
0%
0M
0'!
#165000
1%
1!
1M
1I
1(!
1'!
#166000
0%
0M
0'!
#167000
1%
1M
1'!
#168000
0%
0M
0'!
#169000
1%
1M
1'!
#170000
0%
0!
0M
0I
0(!
0'!
#171000
1%
1M
1'!
#172000
0%
0M
0'!
#173000
1%
1M
1'!
#174000
0%
0M
0'!
#175000
1%
1!
1M
1I
1(!
1'!
#176000
0%
0M
0'!
#177000
1%
1M
1'!
#178000
0%
0M
0'!
#179000
1%
1M
1'!
#180000
0%
0!
0M
0I
0(!
0'!
#181000
1%
1M
1'!
#182000
0%
0M
0'!
#183000
1%
1M
1'!
#184000
0%
0M
0'!
#185000
1%
1!
1M
1I
1(!
1'!
#186000
0%
0M
0'!
#187000
1%
1M
1'!
#188000
0%
0M
0'!
#189000
1%
1M
1'!
#190000
0%
0!
0M
0I
0(!
0'!
#191000
1%
1M
1'!
#192000
0%
0M
0'!
#193000
1%
1M
1'!
#194000
0%
0M
0'!
#195000
1%
1!
1M
1I
1(!
1'!
#196000
0%
0M
0'!
#197000
1%
1M
1'!
#198000
0%
0M
0'!
#199000
1%
1M
1'!
#200000
0%
0!
0M
0I
0(!
0'!
#201000
1%
1M
1'!
#202000
0%
0M
0'!
#203000
1%
1M
1'!
#204000
0%
0M
0'!
#205000
1%
1!
1M
1I
1(!
1'!
#206000
0%
0M
0'!
#207000
1%
1M
1'!
#208000
0%
0M
0'!
#209000
1%
1M
1'!
#210000
0%
0!
0M
0I
0(!
0'!
#211000
1%
1M
1'!
#212000
0%
0M
0'!
#213000
1%
1M
1'!
#214000
0%
0M
0'!
#215000
1%
1!
1M
1I
1(!
1'!
#216000
0%
0M
0'!
#217000
1%
1M
1'!
#218000
0%
0M
0'!
#219000
1%
1M
1'!
#220000
0%
0!
0M
0I
0(!
0'!
#221000
1%
1M
1'!
#222000
0%
0M
0'!
#223000
1%
1M
1'!
#224000
0%
0M
0'!
#225000
1%
1!
1M
1I
1(!
1'!
#226000
0%
0M
0'!
#227000
1%
1M
1'!
#228000
0%
0M
0'!
#229000
1%
1M
1'!
#230000
0%
0!
0M
0I
0(!
0'!
#231000
1%
1M
1'!
#232000
0%
0M
0'!
#233000
1%
1M
1'!
#234000
0%
0M
0'!
#235000
1%
1!
1M
1I
1(!
1'!
#236000
0%
0M
0'!
#237000
1%
1M
1'!
#238000
0%
0M
0'!
#239000
1%
1M
1'!
#240000
0%
0!
0M
0I
0(!
0'!
#241000
1%
1M
1'!
#242000
0%
0M
0'!
#243000
1%
1M
1'!
#244000
0%
0M
0'!
#245000
1%
1!
1M
1I
1(!
1'!
#246000
0%
0M
0'!
#247000
1%
1M
1'!
#248000
0%
0M
0'!
#249000
1%
1M
1'!
#250000
0%
0!
0M
0I
0(!
0'!
#251000
1%
1M
1'!
#252000
0%
0M
0'!
#253000
1%
1M
1'!
#254000
0%
0M
0'!
#255000
1%
1!
1M
1I
1(!
1'!
#256000
0%
0M
0'!
#257000
1%
1M
1'!
#258000
0%
0M
0'!
#259000
1%
1M
1'!
#260000
0%
0!
0M
0I
0(!
0'!
#261000
1%
1M
1'!
#262000
0%
0M
0'!
#263000
1%
1M
1'!
#264000
0%
0M
0'!
#265000
1%
1!
1M
1I
1(!
1'!
#266000
0%
0M
0'!
#267000
1%
1M
1'!
#268000
0%
0M
0'!
#269000
1%
1M
1'!
#270000
0%
0!
0M
0I
0(!
0'!
#271000
1%
1M
1'!
#272000
0%
0M
0'!
#273000
1%
1M
1'!
#274000
0%
0M
0'!
#275000
1%
1!
1M
1I
1(!
1'!
#276000
0%
0M
0'!
#277000
1%
1M
1'!
#278000
0%
0M
0'!
#279000
1%
1M
1'!
#280000
0%
0!
0M
0I
0(!
0'!
#281000
1%
1M
1'!
#282000
0%
0M
0'!
#283000
1%
1M
1'!
#284000
0%
0M
0'!
#285000
1%
1!
1M
1I
1(!
1'!
#286000
0%
0M
0'!
#287000
1%
1M
1'!
#288000
0%
0M
0'!
#289000
1%
1M
1'!
#290000
0%
0!
0M
0I
0(!
0'!
#291000
1%
1M
1'!
#292000
0%
0M
0'!
#293000
1%
1M
1'!
#294000
0%
0M
0'!
#295000
1%
1!
1M
1I
1(!
1'!
#296000
0%
0M
0'!
#297000
1%
1M
1'!
#298000
0%
0M
0'!
#299000
1%
1M
1'!
#300000
0%
0!
0M
0I
0(!
0'!
#301000
1%
1M
1'!
#302000
0%
0M
0'!
#303000
1%
1M
1'!
#304000
0%
0M
0'!
#305000
1%
1!
1M
1I
1(!
1'!
#306000
0%
0M
0'!
#307000
1%
1M
1'!
#308000
0%
0M
0'!
#309000
1%
1M
1'!
#310000
0%
0!
0M
0I
0(!
0'!
#311000
1%
1M
1'!
#312000
0%
0M
0'!
#313000
1%
1M
1'!
#314000
0%
0M
0'!
#315000
1%
1!
1M
1I
1(!
1'!
#316000
0%
0M
0'!
#317000
1%
1M
1'!
#318000
0%
0M
0'!
#319000
1%
1M
1'!
#320000
0%
0!
0M
0I
0(!
0'!
#321000
1%
1M
1'!
#322000
0%
0M
0'!
#323000
1%
1M
1'!
#324000
0%
0M
0'!
#325000
1%
1!
1M
1I
1(!
1'!
#326000
0%
0M
0'!
#327000
1%
1M
1'!
#328000
0%
0M
0'!
#329000
1%
1M
1'!
#330000
0%
0!
0M
0I
0(!
0'!
#331000
1%
1M
1'!
#332000
0%
0M
0'!
#333000
1%
1M
1'!
#334000
0%
0M
0'!
#335000
1%
1!
1M
1I
1(!
1'!
#336000
0%
0M
0'!
#337000
1%
1M
1'!
#338000
0%
0M
0'!
#339000
1%
1M
1'!
#340000
0%
0!
0M
0I
0(!
0'!
#341000
1%
1M
1'!
#342000
0%
0M
0'!
#343000
1%
1M
1'!
#344000
0%
0M
0'!
#345000
1%
1!
1M
1I
1(!
1'!
#346000
0%
0M
0'!
#347000
1%
1M
1'!
#348000
0%
0M
0'!
#349000
1%
1M
1'!
#350000
0%
0!
0M
0I
0(!
0'!
#351000
1%
1M
1'!
#352000
0%
0M
0'!
#353000
1%
1M
1'!
#354000
0%
0M
0'!
#355000
1%
1!
1M
1I
1(!
1'!
#356000
0%
0M
0'!
#357000
1%
1M
1'!
#358000
0%
0M
0'!
#359000
1%
1M
1'!
#360000
0%
0!
0M
0I
0(!
0'!
#361000
1%
1M
1'!
#362000
0%
0M
0'!
#363000
1%
1M
1'!
#364000
0%
0M
0'!
#365000
1%
1!
1M
1I
1(!
1'!
#366000
0%
0M
0'!
#367000
1%
1M
1'!
#368000
0%
0M
0'!
#369000
1%
1M
1'!
#370000
0%
0!
0M
0I
0(!
0'!
#371000
1%
1M
1'!
#372000
0%
0M
0'!
#373000
1%
1M
1'!
#374000
0%
0M
0'!
#375000
1%
1!
1M
1I
1(!
1'!
#376000
0%
0M
0'!
#377000
1%
1M
1'!
#378000
0%
0M
0'!
#379000
1%
1M
1'!
#380000
0%
0!
0M
0I
0(!
0'!
#381000
1%
1M
1'!
#382000
0%
0M
0'!
#383000
1%
1M
1'!
#384000
0%
0M
0'!
#385000
1%
1!
1M
1I
1(!
1'!
#386000
0%
0M
0'!
#387000
1%
1M
1'!
#388000
0%
0M
0'!
#389000
1%
1M
1'!
#390000
0%
0!
0M
0I
0(!
0'!
#391000
1%
1M
1'!
#392000
0%
0M
0'!
#393000
1%
1M
1'!
#394000
0%
0M
0'!
#395000
1%
1!
1M
1I
1(!
1'!
#396000
0%
0M
0'!
#397000
1%
1M
1'!
#398000
0%
0M
0'!
#399000
1%
1M
1'!
#400000
0%
0!
0M
0I
0(!
0'!
#401000
1%
1M
1'!
#402000
0%
0M
0'!
#403000
1%
1M
1'!
#404000
0%
0M
0'!
#405000
1%
1!
1M
1I
1(!
1'!
#406000
0%
0M
0'!
#407000
1%
1M
1'!
#408000
0%
0M
0'!
#409000
1%
1M
1'!
#410000
0%
0!
0M
0I
0(!
0'!
#411000
1%
1M
1'!
#412000
0%
0M
0'!
#413000
1%
1M
1'!
#414000
0%
0M
0'!
#415000
1%
1!
1M
1I
1(!
1'!
#416000
0%
0M
0'!
#417000
1%
1M
1'!
#418000
0%
0M
0'!
#419000
1%
1M
1'!
#420000
0%
0!
0M
0I
0(!
0'!
#421000
1%
1M
1'!
#422000
0%
0M
0'!
#423000
1%
1M
1'!
#424000
0%
0M
0'!
#425000
1%
1!
1M
1I
1(!
1'!
#426000
0%
0M
0'!
#427000
1%
1M
1'!
#428000
0%
0M
0'!
#429000
1%
1M
1'!
#430000
0%
0!
0M
0I
0(!
0'!
#431000
1%
1M
1'!
#432000
0%
0M
0'!
#433000
1%
1M
1'!
#434000
0%
0M
0'!
#435000
1%
1!
1M
1I
1(!
1'!
#436000
0%
0M
0'!
#437000
1%
1M
1'!
#438000
0%
0M
0'!
#439000
1%
1M
1'!
#440000
0%
0!
0M
0I
0(!
0'!
#441000
1%
1M
1'!
#442000
0%
0M
0'!
#443000
1%
1M
1'!
#444000
0%
0M
0'!
#445000
1%
1!
1M
1I
1(!
1'!
#446000
0%
0M
0'!
#447000
1%
1M
1'!
#448000
0%
0M
0'!
#449000
1%
1M
1'!
#450000
0%
0!
0M
0I
0(!
0'!
#451000
1%
1M
1'!
#452000
0%
0M
0'!
#453000
1%
1M
1'!
#454000
0%
0M
0'!
#455000
1%
1!
1M
1I
1(!
1'!
#456000
0%
0M
0'!
#457000
1%
1M
1'!
#458000
0%
0M
0'!
#459000
1%
1M
1'!
#460000
0%
0!
0M
0I
0(!
0'!
#461000
1%
1M
1'!
#462000
0%
0M
0'!
#463000
1%
1M
1'!
#464000
0%
0M
0'!
#465000
1%
1!
1M
1I
1(!
1'!
#466000
0%
0M
0'!
#467000
1%
1M
1'!
#468000
0%
0M
0'!
#469000
1%
1M
1'!
#470000
0%
0!
0M
0I
0(!
0'!
#471000
1%
1M
1'!
#472000
0%
0M
0'!
#473000
1%
1M
1'!
#474000
0%
0M
0'!
#475000
1%
1!
1M
1I
1(!
1'!
#476000
0%
0M
0'!
#477000
1%
1M
1'!
#478000
0%
0M
0'!
#479000
1%
1M
1'!
#480000
0%
0!
0M
0I
0(!
0'!
#481000
1%
1M
1'!
#482000
0%
0M
0'!
#483000
1%
1M
1'!
#484000
0%
0M
0'!
#485000
1%
1!
1M
1I
1(!
1'!
#486000
0%
0M
0'!
#487000
1%
1M
1'!
#488000
0%
0M
0'!
#489000
1%
1M
1'!
#490000
0%
0!
0M
0I
0(!
0'!
#491000
1%
1M
1'!
#492000
0%
0M
0'!
#493000
1%
1M
1'!
#494000
0%
0M
0'!
#495000
1%
1!
1M
1I
1(!
1'!
#496000
0%
0M
0'!
#497000
1%
1M
1'!
#498000
0%
0M
0'!
#499000
1%
1M
1'!
#500000
0%
0!
0M
0I
0(!
0'!
#501000
1%
1M
1'!
#502000
0%
0M
0'!
#503000
1%
1M
1'!
#504000
0%
0M
0'!
#505000
1%
1!
1M
1I
1(!
1'!
#506000
0%
0M
0'!
#507000
1%
1M
1'!
#508000
0%
0M
0'!
#509000
1%
1M
1'!
#510000
0%
0!
0M
0I
0(!
0'!
#511000
1%
1M
1'!
#512000
0%
0M
0'!
#513000
1%
1M
1'!
#514000
0%
0M
0'!
#515000
1%
1!
1M
1I
1(!
1'!
#516000
0%
0M
0'!
#517000
1%
1M
1'!
#518000
0%
0M
0'!
#519000
1%
1M
1'!
#520000
0%
0!
0M
0I
0(!
0'!
#521000
1%
1M
1'!
#522000
0%
0M
0'!
#523000
1%
1M
1'!
#524000
0%
0M
0'!
#525000
1%
1!
1M
1I
1(!
1'!
#526000
0%
0M
0'!
#527000
1%
1M
1'!
#528000
0%
0M
0'!
#529000
1%
1M
1'!
#530000
0%
0!
0M
0I
0(!
0'!
#531000
1%
1M
1'!
#532000
0%
0M
0'!
#533000
1%
1M
1'!
#534000
0%
0M
0'!
#535000
1%
1!
1M
1I
1(!
1'!
#536000
0%
0M
0'!
#537000
1%
1M
1'!
#538000
0%
0M
0'!
#539000
1%
1M
1'!
#540000
0%
0!
0M
0I
0(!
0'!
#541000
1%
1M
1'!
#542000
0%
0M
0'!
#543000
1%
1M
1'!
#544000
0%
0M
0'!
#545000
1%
1!
1M
1I
1(!
1'!
#546000
0%
0M
0'!
#547000
1%
1M
1'!
#548000
0%
0M
0'!
#549000
1%
1M
1'!
#550000
0%
0!
0M
0I
0(!
0'!
#551000
1%
1M
1'!
#552000
0%
0M
0'!
#553000
1%
1M
1'!
#554000
0%
0M
0'!
#555000
1%
1!
1M
1I
1(!
1'!
#556000
0%
0M
0'!
#557000
1%
1M
1'!
#558000
0%
0M
0'!
#559000
1%
1M
1'!
#560000
0%
0!
0M
0I
0(!
0'!
#561000
1%
1M
1'!
#562000
0%
0M
0'!
#563000
1%
1M
1'!
#564000
0%
0M
0'!
#565000
1%
1!
1M
1I
1(!
1'!
#566000
0%
0M
0'!
#567000
1%
1M
1'!
#568000
0%
0M
0'!
#569000
1%
1M
1'!
#570000
0%
0!
0M
0I
0(!
0'!
#571000
1%
1M
1'!
#572000
0%
0M
0'!
#573000
1%
1M
1'!
#574000
0%
0M
0'!
#575000
1%
1!
1M
1I
1(!
1'!
#576000
0%
0M
0'!
#577000
1%
1M
1'!
#578000
0%
0M
0'!
#579000
1%
1M
1'!
#580000
0%
0!
0M
0I
0(!
0'!
#581000
1%
1M
1'!
#582000
0%
0M
0'!
#583000
1%
1M
1'!
#584000
0%
0M
0'!
#585000
1%
1!
1M
1I
1(!
1'!
#586000
0%
0M
0'!
#587000
1%
1M
1'!
#588000
0%
0M
0'!
#589000
1%
1M
1'!
#590000
0%
0!
0M
0I
0(!
0'!
#591000
1%
1M
1'!
#592000
0%
0M
0'!
#593000
1%
1M
1'!
#594000
0%
0M
0'!
#595000
1%
1!
1M
1I
1(!
1'!
#596000
0%
0M
0'!
#597000
1%
1M
1'!
#598000
0%
0M
0'!
#599000
1%
1M
1'!
#600000
0%
0!
0M
0I
0(!
0'!
#601000
1%
1M
1'!
#602000
0%
0M
0'!
#603000
1%
1M
1'!
#604000
0%
0M
0'!
#605000
1%
1!
1M
1I
1(!
1'!
#606000
0%
0M
0'!
#607000
1%
1M
1'!
#608000
0%
0M
0'!
#609000
1%
1M
1'!
#610000
0%
0!
0M
0I
0(!
0'!
#611000
1%
1M
1'!
#612000
0%
0M
0'!
#613000
1%
1M
1'!
#614000
0%
0M
0'!
#615000
1%
1!
1M
1I
1(!
1'!
#616000
0%
0M
0'!
#617000
1%
1M
1'!
#618000
0%
0M
0'!
#619000
1%
1M
1'!
#620000
0%
0!
0M
0I
0(!
0'!
#621000
1%
1M
1'!
#622000
0%
0M
0'!
#623000
1%
1M
1'!
#624000
0%
0M
0'!
#625000
1%
1!
1M
1I
1(!
1'!
#626000
0%
0M
0'!
#627000
1%
1M
1'!
#628000
0%
0M
0'!
#629000
1%
1M
1'!
#630000
0%
0!
0M
0I
0(!
0'!
#631000
1%
1M
1'!
#632000
0%
0M
0'!
#633000
1%
1M
1'!
#634000
0%
0M
0'!
#635000
1%
1!
1M
1I
1(!
1'!
#636000
0%
0M
0'!
#637000
1%
1M
1'!
#638000
0%
0M
0'!
#639000
1%
1M
1'!
#640000
0%
0!
0M
0I
0(!
0'!
#641000
1%
1M
1'!
#642000
0%
0M
0'!
#643000
1%
1M
1'!
#644000
0%
0M
0'!
#645000
1%
1!
1M
1I
1(!
1'!
#646000
0%
0M
0'!
#647000
1%
1M
1'!
#648000
0%
0M
0'!
#649000
1%
1M
1'!
#650000
0%
0!
0M
0I
0(!
0'!
#651000
1%
1M
1'!
#652000
0%
0M
0'!
#653000
1%
1M
1'!
#654000
0%
0M
0'!
#655000
1%
1!
1M
1I
1(!
1'!
#656000
0%
0M
0'!
#657000
1%
1M
1'!
#658000
0%
0M
0'!
#659000
1%
1M
1'!
#660000
0%
0!
0M
0I
0(!
0'!
#661000
1%
1M
1'!
#662000
0%
0M
0'!
#663000
1%
1M
1'!
#664000
0%
0M
0'!
#665000
1%
1!
1M
1I
1(!
1'!
#666000
0%
0M
0'!
#667000
1%
1M
1'!
#668000
0%
0M
0'!
#669000
1%
1M
1'!
#670000
0%
0!
0M
0I
0(!
0'!
#671000
1%
1M
1'!
#672000
0%
0M
0'!
#673000
1%
1M
1'!
#674000
0%
0M
0'!
#675000
1%
1!
1M
1I
1(!
1'!
#676000
0%
0M
0'!
#677000
1%
1M
1'!
#678000
0%
0M
0'!
#679000
1%
1M
1'!
#680000
0%
0!
0M
0I
0(!
0'!
#681000
1%
1M
1'!
#682000
0%
0M
0'!
#683000
1%
1M
1'!
#684000
0%
0M
0'!
#685000
1%
1!
1M
1I
1(!
1'!
#686000
0%
0M
0'!
#687000
1%
1M
1'!
#688000
0%
0M
0'!
#689000
1%
1M
1'!
#690000
0%
0!
0M
0I
0(!
0'!
#691000
1%
1M
1'!
#692000
0%
0M
0'!
#693000
1%
1M
1'!
#694000
0%
0M
0'!
#695000
1%
1!
1M
1I
1(!
1'!
#696000
0%
0M
0'!
#697000
1%
1M
1'!
#698000
0%
0M
0'!
#699000
1%
1M
1'!
#700000
0%
0!
0M
0I
0(!
0'!
#701000
1%
1M
1'!
#702000
0%
0M
0'!
#703000
1%
1M
1'!
#704000
0%
0M
0'!
#705000
1%
1!
1M
1I
1(!
1'!
#706000
0%
0M
0'!
#707000
1%
1M
1'!
#708000
0%
0M
0'!
#709000
1%
1M
1'!
#710000
0%
0!
0M
0I
0(!
0'!
#711000
1%
1M
1'!
#712000
0%
0M
0'!
#713000
1%
1M
1'!
#714000
0%
0M
0'!
#715000
1%
1!
1M
1I
1(!
1'!
#716000
0%
0M
0'!
#717000
1%
1M
1'!
#718000
0%
0M
0'!
#719000
1%
1M
1'!
#720000
0%
0!
0M
0I
0(!
0'!
#721000
1%
1M
1'!
#722000
0%
0M
0'!
#723000
1%
1M
1'!
#724000
0%
0M
0'!
#725000
1%
1!
1M
1I
1(!
1'!
#726000
0%
0M
0'!
#727000
1%
1M
1'!
#728000
0%
0M
0'!
#729000
1%
1M
1'!
#730000
0%
0!
0M
0I
0(!
0'!
#731000
1%
1M
1'!
#732000
0%
0M
0'!
#733000
1%
1M
1'!
#734000
0%
0M
0'!
#735000
1%
1!
1M
1I
1(!
1'!
#736000
0%
0M
0'!
#737000
1%
1M
1'!
#738000
0%
0M
0'!
#739000
1%
1M
1'!
#740000
0%
0!
0M
0I
0(!
0'!
#741000
1%
1M
1'!
#742000
0%
0M
0'!
#743000
1%
1M
1'!
#744000
0%
0M
0'!
#745000
1%
1!
1M
1I
1(!
1'!
#746000
0%
0M
0'!
#747000
1%
1M
1'!
#748000
0%
0M
0'!
#749000
1%
1M
1'!
#750000
0%
0!
0M
0I
0(!
0'!
#751000
1%
1M
1'!
#752000
0%
0M
0'!
#753000
1%
1M
1'!
#754000
0%
0M
0'!
#755000
1%
1!
1M
1I
1(!
1'!
#756000
0%
0M
0'!
#757000
1%
1M
1'!
#758000
0%
0M
0'!
#759000
1%
1M
1'!
#760000
0%
0!
0M
0I
0(!
0'!
#761000
1%
1M
1'!
#762000
0%
0M
0'!
#763000
1%
1M
1'!
#764000
0%
0M
0'!
#765000
1%
1!
1M
1I
1(!
1'!
#766000
0%
0M
0'!
#767000
1%
1M
1'!
#768000
0%
0M
0'!
