componentes/registrador/simulation/qsim/registrador.msim.vcd
$comment
	File created using the following command:
		vcd file registrador.msim.vcd -direction
$end
$date
	Fri Aug 16 11:10:33 2019
$end
$version
	ModelSim Version 10.5b
$end
$timescale
	1ps
$end

$scope module registrador_vhd_vec_tst $end
$var wire 1 ! clk $end
$var wire 1 " clk_enable $end
$var wire 1 # d [7] $end
$var wire 1 $ d [6] $end
$var wire 1 % d [5] $end
$var wire 1 & d [4] $end
$var wire 1 ' d [3] $end
$var wire 1 ( d [2] $end
$var wire 1 ) d [1] $end
$var wire 1 * d [0] $end
$var wire 1 + q [7] $end
$var wire 1 , q [6] $end
$var wire 1 - q [5] $end
$var wire 1 . q [4] $end
$var wire 1 / q [3] $end
$var wire 1 0 q [2] $end
$var wire 1 1 q [1] $end
$var wire 1 2 q [0] $end
$var wire 1 3 reset $end

$scope module i1 $end
$var wire 1 4 gnd $end
$var wire 1 5 vcc $end
$var wire 1 6 unknown $end
$var wire 1 7 devoe $end
$var wire 1 8 devclrn $end
$var wire 1 9 devpor $end
$var wire 1 : ww_devoe $end
$var wire 1 ; ww_devclrn $end
$var wire 1 < ww_devpor $end
$var wire 1 = ww_d [7] $end
$var wire 1 > ww_d [6] $end
$var wire 1 ? ww_d [5] $end
$var wire 1 @ ww_d [4] $end
$var wire 1 A ww_d [3] $end
$var wire 1 B ww_d [2] $end
$var wire 1 C ww_d [1] $end
$var wire 1 D ww_d [0] $end
$var wire 1 E ww_clk $end
$var wire 1 F ww_clk_enable $end
$var wire 1 G ww_reset $end
$var wire 1 H ww_q [7] $end
$var wire 1 I ww_q [6] $end
$var wire 1 J ww_q [5] $end
$var wire 1 K ww_q [4] $end
$var wire 1 L ww_q [3] $end
$var wire 1 M ww_q [2] $end
$var wire 1 N ww_q [1] $end
$var wire 1 O ww_q [0] $end
$var wire 1 P \reset~inputclkctrl_INCLK_bus\ [3] $end
$var wire 1 Q \reset~inputclkctrl_INCLK_bus\ [2] $end
$var wire 1 R \reset~inputclkctrl_INCLK_bus\ [1] $end
$var wire 1 S \reset~inputclkctrl_INCLK_bus\ [0] $end
$var wire 1 T \clk~inputclkctrl_INCLK_bus\ [3] $end
$var wire 1 U \clk~inputclkctrl_INCLK_bus\ [2] $end
$var wire 1 V \clk~inputclkctrl_INCLK_bus\ [1] $end
$var wire 1 W \clk~inputclkctrl_INCLK_bus\ [0] $end
$var wire 1 X \q[0]~output_o\ $end
$var wire 1 Y \q[1]~output_o\ $end
$var wire 1 Z \q[2]~output_o\ $end
$var wire 1 [ \q[3]~output_o\ $end
$var wire 1 \ \q[4]~output_o\ $end
$var wire 1 ] \q[5]~output_o\ $end
$var wire 1 ^ \q[6]~output_o\ $end
$var wire 1 _ \q[7]~output_o\ $end
$var wire 1 ` \clk~input_o\ $end
$var wire 1 a \clk~inputclkctrl_outclk\ $end
$var wire 1 b \d[0]~input_o\ $end
$var wire 1 c \q[0]~reg0feeder_combout\ $end
$var wire 1 d \reset~input_o\ $end
$var wire 1 e \reset~inputclkctrl_outclk\ $end
$var wire 1 f \clk_enable~input_o\ $end
$var wire 1 g \q[0]~reg0_q\ $end
$var wire 1 h \d[1]~input_o\ $end
$var wire 1 i \q[1]~reg0_q\ $end
$var wire 1 j \d[2]~input_o\ $end
$var wire 1 k \q[2]~reg0feeder_combout\ $end
$var wire 1 l \q[2]~reg0_q\ $end
$var wire 1 m \d[3]~input_o\ $end
$var wire 1 n \q[3]~reg0_q\ $end
$var wire 1 o \d[4]~input_o\ $end
$var wire 1 p \q[4]~reg0feeder_combout\ $end
$var wire 1 q \q[4]~reg0_q\ $end
$var wire 1 r \d[5]~input_o\ $end
$var wire 1 s \q[5]~reg0feeder_combout\ $end
$var wire 1 t \q[5]~reg0_q\ $end
$var wire 1 u \d[6]~input_o\ $end
$var wire 1 v \q[6]~reg0_q\ $end
$var wire 1 w \d[7]~input_o\ $end
$var wire 1 x \q[7]~reg0feeder_combout\ $end
$var wire 1 y \q[7]~reg0_q\ $end
$var wire 1 z \ALT_INV_reset~inputclkctrl_outclk\ $end
$upscope $end
$upscope $end
$enddefinitions $end
#0
$dumpvars
1!
0"
03
04
15
x6
17
18
19
1:
1;
1<
1E
0F
0G
0X
0Y
0Z
0[
0\
0]
0^
0_
1`
1a
0b
0c
0d
0e
0f
0g
0h
0i
0j
0k
0l
0m
0n
0o
0p
0q
0r
0s
0t
0u
0v
0w
0x
0y
1z
0#
0$
0%
0&
0'
0(
0)
0*
0=
0>
0?
0@
0A
0B
0C
0D
0H
0I
0J
0K
0L
0M
0N
0O
1T
1U
1V
1W
1P
1Q
1R
0S
0+
0,
0-
0.
0/
00
01
02
$end
#5000
0!
0E
0`
0W
0a
#10000
1!
1*
1E
1D
1b
1`
1W
1c
1a
#15000
0!
0E
0`
0W
0a
#20000
1!
0*
1)
1E
0D
1C
1h
0b
1`
1W
0c
1a
#25000
0!
0E
0`
0W
0a
#30000
1!
1*
1E
1D
1b
1`
1W
1c
1a
#35000
0!
0E
0`
0W
0a
#40000
1!
0*
0)
1(
1E
0D
0C
1B
1j
0h
0b
1`
1W
0c
1k
1a
#45000
0!
0E
0`
0W
0a
#50000
1!
1*
1E
1D
1b
1`
1W
1c
1a
#55000
0!
0E
0`
0W
0a
#60000
1!
0*
1)
1E
0D
1C
1h
0b
1`
1W
0c
1a
#65000
0!
0E
0`
0W
0a
#70000
1!
1*
1E
1D
1b
1`
1W
1c
1a
#75000
0!
0E
0`
0W
0a
#80000
1!
0*
0)
0(
1'
1E
0D
0C
0B
1A
1m
0j
0h
0b
1`
1W
0c
0k
1a
#85000
0!
0E
0`
0W
0a
#90000
1!
1*
1E
1D
1b
1`
1W
1c
1a
#95000
0!
0E
0`
0W
0a
#100000
1!
0*
1)
1"
1E
0D
1C
1F
1f
1h
0b
1`
1W
0c
1a
1i
1n
1[
1Y
1L
1N
11
1/
#105000
0!
0E
0`
0W
0a
#110000
1!
1*
1E
1D
1b
1`
1W
1c
1a
1g
1X
1O
12
#115000
0!
0E
0`
0W
0a
#120000
1!
0*
0)
1(
1E
0D
0C
1B
1j
0h
0b
1`
1W
0c
1k
1a
0g
0i
1l
1Z
0Y
0X
1M
0N
0O
02
01
10
#125000
0!
0E
0`
0W
0a
#130000
1!
1*
1E
1D
1b
1`
1W
1c
1a
1g
1X
1O
12
#135000
0!
0E
0`
0W
0a
#140000
1!
0*
1)
1E
0D
1C
1h
0b
1`
1W
0c
1a
0g
1i
1Y
0X
1N
0O
02
11
#145000
0!
0E
0`
0W
0a
#150000
1!
1*
0"
13
1E
1D
0F
1G
1d
0f
1b
1`
1S
1W
1c
1a
1e
0z
0i
0l
0n
0[
0Z
0Y
0L
0M
0N
01
00
0/
#155000
0!
0E
0`
0W
0a
#160000
1!
0*
0)
0(
0'
1&
1E
0D
0C
0B
0A
1@
1o
0m
0j
0h
0b
1`
1W
0c
0k
1p
1a
#165000
0!
0E
0`
0W
0a
#170000
1!
1*
1E
1D
1b
1`
1W
1c
1a
#175000
0!
0E
0`
0W
0a
#180000
1!
0*
1)
1E
0D
1C
1h
0b
1`
1W
0c
1a
#185000
0!
0E
0`
0W
0a
#190000
1!
1*
1E
1D
1b
1`
1W
1c
1a
#195000
0!
0E
0`
0W
0a
#200000
1!
0*
0)
1(
1"
03
1E
0D
0C
1B
1F
0G
0d
1f
1j
0h
0b
1`
0S
1W
0c
1k
1a
0e
1z
#205000
0!
0E
0`
0W
0a
#210000
1!
1*
1E
1D
1b
1`
1W
1c
1a
1g
1l
1q
1\
1Z
1X
1K
1M
1O
12
10
1.
#215000
0!
0E
0`
0W
0a
#220000
1!
0*
1)
1E
0D
1C
1h
0b
1`
1W
0c
1a
0g
1i
1Y
0X
1N
0O
02
11
#225000
0!
0E
0`
0W
0a
#230000
1!
1*
1E
1D
1b
1`
1W
1c
1a
1g
1X
1O
12
#235000
0!
0E
0`
0W
0a
#240000
1!
0*
0)
0(
1'
1E
0D
0C
0B
1A
1m
0j
0h
0b
1`
1W
0c
0k
1a
0g
0i
0l
1n
1[
0Z
0Y
0X
1L
0M
0N
0O
02
01
00
1/
#245000
0!
0E
0`
0W
0a
#250000
1!
1*
0"
1E
1D
0F
0f
1b
1`
1W
1c
1a
#255000
0!
0E
0`
0W
0a
#260000
1!
0*
1)
1E
0D
1C
1h
0b
1`
1W
0c
1a
#265000
0!
0E
0`
0W
0a
#270000
1!
1*
1E
1D
1b
1`
1W
1c
1a
#275000
0!
0E
0`
0W
0a
#280000
1!
0*
0)
1(
1E
0D
0C
1B
1j
0h
0b
1`
1W
0c
1k
1a
#285000
0!
0E
0`
0W
0a
#290000
1!
1*
1E
1D
1b
1`
1W
1c
1a
#295000
0!
0E
0`
0W
0a
#300000
1!
0*
1)
1"
1E
0D
1C
1F
1f
1h
0b
1`
1W
0c
1a
1i
1l
1Z
1Y
1M
1N
11
10
#305000
0!
0E
0`
0W
0a
#310000
1!
1*
1E
1D
1b
1`
1W
1c
1a
1g
1X
1O
12
#315000
0!
0E
0`
0W
0a
#320000
1!
0*
0)
0(
0'
0&
1%
1E
0D
0C
0B
0A
0@
1?
1r
0o
0m
0j
0h
0b
1`
1W
0c
0k
0p
1s
1a
0g
0i
0l
0n
0q
1t
1]
0\
0[
0Z
0Y
0X
1J
0K
0L
0M
0N
0O
02
01
00
0/
0.
1-
#325000
0!
0E
0`
0W
0a
#330000
1!
1*
1E
1D
1b
1`
1W
1c
1a
1g
1X
1O
12
#335000
0!
0E
0`
0W
0a
#340000
1!
0*
1)
1E
0D
1C
1h
0b
1`
1W
0c
1a
0g
1i
1Y
0X
1N
0O
02
11
#345000
0!
0E
0`
0W
0a
#350000
1!
1*
0"
1E
1D
0F
0f
1b
1`
1W
1c
1a
#355000
0!
0E
0`
0W
0a
#360000
1!
0*
0)
1(
1E
0D
0C
1B
1j
0h
0b
1`
1W
0c
1k
1a
#365000
0!
0E
0`
0W
0a
#370000
1!
1*
1E
1D
1b
1`
1W
1c
1a
#375000
0!
0E
0`
0W
0a
#380000
1!
0*
1)
1E
0D
1C
1h
0b
1`
1W
0c
1a
#385000
0!
0E
0`
0W
0a
#390000
1!
1*
1E
1D
1b
1`
1W
1c
1a
#395000
0!
0E
0`
0W
0a
#400000
1!
0*
0)
0(
1'
13
1E
0D
0C
0B
1A
1G
1d
1m
0j
0h
0b
1`
1S
1W
0c
0k
1a
1e
0z
0i
0t
0]
0Y
0J
0N
01
0-
#405000
0!
0E
0`
0W
0a
#410000
1!
1*
1E
1D
1b
1`
1W
1c
1a
#415000
0!
0E
0`
0W
0a
#420000
1!
0*
1)
1E
0D
1C
1h
0b
1`
1W
0c
1a
#425000
0!
0E
0`
0W
0a
#430000
1!
1*
1E
1D
1b
1`
1W
1c
1a
#435000
0!
0E
0`
0W
0a
#440000
1!
0*
0)
1(
1E
0D
0C
1B
1j
0h
0b
1`
1W
0c
1k
1a
#445000
0!
0E
0`
0W
0a
#450000
1!
1*
03
1E
1D
0G
0d
1b
1`
0S
1W
1c
1a
0e
1z
#455000
0!
0E
0`
0W
0a
#460000
1!
0*
1)
1E
0D
1C
1h
0b
1`
1W
0c
1a
#465000
0!
0E
0`
0W
0a
#470000
1!
1*
1E
1D
1b
1`
1W
1c
1a
#475000
0!
0E
0`
0W
0a
#480000
1!
0*
0)
0(
0'
1&
1E
0D
0C
0B
0A
1@
1o
0m
0j
0h
0b
1`
1W
0c
0k
1p
1a
#485000
0!
0E
0`
0W
0a
#490000
1!
1*
1E
1D
1b
1`
1W
1c
1a
#495000
0!
0E
0`
0W
0a
#500000
1!
0*
1)
1E
0D
1C
1h
0b
1`
1W
0c
1a
#505000
0!
0E
0`
0W
0a
#510000
1!
1*
1E
1D
1b
1`
1W
1c
1a
#515000
0!
0E
0`
0W
0a
#520000
1!
0*
0)
1(
1E
0D
0C
1B
1j
0h
0b
1`
1W
0c
1k
1a
#525000
0!
0E
0`
0W
0a
#530000
1!
1*
1E
1D
1b
1`
1W
1c
1a
#535000
0!
0E
0`
0W
0a
#540000
1!
0*
1)
1E
0D
1C
1h
0b
1`
1W
0c
1a
#545000
0!
0E
0`
0W
0a
#550000
1!
1*
13
1"
1E
1D
1G
1F
1f
1d
1b
1`
1S
1W
1c
1a
1e
0z
1g
1i
1l
1q
1t
0g
0i
0l
0q
0t
1]
1\
1Z
1Y
1X
0]
0\
0Z
0Y
0X
1J
1K
1M
1N
1O
0J
0K
0M
0N
0O
12
11
10
1.
1-
02
01
00
0.
0-
#555000
0!
0E
0`
0W
0a
#560000
1!
0*
0)
0(
1'
1E
0D
0C
0B
1A
1m
0j
0h
0b
1`
1W
0c
0k
1a
#565000
0!
0E
0`
0W
0a
#570000
1!
1*
1E
1D
1b
1`
1W
1c
1a
#575000
0!
0E
0`
0W
0a
#580000
1!
0*
1)
1E
0D
1C
1h
0b
1`
1W
0c
1a
#585000
0!
0E
0`
0W
0a
#590000
1!
1*
1E
1D
1b
1`
1W
1c
1a
#595000
0!
0E
0`
0W
0a
#600000
1!
0*
0)
1(
1E
0D
0C
1B
1j
0h
0b
1`
1W
0c
1k
1a
#605000
0!
0E
0`
0W
0a
#610000
1!
1*
1E
1D
1b
1`
1W
1c
1a
#615000
0!
0E
0`
0W
0a
#620000
1!
0*
1)
1E
0D
1C
1h
0b
1`
1W
0c
1a
#625000
0!
0E
0`
0W
0a
#630000
1!
1*
1E
1D
1b
1`
1W
1c
1a
#635000
0!
0E
0`
0W
0a
#640000
1!
0*
0)
0(
0'
0&
0%
1$
1E
0D
0C
0B
0A
0@
0?
1>
1u
0r
0o
0m
0j
0h
0b
1`
1W
0c
0k
0p
0s
1a
#645000
0!
0E
0`
0W
0a
#650000
1!
1*
03
1E
1D
0G
0d
1b
1`
0S
1W
1c
1a
0e
1z
#655000
0!
0E
0`
0W
0a
#660000
1!
0*
1)
1E
0D
1C
1h
0b
1`
1W
0c
1a
1i
1v
1^
1Y
1I
1N
11
1,
#665000
0!
0E
0`
0W
0a
#670000
1!
1*
1E
1D
1b
1`
1W
1c
1a
1g
1X
1O
12
#675000
0!
0E
0`
0W
0a
#680000
1!
0*
0)
1(
1E
0D
0C
1B
1j
0h
0b
1`
1W
0c
1k
1a
0g
0i
1l
1Z
0Y
0X
1M
0N
0O
02
01
10
#685000
0!
0E
0`
0W
0a
#690000
1!
1*
1E
1D
1b
1`
1W
1c
1a
1g
1X
1O
12
#695000
0!
0E
0`
0W
0a
#700000
1!
0*
1)
13
0"
1E
0D
1C
1G
0F
0f
1d
1h
0b
1`
1S
1W
0c
1a
1e
0z
0g
0l
0v
0^
0Z
0X
0I
0M
0O
02
00
0,
#705000
0!
0E
0`
0W
0a
#710000
1!
1*
1E
1D
1b
1`
1W
1c
1a
#715000
0!
0E
0`
0W
0a
#720000
1!
0*
0)
0(
1'
1E
0D
0C
0B
1A
1m
0j
0h
0b
1`
1W
0c
0k
1a
#725000
0!
0E
0`
0W
0a
#730000
1!
1*
1E
1D
1b
1`
1W
1c
1a
#735000
0!
0E
0`
0W
0a
#740000
1!
0*
1)
1E
0D
1C
1h
0b
1`
1W
0c
1a
#745000
0!
0E
0`
0W
0a
#750000
1!
1*
03
1E
1D
0G
0d
1b
1`
0S
1W
1c
1a
0e
1z
#755000
0!
0E
0`
0W
0a
#760000
1!
0*
0)
1(
1E
0D
0C
1B
1j
0h
0b
1`
1W
0c
1k
1a
#765000
0!
0E
0`
0W
0a
#770000
1!
1*
1E
1D
1b
1`
1W
1c
1a
#775000
0!
0E
0`
0W
0a
#780000
1!
0*
1)
1E
0D
1C
1h
0b
1`
1W
0c
1a
#785000
0!
0E
0`
0W
0a
#790000
1!
1*
1E
1D
1b
1`
1W
1c
1a
#795000
0!
0E
0`
0W
0a
#800000
1!
0*
0)
0(
13
0'
1&
1E
0D
0C
0B
0A
1@
1G
1d
1o
0m
0j
0h
0b
1`
1S
1W
0c
0k
1p
1a
1e
0z
#805000
0!
0E
0`
0W
0a
#810000
1!
1*
1E
1D
1b
1`
1W
1c
1a
#815000
0!
0E
0`
0W
0a
#820000
1!
0*
1)
1E
0D
1C
1h
0b
1`
1W
0c
1a
#825000
0!
0E
0`
0W
0a
#830000
1!
1*
1E
1D
1b
1`
1W
1c
1a
#835000
0!
0E
0`
0W
0a
#840000
1!
0*
0)
1(
1E
0D
0C
1B
1j
0h
0b
1`
1W
0c
1k
1a
#845000
0!
0E
0`
0W
0a
#850000
1!
1*
1"
1E
1D
1F
1f
1b
1`
1W
1c
1a
#855000
0!
0E
0`
0W
0a
#860000
1!
0*
1)
1E
0D
1C
1h
0b
1`
1W
0c
1a
#865000
0!
0E
0`
0W
0a
#870000
1!
1*
1E
1D
1b
1`
1W
1c
1a
#875000
0!
0E
0`
0W
0a
#880000
1!
0*
0)
0(
1'
1E
0D
0C
0B
1A
1m
0j
0h
0b
1`
1W
0c
0k
1a
#885000
0!
0E
0`
0W
0a
#890000
1!
1*
1E
1D
1b
1`
1W
1c
1a
#895000
0!
0E
0`
0W
0a
#900000
1!
0*
1)
0"
1E
0D
1C
0F
0f
1h
0b
1`
1W
0c
1a
#905000
0!
0E
0`
0W
0a
#910000
1!
1*
1E
1D
1b
1`
1W
1c
1a
#915000
0!
0E
0`
0W
0a
#920000
1!
0*
0)
1(
1E
0D
0C
1B
1j
0h
0b
1`
1W
0c
1k
1a
#925000
0!
0E
0`
0W
0a
#930000
1!
1*
1E
1D
1b
1`
1W
1c
1a
#935000
0!
0E
0`
0W
0a
#940000
1!
0*
1)
1E
0D
1C
1h
0b
1`
1W
0c
1a
#945000
0!
0E
0`
0W
0a
#950000
1!
1*
1E
1D
1b
1`
1W
1c
1a
#955000
0!
0E
0`
0W
0a
#960000
1!
0*
0)
0(
0'
0&
1%
1E
0D
0C
0B
0A
0@
1?
1r
0o
0m
0j
0h
0b
1`
1W
0c
0k
0p
1s
1a
#965000
0!
0E
0`
0W
0a
#970000
1!
1*
1E
1D
1b
1`
1W
1c
1a
#975000
0!
0E
0`
0W
0a
#980000
1!
0*
1)
1E
0D
1C
1h
0b
1`
1W
0c
1a
#985000
0!
0E
0`
0W
0a
#990000
1!
1*
1E
1D
1b
1`
1W
1c
1a
#995000
0!
0E
0`
0W
0a
