Relogio/Lixo/componentes/ram_1k/simulation/qsim/ram_1k.msim.vcd
$comment
	File created using the following command:
		vcd file ram_1k.msim.vcd -direction
$end
$date
	Wed Aug 21 09:09:54 2019
$end
$version
	ModelSim Version 10.5b
$end
$timescale
	1ps
$end

$scope module ram_1k_vhd_vec_tst $end
$var wire 1 ! addr [9] $end
$var wire 1 " addr [8] $end
$var wire 1 # addr [7] $end
$var wire 1 $ addr [6] $end
$var wire 1 % addr [5] $end
$var wire 1 & addr [4] $end
$var wire 1 ' addr [3] $end
$var wire 1 ( addr [2] $end
$var wire 1 ) addr [1] $end
$var wire 1 * addr [0] $end
$var wire 1 + clk $end
$var wire 1 , cs $end
$var wire 1 - data [7] $end
$var wire 1 . data [6] $end
$var wire 1 / data [5] $end
$var wire 1 0 data [4] $end
$var wire 1 1 data [3] $end
$var wire 1 2 data [2] $end
$var wire 1 3 data [1] $end
$var wire 1 4 data [0] $end
$var wire 1 5 q [7] $end
$var wire 1 6 q [6] $end
$var wire 1 7 q [5] $end
$var wire 1 8 q [4] $end
$var wire 1 9 q [3] $end
$var wire 1 : q [2] $end
$var wire 1 ; q [1] $end
$var wire 1 < q [0] $end
$var wire 1 = we $end

$scope module i1 $end
$var wire 1 > gnd $end
$var wire 1 ? vcc $end
$var wire 1 @ unknown $end
$var wire 1 A devoe $end
$var wire 1 B devclrn $end
$var wire 1 C devpor $end
$var wire 1 D ww_devoe $end
$var wire 1 E ww_devclrn $end
$var wire 1 F ww_devpor $end
$var wire 1 G ww_clk $end
$var wire 1 H ww_addr [9] $end
$var wire 1 I ww_addr [8] $end
$var wire 1 J ww_addr [7] $end
$var wire 1 K ww_addr [6] $end
$var wire 1 L ww_addr [5] $end
$var wire 1 M ww_addr [4] $end
$var wire 1 N ww_addr [3] $end
$var wire 1 O ww_addr [2] $end
$var wire 1 P ww_addr [1] $end
$var wire 1 Q ww_addr [0] $end
$var wire 1 R ww_data [7] $end
$var wire 1 S ww_data [6] $end
$var wire 1 T ww_data [5] $end
$var wire 1 U ww_data [4] $end
$var wire 1 V ww_data [3] $end
$var wire 1 W ww_data [2] $end
$var wire 1 X ww_data [1] $end
$var wire 1 Y ww_data [0] $end
$var wire 1 Z ww_we $end
$var wire 1 [ ww_cs $end
$var wire 1 \ ww_q [7] $end
$var wire 1 ] ww_q [6] $end
$var wire 1 ^ ww_q [5] $end
$var wire 1 _ ww_q [4] $end
$var wire 1 ` ww_q [3] $end
$var wire 1 a ww_q [2] $end
$var wire 1 b ww_q [1] $end
$var wire 1 c ww_q [0] $end
$var wire 1 d \ram_rtl_0|auto_generated|ram_block1a0_PORTADATAIN_bus\ [8] $end
$var wire 1 e \ram_rtl_0|auto_generated|ram_block1a0_PORTADATAIN_bus\ [7] $end
$var wire 1 f \ram_rtl_0|auto_generated|ram_block1a0_PORTADATAIN_bus\ [6] $end
$var wire 1 g \ram_rtl_0|auto_generated|ram_block1a0_PORTADATAIN_bus\ [5] $end
$var wire 1 h \ram_rtl_0|auto_generated|ram_block1a0_PORTADATAIN_bus\ [4] $end
$var wire 1 i \ram_rtl_0|auto_generated|ram_block1a0_PORTADATAIN_bus\ [3] $end
$var wire 1 j \ram_rtl_0|auto_generated|ram_block1a0_PORTADATAIN_bus\ [2] $end
$var wire 1 k \ram_rtl_0|auto_generated|ram_block1a0_PORTADATAIN_bus\ [1] $end
$var wire 1 l \ram_rtl_0|auto_generated|ram_block1a0_PORTADATAIN_bus\ [0] $end
$var wire 1 m \ram_rtl_0|auto_generated|ram_block1a0_PORTAADDR_bus\ [9] $end
$var wire 1 n \ram_rtl_0|auto_generated|ram_block1a0_PORTAADDR_bus\ [8] $end
$var wire 1 o \ram_rtl_0|auto_generated|ram_block1a0_PORTAADDR_bus\ [7] $end
$var wire 1 p \ram_rtl_0|auto_generated|ram_block1a0_PORTAADDR_bus\ [6] $end
$var wire 1 q \ram_rtl_0|auto_generated|ram_block1a0_PORTAADDR_bus\ [5] $end
$var wire 1 r \ram_rtl_0|auto_generated|ram_block1a0_PORTAADDR_bus\ [4] $end
$var wire 1 s \ram_rtl_0|auto_generated|ram_block1a0_PORTAADDR_bus\ [3] $end
$var wire 1 t \ram_rtl_0|auto_generated|ram_block1a0_PORTAADDR_bus\ [2] $end
$var wire 1 u \ram_rtl_0|auto_generated|ram_block1a0_PORTAADDR_bus\ [1] $end
$var wire 1 v \ram_rtl_0|auto_generated|ram_block1a0_PORTAADDR_bus\ [0] $end
$var wire 1 w \ram_rtl_0|auto_generated|ram_block1a0_PORTADATAOUT_bus\ [8] $end
$var wire 1 x \ram_rtl_0|auto_generated|ram_block1a0_PORTADATAOUT_bus\ [7] $end
$var wire 1 y \ram_rtl_0|auto_generated|ram_block1a0_PORTADATAOUT_bus\ [6] $end
$var wire 1 z \ram_rtl_0|auto_generated|ram_block1a0_PORTADATAOUT_bus\ [5] $end
$var wire 1 { \ram_rtl_0|auto_generated|ram_block1a0_PORTADATAOUT_bus\ [4] $end
$var wire 1 | \ram_rtl_0|auto_generated|ram_block1a0_PORTADATAOUT_bus\ [3] $end
$var wire 1 } \ram_rtl_0|auto_generated|ram_block1a0_PORTADATAOUT_bus\ [2] $end
$var wire 1 ~ \ram_rtl_0|auto_generated|ram_block1a0_PORTADATAOUT_bus\ [1] $end
$var wire 1 !! \ram_rtl_0|auto_generated|ram_block1a0_PORTADATAOUT_bus\ [0] $end
$var wire 1 "! \clk~inputclkctrl_INCLK_bus\ [3] $end
$var wire 1 #! \clk~inputclkctrl_INCLK_bus\ [2] $end
$var wire 1 $! \clk~inputclkctrl_INCLK_bus\ [1] $end
$var wire 1 %! \clk~inputclkctrl_INCLK_bus\ [0] $end
$var wire 1 &! \q[0]~output_o\ $end
$var wire 1 '! \q[1]~output_o\ $end
$var wire 1 (! \q[2]~output_o\ $end
$var wire 1 )! \q[3]~output_o\ $end
$var wire 1 *! \q[4]~output_o\ $end
$var wire 1 +! \q[5]~output_o\ $end
$var wire 1 ,! \q[6]~output_o\ $end
$var wire 1 -! \q[7]~output_o\ $end
$var wire 1 .! \cs~input_o\ $end
$var wire 1 /! \we~input_o\ $end
$var wire 1 0! \ram~19_combout\ $end
$var wire 1 1! \clk~input_o\ $end
$var wire 1 2! \clk~inputclkctrl_outclk\ $end
$var wire 1 3! \data[0]~input_o\ $end
$var wire 1 4! \addr[0]~input_o\ $end
$var wire 1 5! \addr[1]~input_o\ $end
$var wire 1 6! \addr[2]~input_o\ $end
$var wire 1 7! \addr[3]~input_o\ $end
$var wire 1 8! \addr[4]~input_o\ $end
$var wire 1 9! \addr[5]~input_o\ $end
$var wire 1 :! \addr[6]~input_o\ $end
$var wire 1 ;! \addr[7]~input_o\ $end
$var wire 1 <! \addr[8]~input_o\ $end
$var wire 1 =! \addr[9]~input_o\ $end
$var wire 1 >! \data[1]~input_o\ $end
$var wire 1 ?! \data[2]~input_o\ $end
$var wire 1 @! \data[3]~input_o\ $end
$var wire 1 A! \data[4]~input_o\ $end
$var wire 1 B! \data[5]~input_o\ $end
$var wire 1 C! \data[6]~input_o\ $end
$var wire 1 D! \data[7]~input_o\ $end
$var wire 1 E! \ram_rtl_0|auto_generated|ram_block1a0~portadataout\ $end
$var wire 1 F! \ram_rtl_0|auto_generated|ram_block1a1\ $end
$var wire 1 G! \ram_rtl_0|auto_generated|ram_block1a2\ $end
$var wire 1 H! \ram_rtl_0|auto_generated|ram_block1a3\ $end
$var wire 1 I! \ram_rtl_0|auto_generated|ram_block1a4\ $end
$var wire 1 J! \ram_rtl_0|auto_generated|ram_block1a5\ $end
$var wire 1 K! \ram_rtl_0|auto_generated|ram_block1a6\ $end
$var wire 1 L! \ram_rtl_0|auto_generated|ram_block1a7\ $end
$upscope $end
$upscope $end
$enddefinitions $end
#0
$dumpvars
1+
1,
1=
0>
1?
x@
1A
1B
1C
1D
1E
1F
1G
1Z
1[
0&!
0'!
0(!
0)!
0*!
0+!
0,!
0-!
1.!
1/!
10!
11!
12!
03!
04!
05!
06!
17!
18!
09!
0:!
0;!
1<!
0=!
0>!
0?!
0@!
0A!
0B!
0C!
0D!
0E!
0F!
0G!
0H!
0I!
0J!
0K!
0L!
0!
1"
0#
0$
0%
1&
1'
0(
0)
0*
0-
0.
0/
00
01
02
03
04
05
06
07
08
09
0:
0;
0<
0H
1I
0J
0K
0L
1M
1N
0O
0P
0Q
0R
0S
0T
0U
0V
0W
0X
0Y
0\
0]
0^
0_
0`
0a
0b
0c
0w
0x
0y
0z
0{
0|
0}
0~
0!!
1"!
1#!
1$!
1%!
0d
0e
0f
0g
0h
0i
0j
0k
0l
0m
1n
0o
0p
0q
1r
1s
0t
0u
0v
$end
#5000
0+
0=
0G
0Z
0/!
01!
0%!
00!
02!
#10000
1+
14
1G
1Y
13!
11!
1l
1%!
12!
#15000
0+
0,
0G
0[
0.!
01!
0%!
02!
z&!
z'!
z(!
z)!
z*!
z+!
z,!
z-!
zc
zb
za
z`
z_
z^
z]
z\
z<
z;
z:
z9
z8
z7
z6
z5
#20000
1+
1,
04
1=
13
1G
1[
0Y
1X
1Z
1/!
1>!
03!
1.!
11!
0l
1k
1%!
10!
12!
0&!
0'!
0(!
0)!
0*!
0+!
0,!
0-!
0c
0b
0a
0`
0_
0^
0]
0\
0<
0;
0:
09
08
07
06
05
#20500
1~
1F!
1'!
1b
1;
#25000
0+
0,
0G
0[
0.!
01!
0%!
00!
02!
z&!
z'!
z(!
z)!
z*!
z+!
z,!
z-!
zc
zb
za
z`
z_
z^
z]
z\
z<
z;
z:
z9
z8
z7
z6
z5
#30000
1+
14
0=
1G
1Y
0Z
0/!
13!
11!
1l
1%!
12!
#35000
0+
1,
0G
1[
1.!
01!
0%!
02!
0&!
1'!
0(!
0)!
0*!
0+!
0,!
0-!
0c
1b
0a
0`
0_
0^
0]
0\
0<
1;
0:
09
08
07
06
05
#40000
1+
0,
04
1=
03
12
1G
0[
0Y
0X
1W
1Z
1/!
1?!
0>!
03!
0.!
11!
0l
0k
1j
1%!
12!
z&!
z'!
z(!
z)!
z*!
z+!
z,!
z-!
zc
zb
za
z`
z_
z^
z]
z\
z<
z;
z:
z9
z8
z7
z6
z5
#45000
0+
0G
01!
0%!
02!
#50000
1+
1,
14
0=
1G
1[
1Y
0Z
0/!
13!
1.!
11!
1l
1%!
12!
0&!
1'!
0(!
0)!
0*!
0+!
0,!
0-!
0c
1b
0a
0`
0_
0^
0]
0\
0<
1;
0:
09
08
07
06
05
#55000
0+
0G
01!
0%!
02!
#60000
1+
04
13
1G
0Y
1X
1>!
03!
11!
0l
1k
1%!
12!
#65000
0+
1=
0G
1Z
1/!
01!
0%!
10!
02!
#70000
1+
0=
14
0,
1G
0Z
1Y
0[
0.!
13!
0/!
11!
1l
1%!
00!
12!
z&!
z'!
z(!
z)!
z*!
z+!
z,!
z-!
zc
zb
za
z`
z_
z^
z]
z\
z<
z;
z:
z9
z8
z7
z6
z5
#75000
0+
1,
0G
1[
1.!
01!
0%!
02!
0&!
1'!
0(!
0)!
0*!
0+!
0,!
0-!
0c
1b
0a
0`
0_
0^
0]
0\
0<
1;
0:
09
08
07
06
05
#80000
1+
04
03
02
11
1G
0Y
0X
0W
1V
1@!
0?!
0>!
03!
11!
0l
0k
0j
1i
1%!
12!
#85000
0+
0G
01!
0%!
02!
#90000
1+
14
0,
1=
1G
1Y
0[
1Z
1/!
0.!
13!
11!
1l
1%!
12!
z&!
z'!
z(!
z)!
z*!
z+!
z,!
z-!
zc
zb
za
z`
z_
z^
z]
z\
z<
z;
z:
z9
z8
z7
z6
z5
#95000
0+
0G
01!
0%!
02!
#100000
1+
04
1,
13
1G
0Y
1X
1[
1.!
1>!
03!
11!
0l
1k
1%!
10!
12!
0&!
1'!
0(!
0)!
0*!
0+!
0,!
0-!
0c
1b
0a
0`
0_
0^
0]
0\
0<
1;
0:
09
08
07
06
05
#100500
1|
1H!
1)!
1`
19
#105000
0+
0=
0G
0Z
0/!
01!
0%!
00!
02!
#110000
1+
1=
14
1G
1Z
1Y
13!
1/!
11!
1l
1%!
10!
12!
#110500
1!!
1E!
1&!
1c
1<
#115000
0+
0=
0,
0G
0Z
0[
0.!
0/!
01!
0%!
00!
02!
z&!
z'!
z(!
z)!
z*!
z+!
z,!
z-!
zc
zb
za
z`
z_
z^
z]
z\
z<
z;
z:
z9
z8
z7
z6
z5
#120000
1+
1,
04
03
12
1G
1[
0Y
0X
1W
1?!
0>!
03!
1.!
11!
0l
0k
1j
1%!
12!
1&!
1'!
0(!
1)!
0*!
0+!
0,!
0-!
1c
1b
0a
1`
0_
0^
0]
0\
1<
1;
0:
19
08
07
06
05
#125000
0+
0,
1=
0G
0[
1Z
1/!
0.!
01!
0%!
02!
z&!
z'!
z(!
z)!
z*!
z+!
z,!
z-!
zc
zb
za
z`
z_
z^
z]
z\
z<
z;
z:
z9
z8
z7
z6
z5
#130000
1+
1,
14
1G
1[
1Y
13!
1.!
11!
1l
1%!
10!
12!
1&!
1'!
0(!
1)!
0*!
0+!
0,!
0-!
1c
1b
0a
1`
0_
0^
0]
0\
1<
1;
0:
19
08
07
06
05
#130500
0~
1}
0F!
1G!
1(!
0'!
1a
0b
0;
1:
#135000
0+
0,
0G
0[
0.!
01!
0%!
00!
02!
z&!
z'!
z(!
z)!
z*!
z+!
z,!
z-!
zc
zb
za
z`
z_
z^
z]
z\
z<
z;
z:
z9
z8
z7
z6
z5
#140000
1+
1,
04
0=
13
1G
1[
0Y
1X
0Z
0/!
1>!
03!
1.!
11!
0l
1k
1%!
12!
1&!
0'!
1(!
1)!
0*!
0+!
0,!
0-!
1c
0b
1a
1`
0_
0^
0]
0\
1<
0;
1:
19
08
07
06
05
#145000
0+
0G
01!
0%!
02!
#150000
1+
14
1G
1Y
13!
11!
1l
1%!
12!
#155000
0+
0,
0G
0[
0.!
01!
0%!
02!
z&!
z'!
z(!
z)!
z*!
z+!
z,!
z-!
zc
zb
za
z`
z_
z^
z]
z\
z<
z;
z:
z9
z8
z7
z6
z5
#160000
1+
04
03
02
01
10
1G
0Y
0X
0W
0V
1U
1A!
0@!
0?!
0>!
03!
11!
0l
0k
0j
0i
1h
1%!
12!
#165000
0+
0G
01!
0%!
02!
#170000
1+
14
1,
1=
1G
1Y
1[
1Z
1/!
1.!
13!
11!
1l
1%!
10!
12!
1&!
0'!
1(!
1)!
0*!
0+!
0,!
0-!
1c
0b
1a
1`
0_
0^
0]
0\
1<
0;
1:
19
08
07
06
05
#170500
0}
0|
1{
0G!
0H!
1I!
1*!
0)!
0(!
1_
0`
0a
0:
09
18
#175000
0+
0,
0G
0[
0.!
01!
0%!
00!
02!
z&!
z'!
z(!
z)!
z*!
z+!
z,!
z-!
zc
zb
za
z`
z_
z^
z]
z\
z<
z;
z:
z9
z8
z7
z6
z5
#180000
1+
04
13
1G
0Y
1X
1>!
03!
11!
0l
1k
1%!
12!
#185000
0+
0G
01!
0%!
02!
#190000
1+
14
1G
1Y
13!
11!
1l
1%!
12!
#195000
0+
1,
0G
1[
1.!
01!
0%!
10!
02!
1&!
0'!
0(!
0)!
1*!
0+!
0,!
0-!
1c
0b
0a
0`
1_
0^
0]
0\
1<
0;
0:
09
18
07
06
05
#200000
1+
0,
04
03
12
1G
0[
0Y
0X
1W
1?!
0>!
03!
0.!
11!
0l
0k
1j
1%!
00!
12!
z&!
z'!
z(!
z)!
z*!
z+!
z,!
z-!
zc
zb
za
z`
z_
z^
z]
z\
z<
z;
z:
z9
z8
z7
z6
z5
#205000
0+
0G
01!
0%!
02!
#210000
1+
14
1G
1Y
13!
11!
1l
1%!
12!
#215000
0+
0G
01!
0%!
02!
#220000
1+
04
13
1G
0Y
1X
1>!
03!
11!
0l
1k
1%!
12!
#225000
0+
1,
0G
1[
1.!
01!
0%!
10!
02!
1&!
0'!
0(!
0)!
1*!
0+!
0,!
0-!
1c
0b
0a
0`
1_
0^
0]
0\
1<
0;
0:
09
18
07
06
05
#230000
1+
0,
14
1G
0[
1Y
13!
0.!
11!
1l
1%!
00!
12!
z&!
z'!
z(!
z)!
z*!
z+!
z,!
z-!
zc
zb
za
z`
z_
z^
z]
z\
z<
z;
z:
z9
z8
z7
z6
z5
#235000
0+
1,
0G
1[
1.!
01!
0%!
10!
02!
1&!
0'!
0(!
0)!
1*!
0+!
0,!
0-!
1c
0b
0a
0`
1_
0^
0]
0\
1<
0;
0:
09
18
07
06
05
#240000
1+
0,
04
03
02
11
1G
0[
0Y
0X
0W
1V
1@!
0?!
0>!
03!
0.!
11!
0l
0k
0j
1i
1%!
00!
12!
z&!
z'!
z(!
z)!
z*!
z+!
z,!
z-!
zc
zb
za
z`
z_
z^
z]
z\
z<
z;
z:
z9
z8
z7
z6
z5
#245000
0+
1,
0=
0G
1[
0Z
0/!
1.!
01!
0%!
02!
1&!
0'!
0(!
0)!
1*!
0+!
0,!
0-!
1c
0b
0a
0`
1_
0^
0]
0\
1<
0;
0:
09
18
07
06
05
#250000
1+
1=
14
1G
1Z
1Y
13!
1/!
11!
1l
1%!
10!
12!
#250500
1|
1H!
1)!
1`
19
#255000
0+
0=
0,
0G
0Z
0[
0.!
0/!
01!
0%!
00!
02!
z&!
z'!
z(!
z)!
z*!
z+!
z,!
z-!
zc
zb
za
z`
z_
z^
z]
z\
z<
z;
z:
z9
z8
z7
z6
z5
#260000
1+
04
13
1G
0Y
1X
1>!
03!
11!
0l
1k
1%!
12!
#265000
0+
0G
01!
0%!
02!
#270000
1+
14
1=
1G
1Y
1Z
1/!
13!
11!
1l
1%!
12!
#275000
0+
0G
01!
0%!
02!
#280000
1+
04
03
12
1G
0Y
0X
1W
1?!
0>!
03!
11!
0l
0k
1j
1%!
12!
#285000
0+
1,
0G
1[
1.!
01!
0%!
10!
02!
1&!
0'!
0(!
1)!
1*!
0+!
0,!
0-!
1c
0b
0a
1`
1_
0^
0]
0\
1<
0;
0:
19
18
07
06
05
#290000
1+
14
0=
1G
1Y
0Z
0/!
13!
11!
1l
1%!
00!
12!
#295000
0+
0,
0G
0[
0.!
01!
0%!
02!
z&!
z'!
z(!
z)!
z*!
z+!
z,!
z-!
zc
zb
za
z`
z_
z^
z]
z\
z<
z;
z:
z9
z8
z7
z6
z5
#300000
1+
1,
04
13
1G
1[
0Y
1X
1>!
03!
1.!
11!
0l
1k
1%!
12!
1&!
0'!
0(!
1)!
1*!
0+!
0,!
0-!
1c
0b
0a
1`
1_
0^
0]
0\
1<
0;
0:
19
18
07
06
05
#305000
0+
1=
0G
1Z
1/!
01!
0%!
10!
02!
#310000
1+
14
1G
1Y
13!
11!
1l
1%!
12!
#310500
1~
1}
1F!
1G!
1(!
1'!
1a
1b
1;
1:
#315000
0+
0,
0G
0[
0.!
01!
0%!
00!
02!
z&!
z'!
z(!
z)!
z*!
z+!
z,!
z-!
zc
zb
za
z`
z_
z^
z]
z\
z<
z;
z:
z9
z8
z7
z6
z5
#320000
1+
04
0=
03
02
01
00
1/
1G
0Y
0X
0W
0V
0U
1T
0Z
0/!
1B!
0A!
0@!
0?!
0>!
03!
11!
0l
0k
0j
0i
0h
1g
1%!
12!
#325000
0+
1=
0G
1Z
1/!
01!
0%!
02!
#330000
1+
14
1G
1Y
13!
11!
1l
1%!
12!
#335000
0+
0G
01!
0%!
02!
#340000
1+
04
0=
13
1,
1G
0Y
1X
0Z
1[
1.!
0/!
1>!
03!
11!
0l
1k
1%!
12!
1&!
1'!
1(!
1)!
1*!
0+!
0,!
0-!
1c
1b
1a
1`
1_
0^
0]
0\
1<
1;
1:
19
18
07
06
05
#345000
0+
0G
01!
0%!
02!
#350000
1+
14
0,
1G
1Y
0[
0.!
13!
11!
1l
1%!
12!
z&!
z'!
z(!
z)!
z*!
z+!
z,!
z-!
zc
zb
za
z`
z_
z^
z]
z\
z<
z;
z:
z9
z8
z7
z6
z5
#355000
0+
1=
0G
1Z
1/!
01!
0%!
02!
#360000
1+
0=
04
1,
03
12
1G
0Z
0Y
0X
1W
1[
1.!
1?!
0>!
03!
0/!
11!
0l
0k
1j
1%!
12!
1&!
1'!
1(!
1)!
1*!
0+!
0,!
0-!
1c
1b
1a
1`
1_
0^
0]
0\
1<
1;
1:
19
18
07
06
05
#365000
0+
1=
0,
0G
1Z
0[
0.!
1/!
01!
0%!
02!
z&!
z'!
z(!
z)!
z*!
z+!
z,!
z-!
zc
zb
za
z`
z_
z^
z]
z\
z<
z;
z:
z9
z8
z7
z6
z5
#370000
1+
1,
14
1G
1[
1Y
13!
1.!
11!
1l
1%!
10!
12!
1&!
1'!
1(!
1)!
1*!
0+!
0,!
0-!
1c
1b
1a
1`
1_
0^
0]
0\
1<
1;
1:
19
18
07
06
05
#370500
0~
0|
0{
1z
0F!
0H!
0I!
1J!
1+!
0*!
0)!
0'!
1^
0_
0`
0b
0;
09
08
17
#375000
0+
0,
0G
0[
0.!
01!
0%!
00!
02!
z&!
z'!
z(!
z)!
z*!
z+!
z,!
z-!
zc
zb
za
z`
z_
z^
z]
z\
z<
z;
z:
z9
z8
z7
z6
z5
#380000
1+
1,
04
0=
13
1G
1[
0Y
1X
0Z
0/!
1>!
03!
1.!
11!
0l
1k
1%!
12!
1&!
0'!
1(!
0)!
0*!
1+!
0,!
0-!
1c
0b
1a
0`
0_
1^
0]
0\
1<
0;
1:
09
08
17
06
05
#385000
0+
1=
0G
1Z
1/!
01!
0%!
10!
02!
#390000
1+
0=
0,
14
1G
0Z
0[
1Y
13!
0.!
0/!
11!
1l
1%!
00!
12!
z&!
z'!
z(!
z)!
z*!
z+!
z,!
z-!
zc
zb
za
z`
z_
z^
z]
z\
z<
z;
z:
z9
z8
z7
z6
z5
#395000
0+
1,
0G
1[
1.!
01!
0%!
02!
1&!
0'!
1(!
0)!
0*!
1+!
0,!
0-!
1c
0b
1a
0`
0_
1^
0]
0\
1<
0;
1:
09
08
17
06
05
#400000
1+
1=
04
03
02
11
1G
1Z
0Y
0X
0W
1V
1@!
0?!
0>!
03!
1/!
11!
0l
0k
0j
1i
1%!
10!
12!
#400500
0!!
0}
1|
0E!
0G!
1H!
1)!
0(!
0&!
1`
0a
0c
0<
0:
19
#405000
0+
0,
0G
0[
0.!
01!
0%!
00!
02!
z&!
z'!
z(!
z)!
z*!
z+!
z,!
z-!
zc
zb
za
z`
z_
z^
z]
z\
z<
z;
z:
z9
z8
z7
z6
z5
#410000
1+
0=
14
1G
0Z
1Y
13!
0/!
11!
1l
1%!
12!
#415000
0+
1,
0G
1[
1.!
01!
0%!
02!
0&!
0'!
0(!
1)!
0*!
1+!
0,!
0-!
0c
0b
0a
1`
0_
1^
0]
0\
0<
0;
0:
19
08
17
06
05
#420000
1+
0,
04
13
1G
0[
0Y
1X
1>!
03!
0.!
11!
0l
1k
1%!
12!
z&!
z'!
z(!
z)!
z*!
z+!
z,!
z-!
zc
zb
za
z`
z_
z^
z]
z\
z<
z;
z:
z9
z8
z7
z6
z5
#425000
0+
1,
1=
0G
1[
1Z
1/!
1.!
01!
0%!
10!
02!
0&!
0'!
0(!
1)!
0*!
1+!
0,!
0-!
0c
0b
0a
1`
0_
1^
0]
0\
0<
0;
0:
19
08
17
06
05
#430000
1+
0=
14
1G
0Z
1Y
13!
0/!
11!
1l
1%!
00!
12!
#435000
0+
0,
0G
0[
0.!
01!
0%!
02!
z&!
z'!
z(!
z)!
z*!
z+!
z,!
z-!
zc
zb
za
z`
z_
z^
z]
z\
z<
z;
z:
z9
z8
z7
z6
z5
#440000
1+
1=
04
03
12
1G
1Z
0Y
0X
1W
1?!
0>!
03!
1/!
11!
0l
0k
1j
1%!
12!
#445000
0+
0G
01!
0%!
02!
#450000
1+
14
1,
1G
1Y
1[
1.!
13!
11!
1l
1%!
10!
12!
0&!
0'!
0(!
1)!
0*!
1+!
0,!
0-!
0c
0b
0a
1`
0_
1^
0]
0\
0<
0;
0:
19
08
17
06
05
#450500
1!!
1}
1E!
1G!
1(!
1&!
1a
1c
1<
1:
#455000
0+
0=
0G
0Z
0/!
01!
0%!
00!
02!
#460000
1+
04
13
1G
0Y
1X
1>!
03!
11!
0l
1k
1%!
12!
#465000
0+
1=
0,
0G
1Z
0[
0.!
1/!
01!
0%!
02!
z&!
z'!
z(!
z)!
z*!
z+!
z,!
z-!
zc
zb
za
z`
z_
z^
z]
z\
z<
z;
z:
z9
z8
z7
z6
z5
#470000
1+
0=
14
1G
0Z
1Y
13!
0/!
11!
1l
1%!
12!
#475000
0+
1=
0G
1Z
1/!
01!
0%!
02!
#480000
1+
0=
04
03
02
01
10
1G
0Z
0Y
0X
0W
0V
1U
1A!
0@!
0?!
0>!
03!
0/!
11!
0l
0k
0j
0i
1h
1%!
12!
#485000
0+
0G
01!
0%!
02!
#490000
1+
1=
14
1,
1G
1Z
1Y
1[
1.!
13!
1/!
11!
1l
1%!
10!
12!
1&!
0'!
1(!
1)!
0*!
1+!
0,!
0-!
1c
0b
1a
1`
0_
1^
0]
0\
1<
0;
1:
19
08
17
06
05
#490500
0}
0|
1{
0G!
0H!
1I!
1*!
0)!
0(!
1_
0`
0a
0:
09
18
#495000
0+
0=
0,
0G
0Z
0[
0.!
0/!
01!
0%!
00!
02!
z&!
z'!
z(!
z)!
z*!
z+!
z,!
z-!
zc
zb
za
z`
z_
z^
z]
z\
z<
z;
z:
z9
z8
z7
z6
z5
#500000
1+
1=
1,
04
13
1G
1Z
1[
0Y
1X
1>!
03!
1.!
1/!
11!
0l
1k
1%!
10!
12!
1&!
0'!
0(!
0)!
1*!
1+!
0,!
0-!
1c
0b
0a
0`
1_
1^
0]
0\
1<
0;
0:
09
18
17
06
05
#500500
0!!
1~
0E!
1F!
1'!
0&!
1b
0c
0<
1;
#505000
0+
0G
01!
0%!
02!
#510000
1+
0=
0,
14
1G
0Z
0[
1Y
13!
0.!
0/!
11!
1l
1%!
00!
12!
z&!
z'!
z(!
z)!
z*!
z+!
z,!
z-!
zc
zb
za
z`
z_
z^
z]
z\
z<
z;
z:
z9
z8
z7
z6
z5
#515000
0+
0G
01!
0%!
02!
#520000
1+
1,
04
03
12
1G
1[
0Y
0X
1W
1?!
0>!
03!
1.!
11!
0l
0k
1j
1%!
12!
0&!
1'!
0(!
0)!
1*!
1+!
0,!
0-!
0c
1b
0a
0`
1_
1^
0]
0\
0<
1;
0:
09
18
17
06
05
#525000
0+
0,
0G
0[
0.!
01!
0%!
02!
z&!
z'!
z(!
z)!
z*!
z+!
z,!
z-!
zc
zb
za
z`
z_
z^
z]
z\
z<
z;
z:
z9
z8
z7
z6
z5
#530000
1+
14
1=
1G
1Y
1Z
1/!
13!
11!
1l
1%!
12!
#535000
0+
0G
01!
0%!
02!
#540000
1+
04
0=
1,
13
1G
0Y
1X
0Z
1[
1.!
0/!
1>!
03!
11!
0l
1k
1%!
12!
0&!
1'!
0(!
0)!
1*!
1+!
0,!
0-!
0c
1b
0a
0`
1_
1^
0]
0\
0<
1;
0:
09
18
17
06
05
#545000
0+
1=
0G
1Z
1/!
01!
0%!
10!
02!
#550000
1+
14
1G
1Y
13!
11!
1l
1%!
12!
#550500
1!!
1}
1E!
1G!
1(!
1&!
1a
1c
1<
1:
#555000
0+
0,
0G
0[
0.!
01!
0%!
00!
02!
z&!
z'!
z(!
z)!
z*!
z+!
z,!
z-!
zc
zb
za
z`
z_
z^
z]
z\
z<
z;
z:
z9
z8
z7
z6
z5
#560000
1+
1,
04
03
02
11
1G
1[
0Y
0X
0W
1V
1@!
0?!
0>!
03!
1.!
11!
0l
0k
0j
1i
1%!
10!
12!
1&!
1'!
1(!
0)!
1*!
1+!
0,!
0-!
1c
1b
1a
0`
1_
1^
0]
0\
1<
1;
1:
09
18
17
06
05
#560500
0!!
0~
0}
1|
0E!
0F!
0G!
1H!
1)!
0(!
0'!
0&!
1`
0a
0b
0c
0<
0;
0:
19
#565000
0+
0=
0G
0Z
0/!
01!
0%!
00!
02!
#570000
1+
14
1G
1Y
13!
11!
1l
1%!
12!
#575000
0+
0G
01!
0%!
02!
#580000
1+
04
1=
13
1G
0Y
1X
1Z
1/!
1>!
03!
11!
0l
1k
1%!
10!
12!
#580500
1~
1F!
1'!
1b
1;
#585000
0+
0G
01!
0%!
02!
#590000
1+
14
0=
0,
1G
1Y
0Z
0[
0.!
0/!
13!
11!
1l
1%!
00!
12!
z&!
z'!
z(!
z)!
z*!
z+!
z,!
z-!
zc
zb
za
z`
z_
z^
z]
z\
z<
z;
z:
z9
z8
z7
z6
z5
#595000
0+
1=
1,
0G
1Z
1[
1.!
1/!
01!
0%!
10!
02!
0&!
1'!
0(!
1)!
1*!
1+!
0,!
0-!
0c
1b
0a
1`
1_
1^
0]
0\
0<
1;
0:
19
18
17
06
05
#600000
1+
0=
04
03
12
1G
0Z
0Y
0X
1W
1?!
0>!
03!
0/!
11!
0l
0k
1j
1%!
00!
12!
#605000
0+
1=
0,
0G
1Z
0[
0.!
1/!
01!
0%!
02!
z&!
z'!
z(!
z)!
z*!
z+!
z,!
z-!
zc
zb
za
z`
z_
z^
z]
z\
z<
z;
z:
z9
z8
z7
z6
z5
#610000
1+
0=
14
1G
0Z
1Y
13!
0/!
11!
1l
1%!
12!
#615000
0+
1,
0G
1[
1.!
01!
0%!
02!
0&!
1'!
0(!
1)!
1*!
1+!
0,!
0-!
0c
1b
0a
1`
1_
1^
0]
0\
0<
1;
0:
19
18
17
06
05
#620000
1+
0,
04
13
1G
0[
0Y
1X
1>!
03!
0.!
11!
0l
1k
1%!
12!
z&!
z'!
z(!
z)!
z*!
z+!
z,!
z-!
zc
zb
za
z`
z_
z^
z]
z\
z<
z;
z:
z9
z8
z7
z6
z5
