componentes/contador/simulation/qsim/contador.msim.vcd
$comment
	File created using the following command:
		vcd file contador.msim.vcd -direction
$end
$date
	Fri Aug 30 13:31:13 2019
$end
$version
	ModelSim Version 10.5b
$end
$timescale
	1ps
$end

$scope module contador_vhd_vec_tst $end
$var wire 1 ! clk $end
$var wire 1 " saida_clk $end

$scope module i1 $end
$var wire 1 # gnd $end
$var wire 1 $ vcc $end
$var wire 1 % unknown $end
$var wire 1 & devoe $end
$var wire 1 ' devclrn $end
$var wire 1 ( devpor $end
$var wire 1 ) ww_devoe $end
$var wire 1 * ww_devclrn $end
$var wire 1 + ww_devpor $end
$var wire 1 , ww_clk $end
$var wire 1 - ww_saida_clk $end
$var wire 1 . \clk~inputclkctrl_INCLK_bus\ [3] $end
$var wire 1 / \clk~inputclkctrl_INCLK_bus\ [2] $end
$var wire 1 0 \clk~inputclkctrl_INCLK_bus\ [1] $end
$var wire 1 1 \clk~inputclkctrl_INCLK_bus\ [0] $end
$var wire 1 2 \saida_clk~output_o\ $end
$var wire 1 3 \clk~input_o\ $end
$var wire 1 4 \clk~inputclkctrl_outclk\ $end
$var wire 1 5 \contador[0]~1_combout\ $end
$var wire 1 6 \contador[1]~0_combout\ $end
$var wire 1 7 \tick~0_combout\ $end
$var wire 1 8 \tick~q\ $end
$var wire 1 9 contador [2] $end
$var wire 1 : contador [1] $end
$var wire 1 ; contador [0] $end
$upscope $end
$upscope $end
$enddefinitions $end
#0
$dumpvars
0!
0"
0#
1$
x%
1&
1'
1(
1)
1*
1+
0,
0-
02
03
04
15
06
07
08
x9
0:
0;
1.
1/
10
01
$end
#10000
1!
1,
13
11
14
1;
05
16
#20000
0!
0,
03
01
04
#30000
1!
1,
13
11
14
0;
1:
15
#40000
0!
0,
03
01
04
#50000
1!
1,
13
11
14
1;
05
06
17
#60000
0!
0,
03
01
04
#70000
1!
1,
13
11
14
0;
0:
18
15
12
1-
1"
#80000
0!
0,
03
01
04
#90000
1!
1,
13
11
14
1;
05
16
#100000
0!
0,
03
01
04
#110000
1!
1,
13
11
14
0;
1:
15
#120000
0!
0,
03
01
04
#130000
1!
1,
13
11
14
1;
05
06
07
#140000
0!
0,
03
01
04
#150000
1!
1,
13
11
14
0;
0:
08
15
02
0-
0"
#160000
0!
0,
03
01
04
#170000
1!
1,
13
11
14
1;
05
16
#180000
0!
0,
03
01
04
#190000
1!
1,
13
11
14
0;
1:
15
#200000
0!
0,
03
01
04
#210000
1!
1,
13
11
14
1;
05
06
17
#220000
0!
0,
03
01
04
#230000
1!
1,
13
11
14
0;
0:
18
15
12
1-
1"
#240000
0!
0,
03
01
04
#250000
1!
1,
13
11
14
1;
05
16
#260000
0!
0,
03
01
04
#270000
1!
1,
13
11
14
0;
1:
15
#280000
0!
0,
03
01
04
#290000
1!
1,
13
11
14
1;
05
06
07
#300000
0!
0,
03
01
04
#310000
1!
1,
13
11
14
0;
0:
08
15
02
0-
0"
#320000
0!
0,
03
01
04
#330000
1!
1,
13
11
14
1;
05
16
#340000
0!
0,
03
01
04
#350000
1!
1,
13
11
14
0;
1:
15
#360000
0!
0,
03
01
04
#370000
1!
1,
13
11
14
1;
05
06
17
#380000
0!
0,
03
01
04
#390000
1!
1,
13
11
14
0;
0:
18
15
12
1-
1"
#400000
0!
0,
03
01
04
#410000
1!
1,
13
11
14
1;
05
16
#420000
0!
0,
03
01
04
#430000
1!
1,
13
11
14
0;
1:
15
#440000
0!
0,
03
01
04
#450000
1!
1,
13
11
14
1;
05
06
07
#460000
0!
0,
03
01
04
#470000
1!
1,
13
11
14
0;
0:
08
15
02
0-
0"
#480000
0!
0,
03
01
04
#490000
1!
1,
13
11
14
1;
05
16
#500000
0!
0,
03
01
04
#510000
1!
1,
13
11
14
0;
1:
15
#520000
0!
0,
03
01
04
#530000
1!
1,
13
11
14
1;
05
06
17
#540000
0!
0,
03
01
04
#550000
1!
1,
13
11
14
0;
0:
18
15
12
1-
1"
#560000
0!
0,
03
01
04
#570000
1!
1,
13
11
14
1;
05
16
#580000
0!
0,
03
01
04
#590000
1!
1,
13
11
14
0;
1:
15
#600000
0!
0,
03
01
04
#610000
1!
1,
13
11
14
1;
05
06
07
#620000
0!
0,
03
01
04
#630000
1!
1,
13
11
14
0;
0:
08
15
02
0-
0"
#640000
0!
0,
03
01
04
#650000
1!
1,
13
11
14
1;
05
16
#660000
0!
0,
03
01
04
#670000
1!
1,
13
11
14
0;
1:
15
#680000
0!
0,
03
01
04
#690000
1!
1,
13
11
14
1;
05
06
17
#700000
0!
0,
03
01
04
#710000
1!
1,
13
11
14
0;
0:
18
15
12
1-
1"
#720000
0!
0,
03
01
04
#730000
1!
1,
13
11
14
1;
05
16
#740000
0!
0,
03
01
04
#750000
1!
1,
13
11
14
0;
1:
15
#760000
0!
0,
03
01
04
#770000
1!
1,
13
11
14
1;
05
06
07
#780000
0!
0,
03
01
04
#790000
1!
1,
13
11
14
0;
0:
08
15
02
0-
0"
#800000
0!
0,
03
01
04
#810000
1!
1,
13
11
14
1;
05
16
#820000
0!
0,
03
01
04
#830000
1!
1,
13
11
14
0;
1:
15
#840000
0!
0,
03
01
04
#850000
1!
1,
13
11
14
1;
05
06
17
#860000
0!
0,
03
01
04
#870000
1!
1,
13
11
14
0;
0:
18
15
12
1-
1"
#880000
0!
0,
03
01
04
#890000
1!
1,
13
11
14
1;
05
16
#900000
0!
0,
03
01
04
#910000
1!
1,
13
11
14
0;
1:
15
#920000
0!
0,
03
01
04
#930000
1!
1,
13
11
14
1;
05
06
07
#940000
0!
0,
03
01
04
#950000
1!
1,
13
11
14
0;
0:
08
15
02
0-
0"
#960000
0!
0,
03
01
04
#970000
1!
1,
13
11
14
1;
05
16
#980000
0!
0,
03
01
04
#990000
1!
1,
13
11
14
0;
1:
15
