componentes/ULA/simulation/qsim/ULA.msim.vcd
$comment
	File created using the following command:
		vcd file ULA.msim.vcd -direction
$end
$date
	Wed Sep 18 08:57:59 2019
$end
$version
	ModelSim Version 10.5b
$end
$timescale
	1ps
$end

$scope module ula_vhd_vec_tst $end
$var wire 1 ! inA [7] $end
$var wire 1 " inA [6] $end
$var wire 1 # inA [5] $end
$var wire 1 $ inA [4] $end
$var wire 1 % inA [3] $end
$var wire 1 & inA [2] $end
$var wire 1 ' inA [1] $end
$var wire 1 ( inA [0] $end
$var wire 1 ) inB [7] $end
$var wire 1 * inB [6] $end
$var wire 1 + inB [5] $end
$var wire 1 , inB [4] $end
$var wire 1 - inB [3] $end
$var wire 1 . inB [2] $end
$var wire 1 / inB [1] $end
$var wire 1 0 inB [0] $end
$var wire 1 1 outData [7] $end
$var wire 1 2 outData [6] $end
$var wire 1 3 outData [5] $end
$var wire 1 4 outData [4] $end
$var wire 1 5 outData [3] $end
$var wire 1 6 outData [2] $end
$var wire 1 7 outData [1] $end
$var wire 1 8 outData [0] $end
$var wire 1 9 outFlagZero $end
$var wire 1 : sel [3] $end
$var wire 1 ; sel [2] $end
$var wire 1 < sel [1] $end
$var wire 1 = sel [0] $end

$scope module i1 $end
$var wire 1 > gnd $end
$var wire 1 ? vcc $end
$var wire 1 @ unknown $end
$var wire 1 A devoe $end
$var wire 1 B devclrn $end
$var wire 1 C devpor $end
$var wire 1 D ww_devoe $end
$var wire 1 E ww_devclrn $end
$var wire 1 F ww_devpor $end
$var wire 1 G ww_inA [7] $end
$var wire 1 H ww_inA [6] $end
$var wire 1 I ww_inA [5] $end
$var wire 1 J ww_inA [4] $end
$var wire 1 K ww_inA [3] $end
$var wire 1 L ww_inA [2] $end
$var wire 1 M ww_inA [1] $end
$var wire 1 N ww_inA [0] $end
$var wire 1 O ww_inB [7] $end
$var wire 1 P ww_inB [6] $end
$var wire 1 Q ww_inB [5] $end
$var wire 1 R ww_inB [4] $end
$var wire 1 S ww_inB [3] $end
$var wire 1 T ww_inB [2] $end
$var wire 1 U ww_inB [1] $end
$var wire 1 V ww_inB [0] $end
$var wire 1 W ww_sel [3] $end
$var wire 1 X ww_sel [2] $end
$var wire 1 Y ww_sel [1] $end
$var wire 1 Z ww_sel [0] $end
$var wire 1 [ ww_outData [7] $end
$var wire 1 \ ww_outData [6] $end
$var wire 1 ] ww_outData [5] $end
$var wire 1 ^ ww_outData [4] $end
$var wire 1 _ ww_outData [3] $end
$var wire 1 ` ww_outData [2] $end
$var wire 1 a ww_outData [1] $end
$var wire 1 b ww_outData [0] $end
$var wire 1 c ww_outFlagZero $end
$var wire 1 d \outData[0]~output_o\ $end
$var wire 1 e \outData[1]~output_o\ $end
$var wire 1 f \outData[2]~output_o\ $end
$var wire 1 g \outData[3]~output_o\ $end
$var wire 1 h \outData[4]~output_o\ $end
$var wire 1 i \outData[5]~output_o\ $end
$var wire 1 j \outData[6]~output_o\ $end
$var wire 1 k \outData[7]~output_o\ $end
$var wire 1 l \outFlagZero~output_o\ $end
$var wire 1 m \sel[0]~input_o\ $end
$var wire 1 n \sel[3]~input_o\ $end
$var wire 1 o \sel[1]~input_o\ $end
$var wire 1 p \sel[2]~input_o\ $end
$var wire 1 q \Equal4~0_combout\ $end
$var wire 1 r \inA[1]~input_o\ $end
$var wire 1 s \outData~0_combout\ $end
$var wire 1 t \inA[0]~input_o\ $end
$var wire 1 u \Add1~0_combout\ $end
$var wire 1 v \inA[7]~input_o\ $end
$var wire 1 w \inA[5]~input_o\ $end
$var wire 1 x \inA[6]~input_o\ $end
$var wire 1 y \inA[4]~input_o\ $end
$var wire 1 z \inA[2]~input_o\ $end
$var wire 1 { \inA[3]~input_o\ $end
$var wire 1 | \Equal2~0_combout\ $end
$var wire 1 } \Equal2~1_combout\ $end
$var wire 1 ~ \Add1~2_combout\ $end
$var wire 1 !! \Add0~0_combout\ $end
$var wire 1 "! \Equal1~0_combout\ $end
$var wire 1 #! \outData~2_combout\ $end
$var wire 1 $! \inB[0]~input_o\ $end
$var wire 1 %! \outData~1_combout\ $end
$var wire 1 &! \outData~3_combout\ $end
$var wire 1 '! \outData~4_combout\ $end
$var wire 1 (! \Add1~1\ $end
$var wire 1 )! \Add1~3_combout\ $end
$var wire 1 *! \Add1~5_combout\ $end
$var wire 1 +! \Add0~1\ $end
$var wire 1 ,! \Add0~2_combout\ $end
$var wire 1 -! \outData~5_combout\ $end
$var wire 1 .! \inB[1]~input_o\ $end
$var wire 1 /! \outData~6_combout\ $end
$var wire 1 0! \outData~7_combout\ $end
$var wire 1 1! \Add0~3\ $end
$var wire 1 2! \Add0~4_combout\ $end
$var wire 1 3! \Add1~4\ $end
$var wire 1 4! \Add1~6_combout\ $end
$var wire 1 5! \Add1~8_combout\ $end
$var wire 1 6! \outData~8_combout\ $end
$var wire 1 7! \inB[2]~input_o\ $end
$var wire 1 8! \outData~9_combout\ $end
$var wire 1 9! \outData~10_combout\ $end
$var wire 1 :! \Add0~5\ $end
$var wire 1 ;! \Add0~6_combout\ $end
$var wire 1 <! \Add1~7\ $end
$var wire 1 =! \Add1~9_combout\ $end
$var wire 1 >! \Add1~11_combout\ $end
$var wire 1 ?! \outData~11_combout\ $end
$var wire 1 @! \inB[3]~input_o\ $end
$var wire 1 A! \outData~12_combout\ $end
$var wire 1 B! \outData~13_combout\ $end
$var wire 1 C! \inB[4]~input_o\ $end
$var wire 1 D! \Add1~10\ $end
$var wire 1 E! \Add1~12_combout\ $end
$var wire 1 F! \Add1~14_combout\ $end
$var wire 1 G! \Add0~7\ $end
$var wire 1 H! \Add0~8_combout\ $end
$var wire 1 I! \outData~14_combout\ $end
$var wire 1 J! \outData~15_combout\ $end
$var wire 1 K! \outData~16_combout\ $end
$var wire 1 L! \Add0~9\ $end
$var wire 1 M! \Add0~10_combout\ $end
$var wire 1 N! \Add1~13\ $end
$var wire 1 O! \Add1~15_combout\ $end
$var wire 1 P! \Add1~17_combout\ $end
$var wire 1 Q! \outData~17_combout\ $end
$var wire 1 R! \inB[5]~input_o\ $end
$var wire 1 S! \outData~18_combout\ $end
$var wire 1 T! \outData~19_combout\ $end
$var wire 1 U! \Add0~11\ $end
$var wire 1 V! \Add0~12_combout\ $end
$var wire 1 W! \Add1~16\ $end
$var wire 1 X! \Add1~18_combout\ $end
$var wire 1 Y! \Add1~20_combout\ $end
$var wire 1 Z! \outData~20_combout\ $end
$var wire 1 [! \inB[6]~input_o\ $end
$var wire 1 \! \outData~21_combout\ $end
$var wire 1 ]! \outData~22_combout\ $end
$var wire 1 ^! \inB[7]~input_o\ $end
$var wire 1 _! \outData~24_combout\ $end
$var wire 1 `! \Equal0~0_combout\ $end
$var wire 1 a! \Add1~19\ $end
$var wire 1 b! \Add1~21_combout\ $end
$var wire 1 c! \outData~23_combout\ $end
$var wire 1 d! \Add0~13\ $end
$var wire 1 e! \Add0~14_combout\ $end
$var wire 1 f! \outData~25_combout\ $end
$var wire 1 g! \outFlagZero~1_combout\ $end
$var wire 1 h! \outFlagZero~3_combout\ $end
$var wire 1 i! \outFlagZero~2_combout\ $end
$var wire 1 j! \outFlagZero~4_combout\ $end
$var wire 1 k! \outFlagZero~0_combout\ $end
$var wire 1 l! \outFlagZero~5_combout\ $end
$upscope $end
$upscope $end
$enddefinitions $end
#0
$dumpvars
19
0>
1?
x@
1A
1B
1C
1D
1E
1F
1c
0d
0e
0f
0g
0h
0i
0j
0k
1l
1m
0n
0o
0p
0q
0r
1s
0t
1u
0v
0w
0x
0y
0z
0{
1|
1}
0~
1!!
1"!
0#!
0$!
0%!
0&!
0'!
0(!
1)!
0*!
0+!
0,!
0-!
0.!
0/!
00!
11!
02!
13!
14!
05!
06!
07!
08!
09!
0:!
0;!
0<!
1=!
0>!
0?!
0@!
0A!
0B!
0C!
1D!
1E!
0F!
1G!
0H!
0I!
0J!
0K!
0L!
0M!
0N!
1O!
0P!
0Q!
0R!
0S!
0T!
1U!
0V!
1W!
1X!
0Y!
0Z!
0[!
0\!
0]!
0^!
0_!
0`!
0a!
1b!
0c!
0d!
0e!
0f!
1g!
1h!
1i!
0j!
1k!
1l!
0!
0"
0#
0$
0%
0&
0'
0(
0)
0*
0+
0,
0-
0.
0/
00
0:
0;
0<
1=
0G
0H
0I
0J
0K
0L
0M
0N
0O
0P
0Q
0R
0S
0T
0U
0V
0W
0X
0Y
1Z
0[
0\
0]
0^
0_
0`
0a
0b
01
02
03
04
05
06
07
08
$end
#80000
1(
1N
1t
0u
1(!
0!!
1+!
0g!
1,!
0)!
03!
04!
1<!
0=!
0D!
0E!
1N!
0O!
0W!
0X!
1a!
0b!
#160000
0(
1'
0N
1M
1r
0t
1u
0(!
1!!
0+!
0|
1)!
0,!
01!
12!
0}
1,!
11!
0)!
02!
1~
0l!
1#!
1&!
0l
1'!
0c
09
1d
1b
18
#240000
1(
1N
1t
0u
1(!
0!!
1+!
0,!
01!
1)!
0~
0#!
1*!
12!
1-!
0&!
0'!
1/!
10!
0d
0b
1e
08
1a
17
#320000
0(
0'
1&
0N
0M
1L
1z
0r
0t
1u
0(!
1!!
0+!
0)!
1,!
11!
1g!
02!
1:!
14!
0i!
15!
1;!
12!
0:!
0*!
0,!
1)!
13!
1~
1#!
04!
1*!
0-!
0;!
16!
18!
0/!
1-!
05!
1&!
1'!
06!
1/!
00!
19!
10!
08!
09!
1f
0e
1d
1`
0a
1b
1e
18
07
16
1a
0f
17
0`
06
#400000
1(
1N
1t
0u
1(!
0!!
1+!
0g!
1,!
0)!
03!
0~
0#!
14!
0*!
0-!
15!
0&!
0'!
16!
0/!
00!
18!
19!
0d
0b
0e
08
0a
1f
07
1`
16
#480000
0(
1'
0N
1M
1r
0t
1u
0(!
1!!
0+!
1)!
0,!
01!
02!
1:!
1*!
1,!
11!
0)!
1~
1#!
0*!
12!
0:!
1-!
1;!
1/!
0;!
0-!
1&!
1'!
0/!
10!
00!
1e
1d
1a
1b
0e
18
17
0a
07
#560000
1(
1N
1t
0u
1(!
0!!
1+!
0,!
01!
1)!
0~
0#!
1*!
02!
1:!
1;!
1-!
0&!
0'!
1/!
10!
0d
0b
1e
08
1a
17
#640000
0(
0'
0&
1%
0N
0M
0L
1K
1{
0z
0r
0t
1u
0(!
1!!
0+!
0)!
1,!
11!
1g!
12!
0:!
04!
0;!
0G!
1=!
1>!
1H!
05!
1;!
1G!
02!
0*!
0,!
1)!
13!
1~
1#!
14!
0<!
1*!
0-!
0H!
06!
1?!
1A!
08!
0/!
1-!
0=!
15!
1&!
1'!
16!
0>!
1/!
00!
09!
1B!
10!
0?!
18!
19!
0A!
1g
0f
0e
1d
0B!
1_
0`
0a
1b
1e
18
07
06
15
1a
1f
17
1`
0g
16
0_
05
#720000
1(
1N
1t
0u
1(!
0!!
1+!
0g!
1,!
0)!
03!
0~
0#!
04!
1<!
0*!
0-!
1=!
05!
0&!
0'!
06!
1>!
0/!
00!
1?!
08!
09!
1A!
0d
1B!
0b
0e
08
0a
0f
07
0`
1g
06
1_
15
#800000
0(
1'
0N
1M
1r
0t
1u
0(!
1!!
0+!
1)!
0,!
01!
12!
1*!
1,!
11!
0)!
1~
1#!
0*!
02!
1-!
1/!
0-!
1&!
1'!
0/!
10!
00!
1e
1d
1a
1b
0e
18
17
0a
07
#880000
1(
1N
1t
0u
1(!
0!!
1+!
0,!
01!
1)!
0~
0#!
1*!
12!
1-!
0&!
0'!
1/!
10!
0d
0b
1e
08
1a
17
#960000
0(
0'
1&
0N
0M
1L
1z
0r
0t
1u
0(!
1!!
0+!
0)!
1,!
11!
1g!
02!
1:!
14!
15!
0;!
0G!
12!
0:!
0*!
0,!
1)!
13!
1~
1#!
04!
1*!
0-!
1;!
1G!
1H!
16!
18!
0H!
0/!
1-!
05!
1&!
1'!
06!
1/!
00!
19!
10!
08!
09!
1f
0e
1d
1`
0a
1b
1e
18
07
16
1a
0f
17
0`
06
