componentes/buffer3state/simulation/qsim/buffer3state.msim.vcd
$comment
	File created using the following command:
		vcd file buffer3state.msim.vcd -direction
$end
$date
	Fri Aug 30 10:30:45 2019
$end
$version
	ModelSim Version 10.5b
$end
$timescale
	1ps
$end

$scope module buffer3state_vhd_vec_tst $end
$var wire 1 ! entrada [7] $end
$var wire 1 " entrada [6] $end
$var wire 1 # entrada [5] $end
$var wire 1 $ entrada [4] $end
$var wire 1 % entrada [3] $end
$var wire 1 & entrada [2] $end
$var wire 1 ' entrada [1] $end
$var wire 1 ( entrada [0] $end
$var wire 1 ) hab $end
$var wire 1 * output [7] $end
$var wire 1 + output [6] $end
$var wire 1 , output [5] $end
$var wire 1 - output [4] $end
$var wire 1 . output [3] $end
$var wire 1 / output [2] $end
$var wire 1 0 output [1] $end
$var wire 1 1 output [0] $end

$scope module i1 $end
$var wire 1 2 gnd $end
$var wire 1 3 vcc $end
$var wire 1 4 unknown $end
$var wire 1 5 devoe $end
$var wire 1 6 devclrn $end
$var wire 1 7 devpor $end
$var wire 1 8 ww_devoe $end
$var wire 1 9 ww_devclrn $end
$var wire 1 : ww_devpor $end
$var wire 1 ; ww_entrada [7] $end
$var wire 1 < ww_entrada [6] $end
$var wire 1 = ww_entrada [5] $end
$var wire 1 > ww_entrada [4] $end
$var wire 1 ? ww_entrada [3] $end
$var wire 1 @ ww_entrada [2] $end
$var wire 1 A ww_entrada [1] $end
$var wire 1 B ww_entrada [0] $end
$var wire 1 C ww_hab $end
$var wire 1 D ww_output [7] $end
$var wire 1 E ww_output [6] $end
$var wire 1 F ww_output [5] $end
$var wire 1 G ww_output [4] $end
$var wire 1 H ww_output [3] $end
$var wire 1 I ww_output [2] $end
$var wire 1 J ww_output [1] $end
$var wire 1 K ww_output [0] $end
$var wire 1 L \hab~inputclkctrl_INCLK_bus\ [3] $end
$var wire 1 M \hab~inputclkctrl_INCLK_bus\ [2] $end
$var wire 1 N \hab~inputclkctrl_INCLK_bus\ [1] $end
$var wire 1 O \hab~inputclkctrl_INCLK_bus\ [0] $end
$var wire 1 P \output[0]~output_o\ $end
$var wire 1 Q \output[1]~output_o\ $end
$var wire 1 R \output[2]~output_o\ $end
$var wire 1 S \output[3]~output_o\ $end
$var wire 1 T \output[4]~output_o\ $end
$var wire 1 U \output[5]~output_o\ $end
$var wire 1 V \output[6]~output_o\ $end
$var wire 1 W \output[7]~output_o\ $end
$var wire 1 X \entrada[0]~input_o\ $end
$var wire 1 Y \hab~input_o\ $end
$var wire 1 Z \hab~inputclkctrl_outclk\ $end
$var wire 1 [ \output[0]$latch~combout\ $end
$var wire 1 \ \entrada[1]~input_o\ $end
$var wire 1 ] \output[1]$latch~combout\ $end
$var wire 1 ^ \entrada[2]~input_o\ $end
$var wire 1 _ \output[2]$latch~combout\ $end
$var wire 1 ` \entrada[3]~input_o\ $end
$var wire 1 a \output[3]$latch~combout\ $end
$var wire 1 b \entrada[4]~input_o\ $end
$var wire 1 c \output[4]$latch~combout\ $end
$var wire 1 d \entrada[5]~input_o\ $end
$var wire 1 e \output[5]$latch~combout\ $end
$var wire 1 f \entrada[6]~input_o\ $end
$var wire 1 g \output[6]$latch~combout\ $end
$var wire 1 h \entrada[7]~input_o\ $end
$var wire 1 i \output[7]$latch~combout\ $end
$upscope $end
$upscope $end
$enddefinitions $end
#0
$dumpvars
1)
02
13
x4
15
16
17
18
19
1:
1C
1P
1Q
1R
0S
1T
0U
0V
1W
1X
1Y
1Z
1[
1\
1]
1^
1_
0`
0a
1b
1c
0d
0e
0f
0g
1h
1i
1!
0"
0#
1$
0%
1&
1'
1(
1;
0<
0=
1>
0?
1@
1A
1B
1D
0E
0F
1G
0H
1I
1J
1K
1L
1M
1N
1O
1*
0+
0,
1-
0.
1/
10
11
$end
#5000
1#
0$
1%
0(
0B
1?
0>
1=
1d
0b
1`
0X
0[
1a
0c
1e
1U
0T
1S
0P
1F
0G
1H
0K
01
1.
0-
1,
#10000
0#
1$
1(
1"
1B
1>
0=
1<
1f
0d
1b
1X
1[
1c
0e
1g
1V
0U
1T
1P
1E
0F
1G
1K
11
1-
0,
1+
#15000
1#
0(
0"
0%
0&
0'
0B
0A
0@
0?
1=
0<
0f
1d
0`
0^
0\
0X
0[
0]
0_
0a
1e
0g
0V
1U
0S
0R
0Q
0P
0E
1F
0H
0I
0J
0K
01
00
0/
0.
1,
0+
#20000
0#
1%
1'
0$
0!
0)
1A
1?
0>
0=
0;
0C
0Y
0h
0d
0b
1`
1\
0O
1]
1a
0c
0e
0i
0Z
0W
0U
0T
1S
1Q
0D
0F
0G
1H
1J
10
1.
0-
0,
0*
#25000
1#
0'
1$
1!
1(
1"
1B
0A
1>
1=
1<
1;
1h
1f
1d
1b
0\
1X
#30000
0(
0"
0%
1&
0B
1@
0?
0<
0f
0`
1^
0X
#35000
1%
0$
0!
1?
0>
0;
0h
0b
1`
#40000
0%
1!
1(
1"
0&
1'
1)
1B
1A
0@
0?
1<
1;
1C
1Y
1h
1f
0`
0^
1\
1X
1O
1Z
1[
0a
1e
1g
1i
1W
1V
1U
0S
1P
1D
1E
1F
0H
1K
11
0.
1,
1+
1*
#45000
0!
0(
1&
0B
1@
0;
0h
1^
0X
0[
1_
0i
0W
1R
0P
0D
1I
0K
01
1/
0*
#50000
1!
0"
0'
0)
0A
0<
1;
0C
0Y
1h
0f
0\
0O
0]
0g
1i
0Z
1W
0V
0Q
1D
0E
0J
00
0+
1*
#55000
1'
0#
1A
0=
0d
1\
#60000
1#
1"
0&
1%
0@
1?
1=
1<
1f
1d
1`
0^
#65000
0%
1(
1B
0?
0`
1X
#70000
1%
0(
0#
0"
0B
1?
0=
0<
0f
0d
1`
0X
#75000
1(
1"
0'
1B
0A
1<
1f
0\
1X
#80000
0%
1#
0?
1=
1d
0`
#85000
1%
0"
1'
1A
1?
0<
0f
1`
1\
#90000
0%
0(
1&
0!
1)
1$
0B
1@
0?
1>
0;
1C
1Y
0h
1b
0`
1^
0X
1O
1Z
1]
1c
0i
0W
1T
1Q
0D
1G
1J
10
1-
0*
#95000
1%
0&
1"
0'
0#
0A
0@
1?
0=
1<
1f
0d
1`
0^
0\
0]
0_
1a
0e
1g
1V
0U
1S
0R
0Q
1E
0F
1H
0I
0J
00
0/
1.
0,
1+
#100000
1'
1#
1(
0$
1B
1A
0>
1=
1d
0b
1\
1X
1[
1]
0c
1e
1U
0T
1Q
1P
1F
0G
1J
1K
11
10
0-
1,
#105000
0'
0#
0%
1&
0A
1@
0?
0=
0d
0`
1^
0\
0]
1_
0a
0e
0U
0S
1R
0Q
0F
0H
1I
0J
00
1/
0.
0,
#110000
1#
0&
0(
1!
0B
0@
1=
1;
1h
1d
0^
0X
0[
0_
1e
1i
1W
1U
0R
0P
1D
1F
0I
0K
01
0/
1,
1*
#115000
0!
1'
1%
1$
1A
1?
1>
0;
0h
1b
1`
1\
1]
1a
1c
0i
0W
1T
1S
1Q
0D
1G
1H
1J
10
1.
1-
0*
#120000
1!
0'
0$
0#
1&
1(
0"
1B
0A
1@
0>
0=
0<
1;
1h
0f
0d
0b
1^
0\
1X
1[
0]
1_
0c
0e
0g
1i
1W
0V
0U
0T
1R
0Q
1P
1D
0E
0F
0G
1I
0J
1K
11
00
1/
0-
0,
0+
1*
#125000
0!
1'
1$
1#
0&
1A
0@
1>
1=
0;
0h
1d
1b
0^
1\
1]
0_
1c
1e
0i
0W
1U
1T
0R
1Q
0D
1F
1G
0I
1J
10
0/
1-
1,
0*
#130000
1!
1&
0(
0%
0)
0B
1@
0?
1;
0C
0Y
1h
0`
1^
0X
0O
0[
1_
0a
1i
0Z
1W
0S
1R
0P
1D
0H
1I
0K
01
1/
0.
1*
#135000
0!
0$
0>
0;
0h
0b
#140000
1!
1$
1%
1"
1?
1>
1<
1;
1h
1f
1b
1`
#145000
0&
1(
0#
1B
0@
0=
0d
0^
1X
#150000
0!
0"
1)
0'
0A
0<
0;
1C
1Y
0h
0f
0\
1O
1Z
1[
0]
0_
1a
0e
0i
0W
0U
1S
0R
0Q
1P
0D
0F
1H
0I
0J
1K
11
00
0/
1.
0,
0*
#155000
1!
1'
1&
0(
1#
0B
1A
1@
1=
1;
1h
1d
1^
1\
0X
0[
1]
1_
1e
1i
1W
1U
1R
1Q
0P
1D
1F
1I
1J
0K
01
10
1/
1,
1*
#160000
0!
0'
1(
0)
1B
0A
0;
0C
0Y
0h
0\
1X
0O
1[
0]
0i
0Z
0W
0Q
1P
0D
0J
1K
11
00
0*
#165000
1'
1"
0$
1A
0>
1<
1f
0b
1\
#170000
1$
0(
1)
0%
0B
0?
1>
1C
1Y
1b
0`
0X
1O
1Z
0[
1]
0a
1g
1V
0S
1Q
0P
1E
0H
1J
0K
01
10
0.
1+
#175000
0$
1%
0"
0&
0#
0@
1?
0>
0=
0<
0f
0d
0b
1`
0^
0_
1a
0c
0e
0g
0V
0U
0T
1S
0R
0E
0F
0G
1H
0I
0/
1.
0-
0,
0+
#180000
1#
1(
1!
1B
1=
1;
1h
1d
1X
1[
1e
1i
1W
1U
1P
1D
1F
1K
11
1,
1*
#185000
0#
0!
1$
1&
1@
1>
0=
0;
0h
0d
1b
1^
1_
1c
0e
0i
0W
0U
1T
1R
0D
0F
1G
1I
1/
1-
0,
0*
#190000
1#
0'
0A
1=
1d
0\
0]
1e
1U
0Q
1F
0J
00
1,
#195000
1'
0&
0(
1"
0B
1A
0@
1<
1f
0^
1\
0X
0[
1]
0_
1g
1V
0R
1Q
0P
1E
0I
1J
0K
01
10
0/
1+
#200000
0'
1(
0#
0$
0)
1B
0A
0>
0=
0C
0Y
0d
0b
0\
1X
0O
1[
0]
0c
0e
0Z
0U
0T
0Q
1P
0F
0G
0J
1K
11
00
0-
0,
#205000
1'
0(
1&
0"
0%
0B
1A
1@
0?
0<
0f
0`
1^
1\
0X
#210000
0'
1(
1%
1)
1!
1B
0A
1?
1;
1C
1Y
1h
1`
0\
1X
1O
1Z
1_
0g
1i
1W
0V
1R
1D
0E
1I
1/
0+
1*
#215000
1'
0(
0%
0&
1#
0B
1A
0@
0?
1=
1d
0`
0^
1\
0X
0[
1]
0_
0a
1e
1U
0S
0R
1Q
0P
1F
0H
0I
1J
0K
01
10
0/
0.
1,
#220000
0'
0#
0)
0!
1"
1$
0A
1>
0=
1<
0;
0C
0Y
0h
1f
0d
1b
0\
0O
0]
1c
0e
1g
0i
0Z
0W
1V
0U
1T
0Q
0D
1E
0F
1G
0J
00
1-
0,
1+
0*
#225000
1'
1#
1!
0$
1(
1%
1B
1A
1?
0>
1=
1;
1h
1d
0b
1`
1\
1X
#230000
1$
0(
1&
0B
1@
1>
1b
1^
0X
#235000
0$
0&
0#
0!
0@
0>
0=
0;
0h
0d
0b
0^
#240000
1$
1#
0'
1)
0"
0A
1>
1=
0<
1C
1Y
0f
1d
1b
0\
1O
1Z
1a
1e
0g
0V
1U
1S
0E
1F
1H
1.
1,
0+
#245000
0$
0#
1'
1!
0%
1A
0?
0>
0=
1;
1h
0d
0b
0`
1\
1]
0a
0c
0e
1i
1W
0U
0T
0S
1Q
1D
0F
0G
0H
1J
10
0.
0-
0,
1*
#250000
0'
0!
1%
0)
1"
0A
1?
1<
0;
0C
0Y
0h
1f
1`
0\
0O
0]
1a
1g
0i
0Z
0W
1V
1S
0Q
0D
1E
1H
0J
00
1.
1+
0*
#255000
1!
1$
1>
1;
1h
1b
#260000
0$
0%
1)
0"
1#
1&
1(
1B
1@
0?
0>
1=
0<
1C
1Y
0f
1d
0b
0`
1^
1X
1O
1Z
1[
1_
0a
1e
0g
1i
1W
0V
1U
0S
1R
1P
1D
0E
1F
0H
1I
1K
11
1/
0.
1,
0+
1*
#265000
1%
0&
0!
0@
1?
0;
0h
1`
0^
0_
1a
0i
0W
1S
0R
0D
1H
0I
0/
1.
0*
#270000
1&
1"
0#
0(
1'
0B
1A
1@
0=
1<
1f
0d
1^
1\
0X
0[
1]
1_
0e
1g
1V
0U
1R
1Q
0P
1E
0F
1I
1J
0K
01
10
1/
0,
1+
#275000
1#
1!
1=
1;
1h
1d
1e
1i
1W
1U
1D
1F
1,
1*
#280000
0#
0!
0&
0"
1(
0%
1B
0@
0?
0=
0<
0;
0h
0f
0d
0`
0^
1X
1[
0_
0a
0e
0g
0i
0W
0V
0U
0S
0R
1P
0D
0E
0F
0H
0I
1K
11
0/
0.
0,
0+
0*
#285000
1#
0'
0A
1=
1d
0\
0]
1e
1U
0Q
1F
0J
00
1,
#290000
1'
1"
0(
1$
0B
1A
1>
1<
1f
1b
1\
0X
0[
1]
1c
1g
1V
1T
1Q
0P
1E
1G
1J
0K
01
10
1-
1+
#295000
0"
1(
0$
1&
1%
1B
1@
1?
0>
0<
0f
0b
1`
1^
1X
1[
1_
1a
0c
0g
0V
0T
1S
1R
1P
0E
0G
1H
1I
1K
11
1/
1.
0-
0+
#300000
1$
0&
0%
0'
0A
0@
0?
1>
1b
0`
0^
0\
0]
0_
0a
1c
1T
0S
0R
0Q
1G
0H
0I
0J
00
0/
0.
1-
#305000
0$
1&
1%
0(
1!
0B
1@
1?
0>
1;
1h
0b
1`
1^
0X
0[
1_
1a
0c
1i
1W
0T
1S
1R
0P
1D
0G
1H
1I
0K
01
1/
1.
0-
1*
#310000
0%
1"
0#
0?
0=
1<
1f
0d
0`
0a
0e
1g
1V
0U
0S
1E
0F
0H
0.
0,
1+
#315000
1%
0"
0!
1?
0<
0;
0h
0f
1`
1a
0g
0i
0W
0V
1S
0D
0E
1H
1.
0+
0*
#320000
1!
1$
1(
0)
1B
1>
1;
0C
0Y
1h
1b
1X
0O
1[
1c
1i
0Z
1W
1T
1P
1D
1G
1K
11
1-
1*
#325000
0!
0$
0(
0%
0B
0?
0>
0;
0h
0b
0`
0X
#330000
1!
1$
1(
1)
1#
0&
1B
0@
1>
1=
1;
1C
1Y
1h
1d
1b
0^
1X
1O
1Z
0_
0a
1e
1U
0S
0R
1F
0H
0I
0/
0.
1,
#335000
0!
0(
0B
0;
0h
0X
0[
0i
0W
0P
0D
0K
01
0*
#340000
1!
1(
0$
0)
0#
1"
1'
1B
1A
0>
0=
1<
1;
0C
0Y
1h
1f
0d
0b
1\
1X
0O
1[
1]
0c
0e
1g
1i
0Z
1W
1V
0U
0T
1Q
1P
1D
1E
0F
0G
1J
1K
11
10
0-
0,
1+
1*
#345000
0!
0(
1$
0"
0B
1>
0<
0;
0h
0f
1b
0X
#350000
1!
1(
0$
1)
1#
1B
0>
1=
1;
1C
1Y
1h
1d
0b
1X
1O
1Z
1e
0g
0V
1U
0E
1F
1,
0+
#355000
0(
1$
0#
0'
1&
1%
0B
0A
1@
1?
1>
0=
0d
1b
1`
1^
0\
0X
0[
0]
1_
1a
1c
0e
0U
1T
1S
1R
0Q
0P
0F
1G
1H
1I
0J
0K
01
00
1/
1.
1-
0,
#360000
1#
0%
0)
1"
0?
1=
1<
0C
0Y
1f
1d
0`
0O
0a
1e
1g
0Z
1V
1U
0S
1E
1F
0H
0.
1,
1+
#365000
0#
1(
0$
0!
1B
0>
0=
0;
0h
0d
0b
1X
#370000
0(
1!
0"
0B
0<
1;
1h
0f
0X
#375000
0!
1"
1#
1$
1%
1'
0&
1A
0@
1?
1>
1=
1<
0;
0h
1f
1d
1b
1`
0^
1\
#380000
0$
0'
1&
0A
1@
0>
0b
1^
0\
#385000
1'
0&
1!
0"
1A
0@
0<
1;
1h
0f
0^
1\
#390000
0'
0#
0%
1(
1)
1B
0A
0?
0=
1C
1Y
0d
0`
0\
1X
1O
1Z
1[
0_
0c
0e
0g
0V
0U
0T
0R
1P
0E
0F
0G
0I
1K
11
0/
0-
0,
0+
#395000
1'
1&
0!
1$
1A
1@
1>
0;
0h
1b
1^
1\
1]
1_
1c
0i
0W
1T
1R
1Q
0D
1G
1I
1J
10
1/
1-
0*
#400000
0'
1%
0(
0)
1"
0B
0A
1?
1<
0C
0Y
1f
1`
0\
0X
0O
0[
0]
1a
1g
0Z
1V
1S
0Q
0P
1E
1H
0J
0K
01
00
1.
1+
#405000
1'
0%
0"
0&
0$
1#
1A
0@
0?
0>
1=
0<
0f
1d
0b
0`
0^
1\
#410000
1"
1&
1$
0#
1(
1B
1@
1>
0=
1<
1f
0d
1b
1^
1X
#415000
0&
0$
0(
0'
1%
1!
0B
0A
0@
1?
0>
1;
1h
0b
1`
0^
0\
0X
#420000
1&
1'
0%
0!
0"
1#
1)
1A
1@
0?
1=
0<
0;
1C
1Y
0h
0f
1d
0`
1^
1\
1O
1Z
1]
0a
0c
1e
0g
0V
1U
0T
0S
1Q
0E
1F
0G
0H
1J
10
0.
0-
1,
0+
#425000
0&
0#
1$
0@
1>
0=
0d
1b
0^
0_
1c
0e
0U
1T
0R
0F
1G
0I
0/
1-
0,
#430000
0$
0'
1!
0A
0>
1;
1h
0b
0\
0]
0c
1i
1W
0T
0Q
1D
0G
0J
00
0-
1*
#435000
1$
0!
1&
1#
1(
1B
1@
1>
1=
0;
0h
1d
1b
1^
1X
1[
1_
1c
1e
0i
0W
1U
1T
1R
1P
0D
1F
1G
1I
1K
11
1/
1-
1,
0*
#440000
0#
1"
0=
1<
1f
0d
0e
1g
1V
0U
1E
0F
0,
1+
#445000
1#
1!
1'
1A
1=
1;
1h
1d
1\
1]
1e
1i
1W
1U
1Q
1D
1F
1J
10
1,
1*
#450000
0!
0(
1%
0)
0B
1?
0;
0C
0Y
0h
1`
0X
0O
0[
1a
0i
0Z
0W
1S
0P
0D
1H
0K
01
1.
0*
#455000
1(
0#
0"
0&
1B
0@
0=
0<
0f
0d
0^
1X
#460000
0(
1"
0'
0B
0A
1<
1f
0\
0X
#465000
0"
1'
1&
0$
1A
1@
0>
0<
0f
0b
1^
1\
#470000
0'
0&
1(
1B
0A
0@
0^
0\
1X
#475000
1'
1&
1$
1!
0%
1A
1@
0?
1>
1;
1h
1b
0`
1^
1\
#480000
0'
0$
1%
1"
0A
1?
0>
1<
1f
0b
1`
0\
#485000
1'
1$
0!
0(
1#
0B
1A
1>
1=
0;
0h
1d
1b
1\
0X
#490000
0$
1(
1B
0>
0b
1X
#495000
0'
1!
0"
0A
0<
1;
1h
0f
0\
#500000
1'
1"
0(
0#
0B
1A
0=
1<
1f
0d
1\
0X
#505000
0"
1(
0!
1$
1B
1>
0<
0;
0h
0f
1b
1X
#510000
0(
0&
0B
0@
0^
0X
#515000
1&
1"
1!
0$
1@
0>
1<
1;
1h
1f
0b
1^
#520000
0!
0'
0A
0;
0h
0\
#525000
1!
1'
0&
1A
0@
1;
1h
0^
1\
#530000
0!
1&
0"
1#
1@
1=
0<
0;
0h
0f
1d
1^
#535000
0&
1$
0%
0@
0?
1>
1b
0`
0^
#540000
0$
1!
1"
0#
0'
1)
0A
0>
0=
1<
1;
1C
1Y
1h
1f
0d
0b
0\
1O
1Z
0]
0_
0a
0c
0e
1i
1W
0U
0T
0S
0R
0Q
1D
0F
0G
0H
0I
0J
00
0/
0.
0-
0,
1*
#545000
1$
0!
0"
1&
1(
1B
1@
1>
0<
0;
0h
0f
1b
1^
1X
1[
1_
1c
0g
0i
0W
0V
1T
1R
1P
0D
0E
1G
1I
1K
11
1/
1-
0+
0*
#550000
0$
1!
1#
1'
0)
1%
1A
1?
0>
1=
1;
0C
0Y
1h
1d
0b
1`
1\
0O
1]
1a
0c
1e
1i
0Z
1W
1U
0T
1S
1Q
1D
1F
0G
1H
1J
10
1.
0-
1,
1*
#555000
1$
0#
0'
1"
0(
0B
0A
1>
0=
1<
1f
0d
1b
0\
0X
#560000
1#
1'
0"
1(
0!
1)
0%
1B
1A
0?
1=
0<
0;
1C
1Y
0h
0f
1d
0`
1\
1X
1O
1Z
0a
1c
0i
0W
1T
0S
0D
1G
0H
0.
1-
0*
#565000
0'
1"
0(
1!
0$
0B
0A
0>
1<
1;
1h
1f
0b
0\
0X
0[
0]
0c
1g
1i
1W
1V
0T
0Q
0P
1D
1E
0G
0J
0K
01
00
0-
1+
1*
#570000
1'
0!
1$
0#
1%
1A
1?
1>
0=
0;
0h
0d
1b
1`
1\
1]
1a
1c
0e
0i
0W
0U
1T
1S
1Q
0D
0F
1G
1H
1J
10
1.
1-
0,
0*
#575000
0'
1(
1B
0A
0\
1X
1[
0]
0Q
1P
0J
1K
11
00
#580000
1!
1#
0"
0)
0&
0@
1=
0<
1;
0C
0Y
1h
0f
1d
0^
0O
0_
1e
0g
1i
0Z
1W
0V
1U
0R
1D
0E
1F
0I
0/
1,
0+
1*
#585000
1'
0(
0$
0%
0B
1A
0?
0>
0b
0`
1\
0X
#590000
0'
1&
0A
1@
1^
0\
#595000
1(
1%
1B
1?
1`
1X
#600000
1$
0!
0#
1"
1)
1>
0=
1<
0;
1C
1Y
0h
1f
0d
1b
1O
1Z
1_
0e
1g
0i
0W
1V
0U
1R
0D
1E
0F
1I
1/
0,
1+
0*
#605000
0$
1#
0"
0%
0?
0>
1=
0<
0f
1d
0b
0`
0a
0c
1e
0g
0V
1U
0T
0S
0E
1F
0G
0H
0.
0-
1,
0+
#610000
1"
0(
1'
0&
0B
1A
0@
1<
1f
0^
1\
0X
0[
1]
0_
1g
1V
0R
1Q
0P
1E
0I
1J
0K
01
10
0/
1+
#615000
1$
1!
1>
1;
1h
1b
1c
1i
1W
1T
1D
1G
1-
1*
#620000
0$
0"
0'
0#
1%
0)
0A
1?
0>
0=
0<
0C
0Y
0f
0d
0b
1`
0\
0O
0]
1a
0c
0e
0g
0Z
0V
0U
0T
1S
0Q
0E
0F
0G
1H
0J
00
1.
0-
0,
0+
#625000
1'
0%
1&
1A
1@
0?
0`
1^
1\
#630000
0'
0&
1$
1#
0!
0A
0@
1>
1=
0;
0h
1d
1b
0^
0\
#635000
1'
1&
0$
1!
1%
1"
1(
1B
1A
1@
1?
0>
1<
1;
1h
1f
0b
1`
1^
1\
1X
#640000
0'
0&
0!
0%
0"
0#
0A
0@
0?
0=
0<
0;
0h
0f
0d
0`
0^
0\
#645000
1'
1"
1$
0(
0B
1A
1>
1<
1f
1b
1\
0X
#650000
1!
1%
1?
1;
1h
1`
#655000
0%
0"
1(
1&
1B
1@
0?
0<
0f
0`
1^
1X
#660000
1%
1"
1#
1)
1?
1=
1<
1C
1Y
1f
1d
1`
1O
1Z
1[
1]
1_
1c
1e
1g
1V
1U
1T
1R
1Q
1P
1E
1F
1G
1I
1J
1K
11
10
1/
1-
1,
1+
#665000
0%
0'
0$
0A
0?
0>
0b
0`
0\
0]
0a
0c
0T
0S
0Q
0G
0H
0J
00
0.
0-
#670000
1%
1$
0#
0)
0(
0!
0B
1?
1>
0=
0;
0C
0Y
0h
0d
1b
1`
0X
0O
0[
1a
1c
0e
0i
0Z
0W
0U
1T
1S
0P
0D
0F
1G
1H
0K
01
1.
1-
0,
0*
#675000
0%
0$
1#
1!
1'
0"
0&
1A
0@
0?
0>
1=
0<
1;
1h
0f
1d
0b
0`
0^
1\
#680000
1$
0!
0'
1"
1&
1)
1(
1B
0A
1@
1>
1<
0;
1C
1Y
0h
1f
1b
1^
0\
1X
1O
1Z
1[
0a
1e
1U
0S
1P
1F
0H
1K
11
0.
1,
#685000
0$
1'
0(
0B
1A
0>
0b
1\
0X
0[
1]
0c
0T
1Q
0P
0G
1J
0K
01
10
0-
#690000
0'
0#
0A
0=
0d
0\
0]
0e
0U
0Q
0F
0J
00
0,
#695000
1'
1(
1%
1B
1A
1?
1`
1\
1X
1[
1]
1a
1S
1Q
1P
1H
1J
1K
11
10
1.
#700000
0'
0(
0%
1#
1$
0B
0A
0?
1>
1=
1d
1b
0`
0\
0X
0[
0]
0a
1c
1e
1U
1T
0S
0Q
0P
1F
1G
0H
0J
0K
01
00
0.
1-
1,
#705000
1'
1!
0"
1A
0<
1;
1h
0f
1\
1]
0g
1i
1W
0V
1Q
1D
0E
1J
10
0+
1*
#710000
0!
1%
1?
0;
0h
1`
1a
0i
0W
1S
0D
1H
1.
0*
#715000
0%
1(
0#
0$
0&
1B
0@
0?
0>
0=
0d
0b
0`
0^
1X
1[
0_
0a
0c
0e
0U
0T
0S
0R
1P
0F
0G
0H
0I
1K
11
0/
0.
0-
0,
#720000
0(
1#
1&
0)
0B
1@
1=
0C
0Y
1d
1^
0X
0O
0[
1_
1e
0Z
1U
1R
0P
1F
1I
0K
01
1/
1,
#725000
0&
1%
1$
1"
0@
1?
1>
1<
1f
1b
1`
0^
#730000
1&
0$
0#
1)
1@
0>
0=
1C
1Y
0d
0b
1^
1O
1Z
1a
0e
1g
1V
0U
1S
1E
0F
1H
1.
0,
1+
#735000
1#
1(
0'
1B
0A
1=
1d
0\
1X
1[
0]
1e
1U
0Q
1P
1F
0J
1K
11
00
1,
#740000
0#
0(
1'
1$
0"
0B
1A
1>
0=
0<
0f
0d
1b
1\
0X
0[
1]
1c
0e
0g
0V
0U
1T
1Q
0P
0E
0F
1G
1J
0K
01
10
1-
0,
0+
#745000
0$
1"
0%
1!
0?
0>
1<
1;
1h
1f
0b
0`
0a
0c
1g
1i
1W
1V
0T
0S
1D
1E
0G
0H
0.
0-
1+
1*
#750000
1$
0"
1#
1>
1=
0<
0f
1d
1b
1c
1e
0g
0V
1U
1T
0E
1F
1G
1-
1,
0+
#755000
0'
0A
0\
0]
0Q
0J
00
#760000
1'
0$
1%
0&
1A
0@
1?
0>
0b
1`
0^
1\
1]
0_
1a
0c
0T
1S
0R
1Q
0G
1H
0I
1J
10
0/
1.
0-
#765000
0'
0%
1&
1"
0#
0A
1@
0?
0=
1<
1f
0d
0`
1^
0\
0]
1_
0a
0e
1g
1V
0U
0S
1R
0Q
1E
0F
0H
1I
0J
00
1/
0.
0,
1+
#770000
1'
1%
0"
1#
1(
1B
1A
1?
1=
0<
0f
1d
1`
1\
1X
1[
1]
1a
1e
0g
0V
1U
1S
1Q
1P
0E
1F
1H
1J
1K
11
10
1.
1,
0+
#775000
1"
1$
1>
1<
1f
1b
1c
1g
1V
1T
1E
1G
1-
1+
#780000
0'
0&
0!
0)
0A
0@
0;
0C
0Y
0h
0^
0\
0O
0]
0_
0i
0Z
0W
0R
0Q
0D
0I
0J
00
0/
0*
#785000
0%
0?
0`
#790000
1&
1)
0"
0#
0(
0B
1@
0=
0<
1C
1Y
0f
0d
1^
0X
1O
1Z
0[
1_
0a
0e
0g
0V
0U
0S
1R
0P
0E
0F
0H
1I
0K
01
1/
0.
0,
0+
#795000
0&
1"
1#
1'
1A
0@
1=
1<
1f
1d
0^
1\
1]
0_
1e
1g
1V
1U
0R
1Q
1E
1F
0I
1J
10
0/
1,
1+
#800000
0"
0'
0A
0<
0f
0\
0]
0g
0V
0Q
0E
0J
00
0+
#805000
1"
1&
1(
1!
0$
1B
1@
0>
1<
1;
1h
1f
0b
1^
1X
1[
1_
0c
1g
1i
1W
1V
0T
1R
1P
1D
1E
0G
1I
1K
11
1/
0-
1+
1*
#810000
0!
1$
0#
1%
1?
1>
0=
0;
0h
0d
1b
1`
1a
1c
0e
0i
0W
0U
1T
1S
0D
0F
1G
1H
1.
1-
0,
0*
#815000
0$
1#
0"
0(
0B
0>
1=
0<
0f
1d
0b
0X
0[
0c
1e
0g
0V
1U
0T
0P
0E
1F
0G
0K
01
0-
1,
0+
#820000
1$
0%
0&
1'
0)
1A
0@
0?
1>
0C
0Y
1b
0`
0^
1\
0O
1]
0_
0a
1c
0Z
1T
0S
0R
1Q
1G
0H
0I
1J
10
0/
0.
1-
#825000
0$
1%
1&
0'
0#
1(
1!
1B
0A
1@
1?
0>
0=
1;
1h
0d
0b
1`
1^
0\
1X
#830000
1$
0&
0!
0@
1>
0;
0h
1b
0^
#835000
1&
1!
1#
0(
0B
1@
1=
1;
1h
1d
1^
0X
#840000
0!
0$
0>
0;
0h
0b
#845000
0#
0%
1'
1A
0?
0=
0d
0`
1\
#850000
1#
1%
1?
1=
1d
1`
#855000
1$
0&
1(
1B
0@
1>
1b
0^
1X
#860000
0#
0%
0'
1!
0A
0?
0=
1;
1h
0d
0`
0\
#865000
1#
1%
1&
1@
1?
1=
1d
1`
1^
#870000
0%
0$
0(
1)
0B
0?
0>
1C
1Y
0b
0`
0X
1O
1Z
0]
1_
0c
1i
1W
0T
1R
0Q
1D
0G
1I
0J
00
1/
0-
1*
#880000
1%
1$
1(
1'
0!
1"
1B
1A
1?
1>
1<
0;
0h
1f
1b
1`
1\
1X
1[
1]
1a
1c
1g
0i
0W
1V
1T
1S
1Q
1P
0D
1E
1G
1H
1J
1K
11
10
1.
1-
1+
0*
#885000
0%
0'
0"
0A
0?
0<
0f
0`
0\
0]
0a
0g
0V
0S
0Q
0E
0H
0J
00
0.
0+
#890000
1%
1"
0$
0#
0&
0@
1?
0>
0=
1<
1f
0d
0b
1`
0^
0_
1a
0c
0e
1g
1V
0U
0T
1S
0R
1E
0F
0G
1H
0I
0/
1.
0-
0,
1+
#895000
0"
1$
1#
1&
0(
1!
0B
1@
1>
1=
0<
1;
1h
0f
1d
1b
1^
0X
0[
1_
1c
1e
0g
1i
1W
0V
1U
1T
1R
0P
1D
0E
1F
1G
1I
0K
01
1/
1-
1,
0+
1*
#900000
1"
0$
0&
1(
1B
0@
0>
1<
1f
0b
0^
1X
1[
0_
0c
1g
1V
0T
0R
1P
1E
0G
0I
1K
11
0/
0-
1+
#905000
1$
1&
0(
0#
0!
0B
1@
1>
0=
0;
0h
0d
1b
1^
0X
0[
1_
1c
0e
0i
0W
0U
1T
1R
0P
0D
0F
1G
1I
0K
01
1/
1-
0,
0*
#910000
0$
1(
1#
1!
0"
0%
1'
1B
1A
0?
0>
1=
0<
1;
1h
0f
1d
0b
0`
1\
1X
1[
1]
0a
0c
1e
0g
1i
1W
0V
1U
0T
0S
1Q
1P
1D
0E
1F
0G
0H
1J
1K
11
10
0.
0-
1,
0+
1*
