componentes/decodificador-7seg/simulation/qsim/decodificador7seg.msim.vcd
$comment
	File created using the following command:
		vcd file decodificador7seg.msim.vcd -direction
$end
$date
	Wed Aug 28 09:18:54 2019
$end
$version
	ModelSim Version 10.5b
$end
$timescale
	1ps
$end

$scope module decodificador7seg_vhd_vec_tst $end
$var wire 1 ! dadoHex [3] $end
$var wire 1 " dadoHex [2] $end
$var wire 1 # dadoHex [1] $end
$var wire 1 $ dadoHex [0] $end
$var wire 1 % hab $end
$var wire 1 & saida7seg [6] $end
$var wire 1 ' saida7seg [5] $end
$var wire 1 ( saida7seg [4] $end
$var wire 1 ) saida7seg [3] $end
$var wire 1 * saida7seg [2] $end
$var wire 1 + saida7seg [1] $end
$var wire 1 , saida7seg [0] $end

$scope module i1 $end
$var wire 1 - gnd $end
$var wire 1 . vcc $end
$var wire 1 / unknown $end
$var wire 1 0 devoe $end
$var wire 1 1 devclrn $end
$var wire 1 2 devpor $end
$var wire 1 3 ww_devoe $end
$var wire 1 4 ww_devclrn $end
$var wire 1 5 ww_devpor $end
$var wire 1 6 ww_dadoHex [3] $end
$var wire 1 7 ww_dadoHex [2] $end
$var wire 1 8 ww_dadoHex [1] $end
$var wire 1 9 ww_dadoHex [0] $end
$var wire 1 : ww_hab $end
$var wire 1 ; ww_saida7seg [6] $end
$var wire 1 < ww_saida7seg [5] $end
$var wire 1 = ww_saida7seg [4] $end
$var wire 1 > ww_saida7seg [3] $end
$var wire 1 ? ww_saida7seg [2] $end
$var wire 1 @ ww_saida7seg [1] $end
$var wire 1 A ww_saida7seg [0] $end
$var wire 1 B \saida7seg[0]~output_o\ $end
$var wire 1 C \saida7seg[1]~output_o\ $end
$var wire 1 D \saida7seg[2]~output_o\ $end
$var wire 1 E \saida7seg[3]~output_o\ $end
$var wire 1 F \saida7seg[4]~output_o\ $end
$var wire 1 G \saida7seg[5]~output_o\ $end
$var wire 1 H \saida7seg[6]~output_o\ $end
$var wire 1 I \hab~input_o\ $end
$var wire 1 J \dadoHex[3]~input_o\ $end
$var wire 1 K \dadoHex[1]~input_o\ $end
$var wire 1 L \dadoHex[0]~input_o\ $end
$var wire 1 M \dadoHex[2]~input_o\ $end
$var wire 1 N \rascSaida7seg[0]~0_combout\ $end
$var wire 1 O \rascSaida7seg[0]~1_combout\ $end
$var wire 1 P \rascSaida7seg[1]~3_combout\ $end
$var wire 1 Q \rascSaida7seg[1]~2_combout\ $end
$var wire 1 R \rascSaida7seg[1]~4_combout\ $end
$var wire 1 S \rascSaida7seg[2]~5_combout\ $end
$var wire 1 T \rascSaida7seg[2]~6_combout\ $end
$var wire 1 U \rascSaida7seg[3]~7_combout\ $end
$var wire 1 V \rascSaida7seg[3]~8_combout\ $end
$var wire 1 W \rascSaida7seg[4]~9_combout\ $end
$var wire 1 X \rascSaida7seg[4]~10_combout\ $end
$var wire 1 Y \rascSaida7seg[5]~11_combout\ $end
$var wire 1 Z \rascSaida7seg[5]~12_combout\ $end
$var wire 1 [ \rascSaida7seg[6]~13_combout\ $end
$var wire 1 \ \rascSaida7seg[6]~14_combout\ $end
$upscope $end
$upscope $end
$enddefinitions $end
#0
$dumpvars
1%
0-
1.
x/
10
11
12
13
14
15
1:
0B
0C
0D
0E
0F
0G
1H
1I
0J
0K
0L
0M
0N
0O
0P
0Q
0R
0S
0T
0U
0V
0W
0X
0Y
0Z
1[
1\
0!
0"
0#
0$
1&
0'
0(
0)
0*
0+
0,
06
07
08
09
1;
0<
0=
0>
0?
0@
0A
$end
#10000
1$
19
1L
1N
1U
1W
1Z
1X
1V
1O
1G
1<
1B
1E
1F
1'
1A
1>
1=
1,
1)
1(
#20000
0$
1#
09
18
1K
0L
0Z
0N
1S
0U
0W
1Y
0[
0\
1Z
0X
0V
1T
0O
0G
0<
0B
1D
0E
0F
1G
0H
0'
0A
1?
0>
0=
1<
0;
0,
1*
0)
0(
1'
0&
#30000
1$
19
1L
0S
1W
0Y
0Z
1Z
1X
0T
0G
0<
0D
1F
1G
0'
0?
1=
1<
0*
1(
1'
#40000
0$
0#
1"
09
08
17
1M
0K
0L
0Z
1N
1U
1V
1O
0G
0<
1B
1E
0'
1A
1>
1,
1)
#50000
1$
19
1L
0N
1P
0U
1Y
1Z
0Z
0V
1R
0O
1G
1<
0B
1C
0E
0G
1'
0A
1@
0>
0<
0,
1+
0)
0'
#60000
0$
1#
09
18
1K
0L
1Z
0W
0Y
0Z
0X
1G
1<
0F
0G
1'
0=
0<
0(
0'
#70000
1$
19
1L
0P
1U
1W
1Z
1[
1\
1X
1V
0R
1G
1<
0C
1E
1F
1H
1'
0@
1>
1=
1;
0+
1)
1(
1&
#80000
0$
0#
0"
1!
09
08
07
16
1J
0M
0K
0L
0U
0W
0Z
0[
0\
0X
0V
0G
0<
0E
0F
0H
0'
0>
0=
0;
0)
0(
0&
#90000
1$
19
1L
1W
1X
1F
1=
1(
#100000
0$
1#
09
18
1K
0L
1U
0W
1Y
0X
1V
1E
0F
1>
0=
1)
0(
#110000
1$
19
1L
1N
1P
0U
0Y
1Z
0Z
0V
1R
1O
1G
1<
1B
1C
0E
0G
1'
1A
1@
0>
0<
1,
1+
0)
0'
#120000
0$
0#
1"
09
08
17
1M
0K
0L
0N
0P
1Q
1[
1\
1T
0O
0B
1D
1H
0A
1?
1;
0,
1*
1&
#130000
1$
19
1L
1N
0Q
1Y
0[
0\
1Z
0R
0T
1O
1B
0D
0C
1G
0H
1A
0?
0@
1<
0;
1,
0+
0*
1'
0&
#140000
0$
1#
09
18
1K
0L
0Z
0N
1Q
0Y
1R
1T
0O
0G
0<
0B
1D
1C
0'
0A
1?
1@
0,
1+
1*
#150000
1$
19
1L
1U
1V
1E
1>
1)
#160000
0$
0#
0"
0!
09
08
07
06
0J
0M
0K
0L
0Q
0U
1[
1\
0V
0R
0T
0D
0C
0E
1H
0?
0@
0>
1;
0+
0*
0)
1&
#170000
1$
19
1L
1N
1U
1W
1Z
1X
1V
1O
1G
1<
1B
1E
1F
1'
1A
1>
1=
1,
1)
1(
#180000
0$
1#
09
18
1K
0L
0Z
0N
1S
0U
0W
1Y
0[
0\
1Z
0X
0V
1T
0O
0G
0<
0B
1D
0E
0F
1G
0H
0'
0A
1?
0>
0=
1<
0;
0,
1*
0)
0(
1'
0&
#190000
1$
19
1L
0S
1W
0Y
0Z
1Z
1X
0T
0G
0<
0D
1F
1G
0'
0?
1=
1<
0*
1(
1'
#200000
0$
0#
1"
09
08
17
1M
0K
0L
0Z
1N
1U
1V
1O
0G
0<
1B
1E
0'
1A
1>
1,
1)
#210000
1$
19
1L
0N
1P
0U
1Y
1Z
0Z
0V
1R
0O
1G
1<
0B
1C
0E
0G
1'
0A
1@
0>
0<
0,
1+
0)
0'
#220000
0$
1#
09
18
1K
0L
1Z
0W
0Y
0Z
0X
1G
1<
0F
0G
1'
0=
0<
0(
0'
#230000
1$
19
1L
0P
1U
1W
1Z
1[
1\
1X
1V
0R
1G
1<
0C
1E
1F
1H
1'
0@
1>
1=
1;
0+
1)
1(
1&
#240000
0$
0#
0"
1!
09
08
07
16
1J
0M
0K
0L
0U
0W
0Z
0[
0\
0X
0V
0G
0<
0E
0F
0H
0'
0>
0=
0;
0)
0(
0&
#250000
1$
19
1L
1W
1X
1F
1=
1(
#260000
0$
1#
09
18
1K
0L
1U
0W
1Y
0X
1V
1E
0F
1>
0=
1)
0(
#270000
1$
19
1L
1N
1P
0U
0Y
1Z
0Z
0V
1R
1O
1G
1<
1B
1C
0E
0G
1'
1A
1@
0>
0<
1,
1+
0)
0'
#280000
0$
0#
1"
09
08
17
1M
0K
0L
0N
0P
1Q
1[
1\
1T
0O
0B
1D
1H
0A
1?
1;
0,
1*
1&
#290000
1$
19
1L
1N
0Q
1Y
0[
0\
1Z
0R
0T
1O
1B
0D
0C
1G
0H
1A
0?
0@
1<
0;
1,
0+
0*
1'
0&
#300000
0$
1#
09
18
1K
0L
0Z
0N
1Q
0Y
1R
1T
0O
0G
0<
0B
1D
1C
0'
0A
1?
1@
0,
1+
1*
#310000
1$
19
1L
1U
1V
1E
1>
1)
#320000
0$
0#
0"
0!
09
08
07
06
0J
0M
0K
0L
0Q
0U
1[
1\
0V
0R
0T
0D
0C
0E
1H
0?
0@
0>
1;
0+
0*
0)
1&
#330000
1$
19
1L
1N
1U
1W
1Z
1X
1V
1O
1G
1<
1B
1E
1F
1'
1A
1>
1=
1,
1)
1(
#340000
0$
1#
09
18
1K
0L
0Z
0N
1S
0U
0W
1Y
0[
0\
1Z
0X
0V
1T
0O
0G
0<
0B
1D
0E
0F
1G
0H
0'
0A
1?
0>
0=
1<
0;
0,
1*
0)
0(
1'
0&
#350000
1$
19
1L
0S
1W
0Y
0Z
1Z
1X
0T
0G
0<
0D
1F
1G
0'
0?
1=
1<
0*
1(
1'
#360000
0$
0#
1"
09
08
17
1M
0K
0L
0Z
1N
1U
1V
1O
0G
0<
1B
1E
0'
1A
1>
1,
1)
#370000
1$
19
1L
0N
1P
0U
1Y
1Z
0Z
0V
1R
0O
1G
1<
0B
1C
0E
0G
1'
0A
1@
0>
0<
0,
1+
0)
0'
#380000
0$
1#
09
18
1K
0L
1Z
0W
0Y
0Z
0X
1G
1<
0F
0G
1'
0=
0<
0(
0'
#390000
1$
19
1L
0P
1U
1W
1Z
1[
1\
1X
1V
0R
1G
1<
0C
1E
1F
1H
1'
0@
1>
1=
1;
0+
1)
1(
1&
#400000
0$
0#
0"
1!
09
08
07
16
1J
0M
0K
0L
0U
0W
0Z
0[
0\
0X
0V
0G
0<
0E
0F
0H
0'
0>
0=
0;
0)
0(
0&
#410000
1$
19
1L
1W
1X
1F
1=
1(
#420000
0$
1#
09
18
1K
0L
1U
0W
1Y
0X
1V
1E
0F
1>
0=
1)
0(
#430000
1$
19
1L
1N
1P
0U
0Y
1Z
0Z
0V
1R
1O
1G
1<
1B
1C
0E
0G
1'
1A
1@
0>
0<
1,
1+
0)
0'
#440000
0$
0#
1"
09
08
17
1M
0K
0L
0N
0P
1Q
1[
1\
1T
0O
0B
1D
1H
0A
1?
1;
0,
1*
1&
#450000
1$
19
1L
1N
0Q
1Y
0[
0\
1Z
0R
0T
1O
1B
0D
0C
1G
0H
1A
0?
0@
1<
0;
1,
0+
0*
1'
0&
#460000
0$
1#
09
18
1K
0L
0Z
0N
1Q
0Y
1R
1T
0O
0G
0<
0B
1D
1C
0'
0A
1?
1@
0,
1+
1*
#470000
1$
19
1L
1U
1V
1E
1>
1)
#480000
0$
0#
0"
0!
09
08
07
06
0J
0M
0K
0L
0Q
0U
1[
1\
0V
0R
0T
0D
0C
0E
1H
0?
0@
0>
1;
0+
0*
0)
1&
#490000
1$
19
1L
1N
1U
1W
1Z
1X
1V
1O
1G
1<
1B
1E
1F
1'
1A
1>
1=
1,
1)
1(
#500000
0$
1#
09
18
1K
0L
0Z
0N
1S
0U
0W
1Y
0[
0\
1Z
0X
0V
1T
0O
0G
0<
0B
1D
0E
0F
1G
0H
0'
0A
1?
0>
0=
1<
0;
0,
1*
0)
0(
1'
0&
#510000
1$
19
1L
0S
1W
0Y
0Z
1Z
1X
0T
0G
0<
0D
1F
1G
0'
0?
1=
1<
0*
1(
1'
#520000
0$
0#
1"
09
08
17
1M
0K
0L
0Z
1N
1U
1V
1O
0G
0<
1B
1E
0'
1A
1>
1,
1)
#530000
1$
19
1L
0N
1P
0U
1Y
1Z
0Z
0V
1R
0O
1G
1<
0B
1C
0E
0G
1'
0A
1@
0>
0<
0,
1+
0)
0'
#540000
0$
1#
09
18
1K
0L
1Z
0W
0Y
0Z
0X
1G
1<
0F
0G
1'
0=
0<
0(
0'
#550000
1$
19
1L
0P
1U
1W
1Z
1[
1\
1X
1V
0R
1G
1<
0C
1E
1F
1H
1'
0@
1>
1=
1;
0+
1)
1(
1&
#560000
0$
0#
0"
1!
09
08
07
16
1J
0M
0K
0L
0U
0W
0Z
0[
0\
0X
0V
0G
0<
0E
0F
0H
0'
0>
0=
0;
0)
0(
0&
#570000
1$
19
1L
1W
1X
1F
1=
1(
#580000
0$
1#
09
18
1K
0L
1U
0W
1Y
0X
1V
1E
0F
1>
0=
1)
0(
#590000
1$
19
1L
1N
1P
0U
0Y
1Z
0Z
0V
1R
1O
1G
1<
1B
1C
0E
0G
1'
1A
1@
0>
0<
1,
1+
0)
0'
#600000
0$
0#
1"
09
08
17
1M
0K
0L
0N
0P
1Q
1[
1\
1T
0O
0B
1D
1H
0A
1?
1;
0,
1*
1&
#610000
1$
19
1L
1N
0Q
1Y
0[
0\
1Z
0R
0T
1O
1B
0D
0C
1G
0H
1A
0?
0@
1<
0;
1,
0+
0*
1'
0&
#620000
0$
1#
09
18
1K
0L
0Z
0N
1Q
0Y
1R
1T
0O
0G
0<
0B
1D
1C
0'
0A
1?
1@
0,
1+
1*
#630000
1$
19
1L
1U
1V
1E
1>
1)
#640000
0$
0#
0"
0!
09
08
07
06
0J
0M
0K
0L
0Q
0U
1[
1\
0V
0R
0T
0D
0C
0E
1H
0?
0@
0>
1;
0+
0*
0)
1&
#650000
1$
19
1L
1N
1U
1W
1Z
1X
1V
1O
1G
1<
1B
1E
1F
1'
1A
1>
1=
1,
1)
1(
#660000
0$
1#
09
18
1K
0L
0Z
0N
1S
0U
0W
1Y
0[
0\
1Z
0X
0V
1T
0O
0G
0<
0B
1D
0E
0F
1G
0H
0'
0A
1?
0>
0=
1<
0;
0,
1*
0)
0(
1'
0&
#670000
1$
19
1L
0S
1W
0Y
0Z
1Z
1X
0T
0G
0<
0D
1F
1G
0'
0?
1=
1<
0*
1(
1'
#680000
0$
0#
1"
09
08
17
1M
0K
0L
0Z
1N
1U
1V
1O
0G
0<
1B
1E
0'
1A
1>
1,
1)
#690000
1$
19
1L
0N
1P
0U
1Y
1Z
0Z
0V
1R
0O
1G
1<
0B
1C
0E
0G
1'
0A
1@
0>
0<
0,
1+
0)
0'
#700000
0$
1#
09
18
1K
0L
1Z
0W
0Y
0Z
0X
1G
1<
0F
0G
1'
0=
0<
0(
0'
#710000
1$
19
1L
0P
1U
1W
1Z
1[
1\
1X
1V
0R
1G
1<
0C
1E
1F
1H
1'
0@
1>
1=
1;
0+
1)
1(
1&
#720000
0$
0#
0"
1!
09
08
07
16
1J
0M
0K
0L
0U
0W
0Z
0[
0\
0X
0V
0G
0<
0E
0F
0H
0'
0>
0=
0;
0)
0(
0&
#730000
1$
19
1L
1W
1X
1F
1=
1(
#740000
0$
1#
09
18
1K
0L
1U
0W
1Y
0X
1V
1E
0F
1>
0=
1)
0(
#750000
1$
19
1L
1N
1P
0U
0Y
1Z
0Z
0V
1R
1O
1G
1<
1B
1C
0E
0G
1'
1A
1@
0>
0<
1,
1+
0)
0'
#760000
0$
0#
1"
09
08
17
1M
0K
0L
0N
0P
1Q
1[
1\
1T
0O
0B
1D
1H
0A
1?
1;
0,
1*
1&
#770000
1$
19
1L
1N
0Q
1Y
0[
0\
1Z
0R
0T
1O
1B
0D
0C
1G
0H
1A
0?
0@
1<
0;
1,
0+
0*
1'
0&
#780000
0$
1#
09
18
1K
0L
0Z
0N
1Q
0Y
1R
1T
0O
0G
0<
0B
1D
1C
0'
0A
1?
1@
0,
1+
1*
#790000
1$
19
1L
1U
1V
1E
1>
1)
#800000
0$
0#
0"
0!
09
08
07
06
0J
0M
0K
0L
0Q
0U
1[
1\
0V
0R
0T
0D
0C
0E
1H
0?
0@
0>
1;
0+
0*
0)
1&
#810000
1$
19
1L
1N
1U
1W
1Z
1X
1V
1O
1G
1<
1B
1E
1F
1'
1A
1>
1=
1,
1)
1(
#820000
0$
1#
09
18
1K
0L
0Z
0N
1S
0U
0W
1Y
0[
0\
1Z
0X
0V
1T
0O
0G
0<
0B
1D
0E
0F
1G
0H
0'
0A
1?
0>
0=
1<
0;
0,
1*
0)
0(
1'
0&
#830000
1$
19
1L
0S
1W
0Y
0Z
1Z
1X
0T
0G
0<
0D
1F
1G
0'
0?
1=
1<
0*
1(
1'
#840000
0$
0#
1"
09
08
17
1M
0K
0L
0Z
1N
1U
1V
1O
0G
0<
1B
1E
0'
1A
1>
1,
1)
#850000
1$
19
1L
0N
1P
0U
1Y
1Z
0Z
0V
1R
0O
1G
1<
0B
1C
0E
0G
1'
0A
1@
0>
0<
0,
1+
0)
0'
#860000
0$
1#
09
18
1K
0L
1Z
0W
0Y
0Z
0X
1G
1<
0F
0G
1'
0=
0<
0(
0'
#870000
1$
19
1L
0P
1U
1W
1Z
1[
1\
1X
1V
0R
1G
1<
0C
1E
1F
1H
1'
0@
1>
1=
1;
0+
1)
1(
1&
#880000
0$
0#
0"
1!
09
08
07
16
1J
0M
0K
0L
0U
0W
0Z
0[
0\
0X
0V
0G
0<
0E
0F
0H
0'
0>
0=
0;
0)
0(
0&
#890000
1$
19
1L
1W
1X
1F
1=
1(
#900000
0$
1#
09
18
1K
0L
1U
0W
1Y
0X
1V
1E
0F
1>
0=
1)
0(
#910000
1$
19
1L
1N
1P
0U
0Y
1Z
0Z
0V
1R
1O
1G
1<
1B
1C
0E
0G
1'
1A
1@
0>
0<
1,
1+
0)
0'
#920000
0$
0#
1"
09
08
17
1M
0K
0L
0N
0P
1Q
1[
1\
1T
0O
0B
1D
1H
0A
1?
1;
0,
1*
1&
#930000
1$
19
1L
1N
0Q
1Y
0[
0\
1Z
0R
0T
1O
1B
0D
0C
1G
0H
1A
0?
0@
1<
0;
1,
0+
0*
1'
0&
#940000
0$
1#
09
18
1K
0L
0Z
0N
1Q
0Y
1R
1T
0O
0G
0<
0B
1D
1C
0'
0A
1?
1@
0,
1+
1*
#950000
1$
19
1L
1U
1V
1E
1>
1)
#960000
0$
0#
0"
0!
09
08
07
06
0J
0M
0K
0L
0Q
0U
1[
1\
0V
0R
0T
0D
0C
0E
1H
0?
0@
0>
1;
0+
0*
0)
1&
#970000
1$
19
1L
1N
1U
1W
1Z
1X
1V
1O
1G
1<
1B
1E
1F
1'
1A
1>
1=
1,
1)
1(
#980000
0$
1#
09
18
1K
0L
0Z
0N
1S
0U
0W
1Y
0[
0\
1Z
0X
0V
1T
0O
0G
0<
0B
1D
0E
0F
1G
0H
0'
0A
1?
0>
0=
1<
0;
0,
1*
0)
0(
1'
0&
#990000
1$
19
1L
0S
1W
0Y
0Z
1Z
1X
0T
0G
0<
0D
1F
1G
0'
0?
1=
1<
0*
1(
1'
