Relogio/Lixo/componentes/rom/simulation/qsim/rom.msim.vcd
$comment
	File created using the following command:
		vcd file rom.msim.vcd -direction
$end
$date
	Fri Oct 04 15:26:24 2019
$end
$version
	ModelSim Version 10.5b
$end
$timescale
	1ps
$end

$scope module rom_vhd_vec_tst $end
$var wire 1 ! addr [7] $end
$var wire 1 " addr [6] $end
$var wire 1 # addr [5] $end
$var wire 1 $ addr [4] $end
$var wire 1 % addr [3] $end
$var wire 1 & addr [2] $end
$var wire 1 ' addr [1] $end
$var wire 1 ( addr [0] $end
$var wire 1 ) clk $end
$var wire 1 * q [15] $end
$var wire 1 + q [14] $end
$var wire 1 , q [13] $end
$var wire 1 - q [12] $end
$var wire 1 . q [11] $end
$var wire 1 / q [10] $end
$var wire 1 0 q [9] $end
$var wire 1 1 q [8] $end
$var wire 1 2 q [7] $end
$var wire 1 3 q [6] $end
$var wire 1 4 q [5] $end
$var wire 1 5 q [4] $end
$var wire 1 6 q [3] $end
$var wire 1 7 q [2] $end
$var wire 1 8 q [1] $end
$var wire 1 9 q [0] $end

$scope module i1 $end
$var wire 1 : gnd $end
$var wire 1 ; vcc $end
$var wire 1 < unknown $end
$var wire 1 = devoe $end
$var wire 1 > devclrn $end
$var wire 1 ? devpor $end
$var wire 1 @ ww_devoe $end
$var wire 1 A ww_devclrn $end
$var wire 1 B ww_devpor $end
$var wire 1 C ww_clk $end
$var wire 1 D ww_addr [7] $end
$var wire 1 E ww_addr [6] $end
$var wire 1 F ww_addr [5] $end
$var wire 1 G ww_addr [4] $end
$var wire 1 H ww_addr [3] $end
$var wire 1 I ww_addr [2] $end
$var wire 1 J ww_addr [1] $end
$var wire 1 K ww_addr [0] $end
$var wire 1 L ww_q [15] $end
$var wire 1 M ww_q [14] $end
$var wire 1 N ww_q [13] $end
$var wire 1 O ww_q [12] $end
$var wire 1 P ww_q [11] $end
$var wire 1 Q ww_q [10] $end
$var wire 1 R ww_q [9] $end
$var wire 1 S ww_q [8] $end
$var wire 1 T ww_q [7] $end
$var wire 1 U ww_q [6] $end
$var wire 1 V ww_q [5] $end
$var wire 1 W ww_q [4] $end
$var wire 1 X ww_q [3] $end
$var wire 1 Y ww_q [2] $end
$var wire 1 Z ww_q [1] $end
$var wire 1 [ ww_q [0] $end
$var wire 1 \ \content_rtl_0|auto_generated|ram_block1a0_PORTAADDR_bus\ [7] $end
$var wire 1 ] \content_rtl_0|auto_generated|ram_block1a0_PORTAADDR_bus\ [6] $end
$var wire 1 ^ \content_rtl_0|auto_generated|ram_block1a0_PORTAADDR_bus\ [5] $end
$var wire 1 _ \content_rtl_0|auto_generated|ram_block1a0_PORTAADDR_bus\ [4] $end
$var wire 1 ` \content_rtl_0|auto_generated|ram_block1a0_PORTAADDR_bus\ [3] $end
$var wire 1 a \content_rtl_0|auto_generated|ram_block1a0_PORTAADDR_bus\ [2] $end
$var wire 1 b \content_rtl_0|auto_generated|ram_block1a0_PORTAADDR_bus\ [1] $end
$var wire 1 c \content_rtl_0|auto_generated|ram_block1a0_PORTAADDR_bus\ [0] $end
$var wire 1 d \content_rtl_0|auto_generated|ram_block1a0_PORTADATAOUT_bus\ [17] $end
$var wire 1 e \content_rtl_0|auto_generated|ram_block1a0_PORTADATAOUT_bus\ [16] $end
$var wire 1 f \content_rtl_0|auto_generated|ram_block1a0_PORTADATAOUT_bus\ [15] $end
$var wire 1 g \content_rtl_0|auto_generated|ram_block1a0_PORTADATAOUT_bus\ [14] $end
$var wire 1 h \content_rtl_0|auto_generated|ram_block1a0_PORTADATAOUT_bus\ [13] $end
$var wire 1 i \content_rtl_0|auto_generated|ram_block1a0_PORTADATAOUT_bus\ [12] $end
$var wire 1 j \content_rtl_0|auto_generated|ram_block1a0_PORTADATAOUT_bus\ [11] $end
$var wire 1 k \content_rtl_0|auto_generated|ram_block1a0_PORTADATAOUT_bus\ [10] $end
$var wire 1 l \content_rtl_0|auto_generated|ram_block1a0_PORTADATAOUT_bus\ [9] $end
$var wire 1 m \content_rtl_0|auto_generated|ram_block1a0_PORTADATAOUT_bus\ [8] $end
$var wire 1 n \content_rtl_0|auto_generated|ram_block1a0_PORTADATAOUT_bus\ [7] $end
$var wire 1 o \content_rtl_0|auto_generated|ram_block1a0_PORTADATAOUT_bus\ [6] $end
$var wire 1 p \content_rtl_0|auto_generated|ram_block1a0_PORTADATAOUT_bus\ [5] $end
$var wire 1 q \content_rtl_0|auto_generated|ram_block1a0_PORTADATAOUT_bus\ [4] $end
$var wire 1 r \content_rtl_0|auto_generated|ram_block1a0_PORTADATAOUT_bus\ [3] $end
$var wire 1 s \content_rtl_0|auto_generated|ram_block1a0_PORTADATAOUT_bus\ [2] $end
$var wire 1 t \content_rtl_0|auto_generated|ram_block1a0_PORTADATAOUT_bus\ [1] $end
$var wire 1 u \content_rtl_0|auto_generated|ram_block1a0_PORTADATAOUT_bus\ [0] $end
$var wire 1 v \clk~inputclkctrl_INCLK_bus\ [3] $end
$var wire 1 w \clk~inputclkctrl_INCLK_bus\ [2] $end
$var wire 1 x \clk~inputclkctrl_INCLK_bus\ [1] $end
$var wire 1 y \clk~inputclkctrl_INCLK_bus\ [0] $end
$var wire 1 z \q[0]~output_o\ $end
$var wire 1 { \q[1]~output_o\ $end
$var wire 1 | \q[2]~output_o\ $end
$var wire 1 } \q[3]~output_o\ $end
$var wire 1 ~ \q[4]~output_o\ $end
$var wire 1 !! \q[5]~output_o\ $end
$var wire 1 "! \q[6]~output_o\ $end
$var wire 1 #! \q[7]~output_o\ $end
$var wire 1 $! \q[8]~output_o\ $end
$var wire 1 %! \q[9]~output_o\ $end
$var wire 1 &! \q[10]~output_o\ $end
$var wire 1 '! \q[11]~output_o\ $end
$var wire 1 (! \q[12]~output_o\ $end
$var wire 1 )! \q[13]~output_o\ $end
$var wire 1 *! \q[14]~output_o\ $end
$var wire 1 +! \q[15]~output_o\ $end
$var wire 1 ,! \clk~input_o\ $end
$var wire 1 -! \clk~inputclkctrl_outclk\ $end
$var wire 1 .! \addr[0]~input_o\ $end
$var wire 1 /! \addr[1]~input_o\ $end
$var wire 1 0! \addr[2]~input_o\ $end
$var wire 1 1! \addr[3]~input_o\ $end
$var wire 1 2! \addr[4]~input_o\ $end
$var wire 1 3! \addr[5]~input_o\ $end
$var wire 1 4! \addr[6]~input_o\ $end
$var wire 1 5! \addr[7]~input_o\ $end
$var wire 1 6! \content_rtl_0|auto_generated|ram_block1a0~portadataout\ $end
$var wire 1 7! \content_rtl_0|auto_generated|ram_block1a1\ $end
$var wire 1 8! \content_rtl_0|auto_generated|ram_block1a2\ $end
$var wire 1 9! \content_rtl_0|auto_generated|ram_block1a3\ $end
$var wire 1 :! \content_rtl_0|auto_generated|ram_block1a4\ $end
$var wire 1 ;! \content_rtl_0|auto_generated|ram_block1a5\ $end
$var wire 1 <! \content_rtl_0|auto_generated|ram_block1a6\ $end
$var wire 1 =! \content_rtl_0|auto_generated|ram_block1a7\ $end
$var wire 1 >! \content_rtl_0|auto_generated|ram_block1a8\ $end
$var wire 1 ?! \content_rtl_0|auto_generated|ram_block1a9\ $end
$var wire 1 @! \content_rtl_0|auto_generated|ram_block1a10\ $end
$var wire 1 A! \content_rtl_0|auto_generated|ram_block1a11\ $end
$var wire 1 B! \content_rtl_0|auto_generated|ram_block1a12\ $end
$var wire 1 C! \content_rtl_0|auto_generated|ram_block1a13\ $end
$var wire 1 D! \content_rtl_0|auto_generated|ram_block1a14\ $end
$var wire 1 E! \content_rtl_0|auto_generated|ram_block1a15\ $end
$upscope $end
$upscope $end
$enddefinitions $end
#0
$dumpvars
0)
0:
1;
x<
1=
1>
1?
1@
1A
1B
0C
0z
0{
0|
0}
0~
0!!
0"!
0#!
0$!
0%!
0&!
0'!
0(!
0)!
0*!
0+!
0,!
0-!
0.!
0/!
00!
01!
02!
03!
04!
05!
06!
07!
08!
09!
0:!
0;!
0<!
0=!
0>!
0?!
0@!
0A!
0B!
0C!
0D!
0E!
0!
0"
0#
0$
0%
0&
0'
0(
0*
0+
0,
0-
0.
0/
00
01
02
03
04
05
06
07
08
09
0D
0E
0F
0G
0H
0I
0J
0K
0L
0M
0N
0O
0P
0Q
0R
0S
0T
0U
0V
0W
0X
0Y
0Z
0[
0d
0e
0f
0g
0h
0i
0j
0k
0l
0m
0n
0o
0p
0q
0r
0s
0t
0u
1v
1w
1x
0y
0\
0]
0^
0_
0`
0a
0b
0c
$end
#5000
1)
1C
1,!
1y
1-!
#5500
1p
1o
1;!
1<!
1"!
1!!
1U
1V
14
13
#10000
0)
1(
0C
1K
1.!
0,!
1c
0y
0-!
#15000
1)
1C
1,!
1y
1-!
#15500
0o
1n
1i
0<!
1=!
1B!
1(!
1#!
0"!
1O
1T
0U
03
12
1-
#20000
0)
0(
1'
0C
0K
1J
1/!
0.!
0,!
0c
1b
0y
0-!
#25000
1)
1C
1,!
1y
1-!
#25500
1r
1o
0n
0i
1h
19!
1<!
0=!
0B!
1C!
1)!
0(!
0#!
1"!
1}
1N
0O
0T
1U
1X
16
13
02
0-
1,
#30000
0)
1(
0C
1K
1.!
0,!
1c
0y
0-!
#35000
1)
1C
1,!
1y
1-!
#35500
0r
0p
1n
1l
1i
09!
0;!
1=!
1?!
1B!
1(!
1%!
1#!
0!!
0}
1O
1R
1T
0V
0X
06
04
12
10
1-
#40000
0)
0(
0'
1&
0C
0K
0J
1I
10!
0/!
0.!
0,!
0c
0b
1a
0y
0-!
#45000
1)
1C
1,!
1y
1-!
#45500
0o
0n
0l
0i
0h
1g
0<!
0=!
0?!
0B!
0C!
1D!
1*!
0)!
0(!
0%!
0#!
0"!
1M
0N
0O
0R
0T
0U
03
02
00
0-
0,
1+
#50000
0)
1(
0C
1K
1.!
0,!
1c
0y
0-!
#55000
1)
1C
1,!
1y
1-!
#55500
1i
1B!
1(!
1O
1-
#60000
0)
0(
1'
0C
0K
1J
1/!
0.!
0,!
0c
1b
0y
0-!
#65000
1)
1C
1,!
1y
1-!
#65500
1t
1r
0i
1h
0g
17!
19!
0B!
1C!
0D!
0*!
1)!
0(!
1}
1{
0M
1N
0O
1X
1Z
18
16
0-
1,
0+
#70000
0)
1(
0C
1K
1.!
0,!
1c
0y
0-!
#75000
1)
1C
1,!
1y
1-!
#75500
0t
0r
1p
1o
1l
1i
07!
09!
1;!
1<!
1?!
1B!
1(!
1%!
1"!
1!!
0}
0{
1O
1R
1U
1V
0X
0Z
08
06
14
13
10
1-
#80000
0)
0(
0'
0&
1%
0C
0K
0J
0I
1H
11!
00!
0/!
0.!
0,!
0c
0b
0a
1`
0y
0-!
#85000
1)
1C
1,!
1y
1-!
#85500
0p
0o
0l
1g
0;!
0<!
0?!
1D!
1*!
0%!
0"!
0!!
1M
0R
0U
0V
04
03
00
1+
#90000
0)
1(
0C
1K
1.!
0,!
1c
0y
0-!
#95000
1)
1C
1,!
1y
1-!
#95500
1q
0i
0h
1:!
0B!
0C!
0)!
0(!
1~
0N
0O
1W
15
0-
0,
#100000
0)
0(
1'
0C
0K
1J
1/!
0.!
0,!
0c
1b
0y
0-!
#105000
1)
1C
1,!
1y
1-!
#105500
1i
1B!
1(!
1O
1-
#110000
0)
1(
0C
1K
1.!
0,!
1c
0y
0-!
#115000
1)
1C
1,!
1y
1-!
#115500
1t
1s
0i
1h
0g
17!
18!
0B!
1C!
0D!
0*!
1)!
0(!
1|
1{
0M
1N
0O
1Y
1Z
18
17
0-
1,
0+
#120000
0)
0(
0'
1&
0C
0K
0J
1I
10!
0/!
0.!
0,!
0c
0b
1a
0y
0-!
#125000
1)
1C
1,!
1y
1-!
#125500
0t
0s
0q
1p
1o
1l
1i
07!
08!
0:!
1;!
1<!
1?!
1B!
1(!
1%!
1"!
1!!
0~
0|
0{
1O
1R
1U
1V
0W
0Y
0Z
08
07
05
14
13
10
1-
#130000
0)
1(
0C
1K
1.!
0,!
1c
0y
0-!
#135000
1)
1C
1,!
1y
1-!
#135500
1q
0p
0o
0l
1g
1:!
0;!
0<!
0?!
1D!
1*!
0%!
0"!
0!!
1~
1M
0R
0U
0V
1W
15
04
03
00
1+
#140000
0)
0(
1'
0C
0K
1J
1/!
0.!
0,!
0c
1b
0y
0-!
#145000
1)
1C
1,!
1y
1-!
#145500
0q
1p
0i
0h
0:!
1;!
0B!
0C!
0)!
0(!
1!!
0~
0N
0O
1V
0W
05
14
0-
0,
#150000
0)
1(
0C
1K
1.!
0,!
1c
0y
0-!
#155000
1)
1C
1,!
1y
1-!
#155500
1i
1B!
1(!
1O
1-
#160000
0)
0(
0'
0&
0%
1$
0C
0K
0J
0I
0H
1G
12!
01!
00!
0/!
0.!
0,!
0c
0b
0a
0`
1_
0y
0-!
#165000
1)
1C
1,!
1y
1-!
#165500
1t
1r
0i
1h
0g
17!
19!
0B!
1C!
0D!
0*!
1)!
0(!
1}
1{
0M
1N
0O
1X
1Z
18
16
0-
1,
0+
#170000
0)
1(
0C
1K
1.!
0,!
1c
0y
0-!
#175000
1)
1C
1,!
1y
1-!
#175500
0t
0r
1o
1l
1i
07!
09!
1<!
1?!
1B!
1(!
1%!
1"!
0}
0{
1O
1R
1U
0X
0Z
08
06
13
10
1-
#180000
0)
0(
1'
0C
0K
1J
1/!
0.!
0,!
0c
1b
0y
0-!
#185000
1)
1C
1,!
1y
1-!
#185500
0o
0l
1g
0<!
0?!
1D!
1*!
0%!
0"!
1M
0R
0U
03
00
1+
#190000
0)
1(
0C
1K
1.!
0,!
1c
0y
0-!
#195000
1)
1C
1,!
1y
1-!
#195500
1q
0i
0h
1:!
0B!
0C!
0)!
0(!
1~
0N
0O
1W
15
0-
0,
#200000
0)
0(
0'
1&
0C
0K
0J
1I
10!
0/!
0.!
0,!
0c
0b
1a
0y
0-!
#205000
1)
1C
1,!
1y
1-!
#205500
1i
1B!
1(!
1O
1-
#210000
0)
1(
0C
1K
1.!
0,!
1c
0y
0-!
#215000
1)
1C
1,!
1y
1-!
#215500
1t
1s
0i
1h
0g
17!
18!
0B!
1C!
0D!
0*!
1)!
0(!
1|
1{
0M
1N
0O
1Y
1Z
18
17
0-
1,
0+
#220000
0)
0(
1'
0C
0K
1J
1/!
0.!
0,!
0c
1b
0y
0-!
#225000
1)
1C
1,!
1y
1-!
#225500
0t
0s
0q
1o
1l
1i
07!
08!
0:!
1<!
1?!
1B!
1(!
1%!
1"!
0~
0|
0{
1O
1R
1U
0W
0Y
0Z
08
07
05
13
10
1-
#230000
0)
1(
0C
1K
1.!
0,!
1c
0y
0-!
#235000
1)
1C
1,!
1y
1-!
#235500
1q
0o
0l
1g
1:!
0<!
0?!
1D!
1*!
0%!
0"!
1~
1M
0R
0U
1W
15
03
00
1+
#240000
0)
0(
0'
0&
1%
0C
0K
0J
0I
1H
11!
00!
0/!
0.!
0,!
0c
0b
0a
1`
0y
0-!
#245000
1)
1C
1,!
1y
1-!
#245500
0q
0p
1o
0i
0h
0:!
0;!
1<!
0B!
0C!
0)!
0(!
1"!
0!!
0~
0N
0O
1U
0V
0W
05
04
13
0-
0,
#250000
0)
1(
0C
1K
1.!
0,!
1c
0y
0-!
#255000
1)
1C
1,!
1y
1-!
#255500
1i
1B!
1(!
1O
1-
#260000
0)
0(
1'
0C
0K
1J
1/!
0.!
0,!
0c
1b
0y
0-!
#265000
1)
1C
1,!
1y
1-!
#265500
1s
0i
1h
0g
18!
0B!
1C!
0D!
0*!
1)!
0(!
1|
0M
1N
0O
1Y
17
0-
1,
0+
#270000
0)
1(
0C
1K
1.!
0,!
1c
0y
0-!
#275000
1)
1C
1,!
1y
1-!
#275500
0s
1q
0o
1l
1i
08!
1:!
0<!
1?!
1B!
1(!
1%!
0"!
1~
0|
1O
1R
0U
1W
0Y
07
15
03
10
1-
#280000
0)
0(
0'
1&
0C
0K
0J
1I
10!
0/!
0.!
0,!
0c
0b
1a
0y
0-!
#285000
1)
1C
1,!
1y
1-!
#285500
1t
1o
0l
0i
17!
1<!
0?!
0B!
0(!
0%!
1"!
1{
0O
0R
1U
1Z
18
13
00
0-
#290000
0)
1(
0C
1K
1.!
0,!
1c
0y
0-!
#295000
1)
1C
1,!
1y
1-!
#295500
0t
0q
1p
1l
1i
07!
0:!
1;!
1?!
1B!
1(!
1%!
1!!
0~
0{
1O
1R
1V
0W
0Z
08
05
14
10
1-
#300000
0)
0(
1'
0C
0K
1J
1/!
0.!
0,!
0c
1b
0y
0-!
#305000
1)
1C
1,!
1y
1-!
#305500
0p
0l
1g
0;!
0?!
1D!
1*!
0%!
0!!
1M
0R
0V
04
00
1+
#310000
0)
1(
0C
1K
1.!
0,!
1c
0y
0-!
#315000
1)
1C
1,!
1y
1-!
#315500
1q
1:!
1~
1W
15
#320000
0)
0(
0'
0&
0%
0$
1#
0C
0K
0J
0I
0H
0G
1F
13!
02!
01!
00!
0/!
0.!
0,!
0c
0b
0a
0`
0_
1^
0y
0-!
#325000
1)
1C
1,!
1y
1-!
#325500
0q
1p
1l
0i
0h
0g
1f
0:!
1;!
1?!
0B!
0C!
0D!
1E!
1+!
0*!
0)!
0(!
1%!
1!!
0~
1L
0M
0N
0O
1R
1V
0W
05
14
10
0-
0,
0+
1*
#330000
0)
1(
0C
1K
1.!
0,!
1c
0y
0-!
#335000
1)
1C
1,!
1y
1-!
#335500
1t
1r
0p
0l
1h
0f
17!
19!
0;!
0?!
1C!
0E!
0+!
1)!
0%!
0!!
1}
1{
0L
1N
0R
0V
1X
1Z
18
16
04
00
1,
0*
#340000
0)
0(
1'
0C
0K
1J
1/!
0.!
0,!
0c
1b
0y
0-!
#345000
1)
1C
1,!
1y
1-!
#345500
0t
0r
1p
1l
1i
07!
09!
1;!
1?!
1B!
1(!
1%!
1!!
0}
0{
1O
1R
1V
0X
0Z
08
06
14
10
1-
#350000
0)
1(
0C
1K
1.!
0,!
1c
0y
0-!
#355000
1)
1C
1,!
1y
1-!
#355500
0p
0l
1g
0;!
0?!
1D!
1*!
0%!
0!!
1M
0R
0V
04
00
1+
#360000
0)
0(
0'
1&
0C
0K
0J
1I
10!
0/!
0.!
0,!
0c
0b
1a
0y
0-!
#365000
1)
1C
1,!
1y
1-!
#365500
1q
0i
0h
1:!
0B!
0C!
0)!
0(!
1~
0N
0O
1W
15
0-
0,
#370000
0)
1(
0C
1K
1.!
0,!
1c
0y
0-!
#375000
1)
1C
1,!
1y
1-!
#375500
1i
1B!
1(!
1O
1-
#380000
0)
0(
1'
0C
0K
1J
1/!
0.!
0,!
0c
1b
0y
0-!
#385000
1)
1C
1,!
1y
1-!
#385500
1u
0q
0o
0i
1h
16!
0:!
0<!
0B!
1C!
1)!
0(!
0"!
0~
1z
1N
0O
0U
0W
1[
19
05
03
0-
1,
#390000
0)
1(
0C
1K
1.!
0,!
1c
0y
0-!
#395000
1)
1C
1,!
1y
1-!
#395500
0u
1t
1q
06!
17!
1:!
1~
1{
0z
1W
1Z
0[
09
18
15
#400000
0)
0(
0'
0&
1%
0C
0K
0J
0I
1H
11!
00!
0/!
0.!
0,!
0c
0b
0a
1`
0y
0-!
#405000
1)
1C
1,!
1y
1-!
#405500
1u
0q
1p
16!
0:!
1;!
1!!
0~
1z
1V
0W
1[
19
05
14
#410000
0)
1(
0C
1K
1.!
0,!
1c
0y
0-!
#415000
1)
1C
1,!
1y
1-!
#415500
0u
0t
1s
1q
06!
07!
18!
1:!
1~
1|
0{
0z
1W
1Y
0Z
0[
09
08
17
15
#420000
0)
0(
1'
0C
0K
1J
1/!
0.!
0,!
0c
1b
0y
0-!
#425000
1)
1C
1,!
1y
1-!
#425500
1u
0q
0p
1o
16!
0:!
0;!
1<!
1"!
0!!
0~
1z
1U
0V
0W
1[
19
05
04
13
#430000
0)
1(
0C
1K
1.!
0,!
1c
0y
0-!
#435000
1)
1C
1,!
1y
1-!
#435500
0u
1t
1q
06!
17!
1:!
1~
1{
0z
1W
1Z
0[
09
18
15
#440000
0)
0(
0'
1&
0C
0K
0J
1I
10!
0/!
0.!
0,!
0c
0b
1a
0y
0-!
#445000
1)
1C
1,!
1y
1-!
#445500
1u
0q
1p
0h
0g
16!
0:!
1;!
0C!
0D!
0*!
0)!
1!!
0~
1z
0M
0N
1V
0W
1[
19
05
14
0,
0+
#450000
0)
1(
0C
1K
1.!
0,!
1c
0y
0-!
#455000
1)
1C
1,!
1y
1-!
#455500
0u
0t
0s
1q
0o
1n
1i
06!
07!
08!
1:!
0<!
1=!
1B!
1(!
1#!
0"!
1~
0|
0{
0z
1O
1T
0U
1W
0Y
0Z
0[
09
08
07
15
03
12
1-
#460000
0)
0(
1'
0C
0K
1J
1/!
0.!
0,!
0c
1b
0y
0-!
#465000
1)
1C
1,!
1y
1-!
#465500
1s
0q
1o
0n
0i
1h
18!
0:!
1<!
0=!
0B!
1C!
1)!
0(!
0#!
1"!
0~
1|
1N
0O
0T
1U
0W
1Y
17
05
13
02
0-
1,
#470000
0)
1(
0C
1K
1.!
0,!
1c
0y
0-!
#475000
1)
1C
1,!
1y
1-!
#475500
0s
0p
0o
1i
08!
0;!
0<!
1B!
1(!
0"!
0!!
0|
1O
0U
0V
0Y
07
04
03
1-
#480000
0)
0(
0'
0&
0%
1$
0C
0K
0J
0I
0H
1G
12!
01!
00!
0/!
0.!
0,!
0c
0b
0a
0`
1_
0y
0-!
#485000
1)
1C
1,!
1y
1-!
#485500
1g
1D!
1*!
1M
1+
#490000
0)
1(
0C
1K
1.!
0,!
1c
0y
0-!
#495000
1)
1C
1,!
1y
1-!
#495500
1q
1:!
1~
1W
15
#500000
0)
0(
1'
0C
0K
1J
1/!
0.!
0,!
0c
1b
0y
0-!
#505000
1)
1C
1,!
1y
1-!
#505500
1u
0q
0i
16!
0:!
0B!
0(!
0~
1z
0O
0W
1[
19
05
0-
#510000
0)
1(
0C
1K
1.!
0,!
1c
0y
0-!
#515000
1)
1C
1,!
1y
1-!
#515500
0u
1t
1q
06!
17!
1:!
1~
1{
0z
1W
1Z
0[
09
18
15
#520000
0)
0(
0'
1&
0C
0K
0J
1I
10!
0/!
0.!
0,!
0c
0b
1a
0y
0-!
#525000
1)
1C
1,!
1y
1-!
#525500
1u
0q
1p
16!
0:!
1;!
1!!
0~
1z
1V
0W
1[
19
05
14
#530000
0)
1(
0C
1K
1.!
0,!
1c
0y
0-!
#535000
1)
1C
1,!
1y
1-!
#535500
0u
0t
1s
1q
06!
07!
18!
1:!
1~
1|
0{
0z
1W
1Y
0Z
0[
09
08
17
15
#540000
0)
0(
1'
0C
0K
1J
1/!
0.!
0,!
0c
1b
0y
0-!
#545000
1)
1C
1,!
1y
1-!
#545500
1u
0q
0p
1o
16!
0:!
0;!
1<!
1"!
0!!
0~
1z
1U
0V
0W
1[
19
05
04
13
#550000
0)
1(
0C
1K
1.!
0,!
1c
0y
0-!
#555000
1)
1C
1,!
1y
1-!
#555500
0u
1t
1q
06!
17!
1:!
1~
1{
0z
1W
1Z
0[
09
18
15
#560000
0)
0(
0'
0&
1%
0C
0K
0J
0I
1H
11!
00!
0/!
0.!
0,!
0c
0b
0a
1`
0y
0-!
#565000
1)
1C
1,!
1y
1-!
#565500
1u
0q
1p
0h
0g
16!
0:!
1;!
0C!
0D!
0*!
0)!
1!!
0~
1z
0M
0N
1V
0W
1[
19
05
14
0,
0+
#570000
0)
1(
0C
1K
1.!
0,!
1c
0y
0-!
#575000
1)
1C
1,!
1y
1-!
#575500
0u
0t
0s
1q
0o
1n
1i
06!
07!
08!
1:!
0<!
1=!
1B!
1(!
1#!
0"!
1~
0|
0{
0z
1O
1T
0U
1W
0Y
0Z
0[
09
08
07
15
03
12
1-
#580000
0)
0(
1'
0C
0K
1J
1/!
0.!
0,!
0c
1b
0y
0-!
#585000
1)
1C
1,!
1y
1-!
#585500
1s
0q
1o
0n
0i
1h
18!
0:!
1<!
0=!
0B!
1C!
1)!
0(!
0#!
1"!
0~
1|
1N
0O
0T
1U
0W
1Y
17
05
13
02
0-
1,
#590000
0)
1(
0C
1K
1.!
0,!
1c
0y
0-!
#595000
1)
1C
1,!
1y
1-!
#595500
0s
0p
0o
1i
08!
0;!
0<!
1B!
1(!
0"!
0!!
0|
1O
0U
0V
0Y
07
04
03
1-
#600000
0)
0(
0'
1&
0C
0K
0J
1I
10!
0/!
0.!
0,!
0c
0b
1a
0y
0-!
#605000
1)
1C
1,!
1y
1-!
#605500
1r
1p
1o
0i
0h
19!
1;!
1<!
0B!
0C!
0)!
0(!
1"!
1!!
1}
0N
0O
1U
1V
1X
16
14
13
0-
0,
#610000
0)
1(
0C
1K
1.!
0,!
1c
0y
0-!
#615000
1)
1C
1,!
1y
1-!
#615500
0r
0p
1n
1i
09!
0;!
1=!
1B!
1(!
1#!
0!!
0}
1O
1T
0V
0X
06
04
12
1-
#620000
0)
0(
1'
0C
0K
1J
1/!
0.!
0,!
0c
1b
0y
0-!
#625000
1)
1C
1,!
1y
1-!
#625500
1t
1p
0n
0i
1h
17!
1;!
0=!
0B!
1C!
1)!
0(!
0#!
1!!
1{
1N
0O
0T
1V
1Z
18
14
02
0-
1,
#630000
0)
1(
0C
1K
1.!
0,!
1c
0y
0-!
#635000
1)
1C
1,!
1y
1-!
#635500
0t
0o
1n
1k
1i
07!
0<!
1=!
1@!
1B!
1(!
1&!
1#!
0"!
0{
1O
1Q
1T
0U
0Z
08
03
12
1/
1-
#640000
0)
0(
0'
0&
0%
0$
0#
1"
0C
0K
0J
0I
0H
0G
0F
1E
14!
03!
02!
01!
00!
0/!
0.!
0,!
0c
0b
0a
0`
0_
0^
1]
0y
0-!
#645000
1)
1C
1,!
1y
1-!
#645500
0n
0k
0i
0h
1g
0=!
0@!
0B!
0C!
1D!
1*!
0)!
0(!
0&!
0#!
1M
0N
0O
0Q
0T
02
0/
0-
0,
1+
#650000
0)
1(
0C
1K
1.!
0,!
1c
0y
0-!
#655000
1)
1C
1,!
1y
1-!
#655500
1i
1B!
1(!
1O
1-
#660000
0)
0(
1'
0C
0K
1J
1/!
0.!
0,!
0c
1b
0y
0-!
#665000
1)
1C
1,!
1y
1-!
#665500
1t
1r
0i
1h
0g
17!
19!
0B!
1C!
0D!
0*!
1)!
0(!
1}
1{
0M
1N
0O
1X
1Z
18
16
0-
1,
0+
#670000
0)
1(
0C
1K
1.!
0,!
1c
0y
0-!
#675000
1)
1C
1,!
1y
1-!
#675500
0t
0r
1q
0p
1m
1l
1i
07!
09!
1:!
0;!
1>!
1?!
1B!
1(!
1%!
1$!
0!!
1~
0}
0{
1O
1R
1S
0V
1W
0X
0Z
08
06
15
04
11
10
1-
#680000
0)
0(
0'
1&
0C
0K
0J
1I
10!
0/!
0.!
0,!
0c
0b
1a
0y
0-!
#685000
1)
1C
1,!
1y
1-!
#685500
0q
1p
0m
0l
1g
0:!
1;!
0>!
0?!
1D!
1*!
0%!
0$!
1!!
0~
1M
0R
0S
1V
0W
05
14
01
00
1+
#690000
0)
1(
0C
1K
1.!
0,!
1c
0y
0-!
#695000
1)
1C
1,!
1y
1-!
#695500
1q
0i
0h
1:!
0B!
0C!
0)!
0(!
1~
0N
0O
1W
15
0-
0,
#700000
0)
0(
1'
0C
0K
1J
1/!
0.!
0,!
0c
1b
0y
0-!
#705000
1)
1C
1,!
1y
1-!
#705500
1i
1B!
1(!
1O
1-
#710000
0)
1(
0C
1K
1.!
0,!
1c
0y
0-!
#715000
1)
1C
1,!
1y
1-!
#715500
1t
1s
0i
1h
0g
17!
18!
0B!
1C!
0D!
0*!
1)!
0(!
1|
1{
0M
1N
0O
1Y
1Z
18
17
0-
1,
0+
#720000
0)
0(
0'
0&
1%
0C
0K
0J
0I
1H
11!
00!
0/!
0.!
0,!
0c
0b
0a
1`
0y
0-!
#725000
1)
1C
1,!
1y
1-!
#725500
0t
0s
0p
1m
1l
1i
07!
08!
0;!
1>!
1?!
1B!
1(!
1%!
1$!
0!!
0|
0{
1O
1R
1S
0V
0Y
0Z
08
07
04
11
10
1-
#730000
0)
1(
0C
1K
1.!
0,!
1c
0y
0-!
#735000
1)
1C
1,!
1y
1-!
#735500
1p
0m
0l
1g
1;!
0>!
0?!
1D!
1*!
0%!
0$!
1!!
1M
0R
0S
1V
14
01
00
1+
#740000
0)
0(
1'
0C
0K
1J
1/!
0.!
0,!
0c
1b
0y
0-!
#745000
1)
1C
1,!
1y
1-!
#745500
1u
1r
0q
1o
0i
0h
0g
16!
19!
0:!
1<!
0B!
0C!
0D!
0*!
0)!
0(!
1"!
0~
1}
1z
0M
0N
0O
1U
0W
1X
1[
19
16
05
13
0-
0,
0+
#750000
0)
1(
0C
1K
1.!
0,!
1c
0y
0-!
#755000
1)
1C
1,!
1y
1-!
#755500
0u
0r
1q
0p
1n
1i
06!
09!
1:!
0;!
1=!
1B!
1(!
1#!
0!!
1~
0}
0z
1O
1T
0V
1W
0X
0[
09
06
15
04
12
1-
#760000
0)
0(
0'
1&
0C
0K
0J
1I
10!
0/!
0.!
0,!
0c
0b
1a
0y
0-!
#765000
1)
1C
1,!
1y
1-!
#765500
1u
0q
1p
0n
0i
1h
16!
0:!
1;!
0=!
0B!
1C!
1)!
0(!
0#!
1!!
0~
1z
1N
0O
0T
1V
0W
1[
19
05
14
02
0-
1,
#770000
0)
1(
0C
1K
1.!
0,!
1c
0y
0-!
#775000
1)
1C
1,!
1y
1-!
#775500
0u
1q
0p
0o
1m
1l
1i
06!
1:!
0;!
0<!
1>!
1?!
1B!
1(!
1%!
1$!
0"!
0!!
1~
0z
1O
1R
1S
0U
0V
1W
0[
09
15
04
03
11
10
1-
#780000
0)
0(
1'
0C
0K
1J
1/!
0.!
0,!
0c
1b
0y
0-!
#785000
1)
1C
1,!
1y
1-!
